# Blender3D MTL File: duck.obj.blend
# Material Count: 1
newmtl blinn3_duckCM.tga
Ns 96.078431
Ka 0.000000 0.000000 0.000000
Kd 0.640000 0.640000 0.640000
Ks 0.500000 0.500000 0.500000
Ni 1.000000
d 1.000000
illum 2


