# Blender3D v243 OBJ File: frisbee.blend
# www.blender3d.org
o Cube
v 1.000000 1.000000 -1.000000
v 1.000000 -1.000000 -1.000000
v -1.000000 -1.000000 -1.000000
v -1.000000 1.000000 -1.000000
v 1.000001 1.000000 2.405931
v 0.999999 -1.000001 2.405931
v -1.000000 -1.000000 2.405931
v -1.000000 1.000000 2.405931
v 1.000001 0.999999 4.782547
v -1.000000 1.000000 4.782546
v -1.000000 -1.000000 4.782547
v 1.000000 -1.000001 4.782547
v 0.086117 -0.086118 7.715214
v 0.086118 0.086117 7.715213
v -0.086117 -0.086118 7.715213
v -0.086117 0.086117 7.715213
v 0.086117 0.086118 8.811798
v -0.086118 0.086118 8.811798
v -0.086118 -0.086117 8.811798
v 0.086117 -0.086117 8.811798
v 2.000000 0.100000 1.000000
v 2.000000 0.100000 -1.000000
v 2.000000 -0.100000 -1.000000
v 1.999999 -0.100000 1.000000
v -0.100001 -2.000000 1.000000
v -0.100001 -2.000000 -1.000000
v 0.100000 -2.000000 -1.000000
v 0.099999 -2.000001 1.000000
v -2.000000 0.100001 -1.000000
v -2.000000 0.100000 1.000000
v -2.000000 -0.099999 1.000000
v -2.000000 -0.099999 -1.000000
v -0.100000 2.000000 -1.000000
v -0.100000 2.000000 1.000000
v 0.100001 1.999999 1.000000
v 0.100001 2.000000 -1.000000
v 4.000000 0.099993 -1.000000
v 4.000000 -0.100007 -1.000000
v 4.000000 0.099993 -0.061089
v 4.000000 -0.100007 -0.061089
v -0.099995 4.000000 -0.999999
v 0.100005 4.000000 -0.999999
v -0.099995 4.000000 -0.061088
v 0.100005 3.999999 -0.061088
v -4.000000 0.100005 -1.000000
v -4.000000 -0.099995 -1.000000
v -4.000000 0.100005 -0.061090
v -4.000000 -0.099995 -0.061090
v -0.100007 -4.000000 -0.984018
v 0.099993 -4.000000 -0.984018
v -0.100007 -4.000000 -0.045107
v 0.099993 -4.000001 -0.045107
vn 0.000000 0.000000 -1.000000
vn 0.000000 1.000000 0.000000
vn -1.000000 0.000000 0.000000
vn -0.000001 -1.000000 -0.000000
vn 1.000000 -0.000001 -0.000000
vn 0.954718 -0.000000 0.297511
vn -0.000001 -0.954718 0.297511
vn -0.954718 0.000000 0.297511
vn 0.000000 0.954718 0.297511
vn -1.000000 -0.000000 -0.000001
vn 1.000000 0.000000 0.000001
vn 0.000000 0.000000 1.000000
vn 0.668965 0.743294 -0.000000
vn 0.668965 -0.743294 0.000000
vn 0.814893 -0.000001 0.579611
vn -0.743294 -0.668965 0.000000
vn 0.743294 -0.668965 -0.000000
vn -0.000001 -0.814893 0.579611
vn -0.668965 0.743294 -0.000000
vn -0.668965 -0.743294 -0.000000
vn -0.814893 0.000000 0.579611
vn -0.743294 0.668965 0.000000
vn 0.743294 0.668965 0.000000
vn 0.000000 0.814893 0.579611
vn 0.468669 -0.000003 0.883374
vn -0.000003 -1.000000 -0.000000
vn 0.000003 1.000000 0.000000
vn 1.000000 -0.000002 -0.000000
vn 0.000001 0.468669 0.883374
vn -1.000000 0.000002 -0.000000
vn 0.000003 1.000000 0.000001
vn -0.468669 0.000002 0.883374
vn -0.000002 -1.000000 -0.000000
vn 0.000002 1.000000 0.000000
vn -1.000000 0.000001 -0.000000
vn 0.000000 -0.007991 -0.999968
vn -0.000003 -0.463133 0.886289
vn 1.000000 -0.000003 0.000000
vn -1.000000 0.000003 0.000000
usemtl (null)
usemtl (null)
s 1
f 1//1 2//1 3//1 4//1
f 5//2 8//2 10//2 9//2
f 8//3 7//3 11//3 10//3
f 7//4 6//4 12//4 11//4
f 6//5 5//5 9//5 12//5
f 12//6 9//6 14//6 13//6
f 11//7 12//7 13//7 15//7
f 10//8 11//8 15//8 16//8
f 9//9 10//9 16//9 14//9
f 14//2 16//2 18//2 17//2
f 16//10 15//10 19//10 18//10
f 15//4 13//4 20//4 19//4
f 13//11 14//11 17//11 20//11
f 17//12 18//12 19//12 20//12
f 1//13 5//13 21//13 22//13
f 6//14 2//14 23//14 24//14
f 5//15 6//15 24//15 21//15
f 2//1 1//1 22//1 23//1
f 7//16 3//16 26//16 25//16
f 2//17 6//17 28//17 27//17
f 6//18 7//18 25//18 28//18
f 3//1 2//1 27//1 26//1
f 8//19 4//19 29//19 30//19
f 3//20 7//20 31//20 32//20
f 7//21 8//21 30//21 31//21
f 4//1 3//1 32//1 29//1
f 4//22 8//22 34//22 33//22
f 5//23 1//23 36//23 35//23
f 8//24 5//24 35//24 34//24
f 1//1 4//1 33//1 36//1
f 23//1 22//1 37//1 38//1
f 21//25 24//25 40//25 39//25
f 24//26 23//26 38//26 40//26
f 22//27 21//27 39//27 37//27
f 37//28 39//28 40//28 38//28
f 36//1 33//1 41//1 42//1
f 34//29 35//29 44//29 43//29
f 35//28 36//28 42//28 44//28
f 33//30 34//30 43//30 41//30
f 41//31 43//31 44//31 42//31
f 29//1 32//1 46//1 45//1
f 31//32 30//32 47//32 48//32
f 32//33 31//33 48//33 46//33
f 30//34 29//34 45//34 47//34
f 46//35 48//35 47//35 45//35
f 26//36 27//36 50//36 49//36
f 28//37 25//37 51//37 52//37
f 27//38 28//38 52//38 50//38
f 25//39 26//39 49//39 51//39
f 50//26 52//26 51//26 49//26
