<?xml version="1.0" encoding="UTF-8" standalone="no"?>
<!-- Created with Inkscape (http://www.inkscape.org/) -->
<svg
   xmlns:dc="http://purl.org/dc/elements/1.1/"
   xmlns:cc="http://creativecommons.org/ns#"
   xmlns:rdf="http://www.w3.org/1999/02/22-rdf-syntax-ns#"
   xmlns:svg="http://www.w3.org/2000/svg"
   xmlns="http://www.w3.org/2000/svg"
   xmlns:xlink="http://www.w3.org/1999/xlink"
   xmlns:sodipodi="http://sodipodi.sourceforge.net/DTD/sodipodi-0.dtd"
   xmlns:inkscape="http://www.inkscape.org/namespaces/inkscape"
   width="1052.3622"
   height="744.09448"
   id="svg2"
   sodipodi:version="0.32"
   inkscape:version="0.46"
   sodipodi:docbase="/home/dave/flotsam/waffle/seville-inst"
   sodipodi:docname="instructions.svg"
   inkscape:export-filename="/home/dave/flotsam/waffle/seville-inst/instructions.png"
   inkscape:export-xdpi="500"
   inkscape:export-ydpi="500"
   inkscape:output_extension="org.inkscape.output.svg.inkscape"
   version="1.0"
   sodipodi:modified="true">
  <defs
     id="defs4">
    <inkscape:perspective
       sodipodi:type="inkscape:persp3d"
       inkscape:vp_x="0 : 372.04724 : 1"
       inkscape:vp_y="0 : 1000 : 0"
       inkscape:vp_z="1052.3622 : 372.04724 : 1"
       inkscape:persp3d-origin="526.18109 : 248.03149 : 1"
       id="perspective103" />
    <marker
       inkscape:stockid="TriangleInL"
       orient="auto"
       refY="0"
       refX="0"
       id="TriangleInL"
       style="overflow:visible">
      <path
         id="path5035"
         d="M 5.77,0 L -2.88,5 L -2.88,-5 L 5.77,0 z "
         style="fill-rule:evenodd;stroke:#000000;stroke-width:1pt;marker-start:none"
         transform="scale(-0.8,-0.8)" />
    </marker>
    <marker
       inkscape:stockid="TriangleOutL"
       orient="auto"
       refY="0"
       refX="0"
       id="TriangleOutL"
       style="overflow:visible">
      <path
         id="path5026"
         d="M 5.77,0 L -2.88,5 L -2.88,-5 L 5.77,0 z "
         style="fill-rule:evenodd;stroke:#000000;stroke-width:1pt;marker-start:none"
         transform="scale(0.8,0.8)" />
    </marker>
    <marker
       inkscape:stockid="Arrow2Lend"
       orient="auto"
       refY="0"
       refX="0"
       id="Arrow2Lend"
       style="overflow:visible">
      <path
         sodipodi:nodetypes="cccc"
         id="path9724"
         style="font-size:12px;fill-rule:evenodd;stroke-width:0.625;stroke-linejoin:round"
         d="M 8.7185878,4.0337352 L -2.2072895,0.016013256 L 8.7185884,-4.0017078 C 6.97309,-1.6296469 6.9831476,1.6157441 8.7185878,4.0337352 z "
         transform="matrix(-1.1,0,0,-1.1,5.5,0)" />
    </marker>
    <marker
       inkscape:stockid="Dot_l"
       orient="auto"
       refY="0"
       refX="0"
       id="Dot_l"
       style="overflow:visible">
      <path
         id="path41"
         d="M -2.5,-1 C -2.5,1.76 -4.74,4 -7.5,4 C -10.26,4 -12.5,1.76 -12.5,-1 C -12.5,-3.76 -10.26,-6 -7.5,-6 C -4.74,-6 -2.5,-3.76 -2.5,-1 z "
         style="fill-rule:evenodd;stroke:#000000;stroke-width:1pt;marker-start:none;marker-end:none"
         transform="matrix(0.8,0,0,0.8,5.7003944,0.8)" />
    </marker>
  </defs>
  <sodipodi:namedview
     id="base"
     pagecolor="#ffffff"
     bordercolor="#666666"
     borderopacity="1.0"
     inkscape:pageopacity="0.0"
     inkscape:pageshadow="2"
     inkscape:zoom="0.70710678"
     inkscape:cx="491.7871"
     inkscape:cy="364.38392"
     inkscape:document-units="px"
     inkscape:current-layer="layer1"
     inkscape:window-width="1023"
     inkscape:window-height="722"
     inkscape:window-x="0"
     inkscape:window-y="25"
     showgrid="false"
     inkscape:grid-points="true"
     gridtolerance="6.4000000px"
     width="1052.3622px"
     height="744.09448px">
    <inkscape:grid
       id="GridFromPre046Settings"
       type="xygrid"
       originx="0px"
       originy="0px"
       spacingx="8.0000000px"
       spacingy="8.0000000px"
       color="#0000ff"
       empcolor="#0000ff"
       opacity="0.2"
       empopacity="0.4"
       empspacing="5" />
  </sodipodi:namedview>
  <metadata
     id="metadata7">
    <rdf:RDF>
      <cc:Work
         rdf:about="">
        <dc:format>image/svg+xml</dc:format>
        <dc:type
           rdf:resource="http://purl.org/dc/dcmitype/StillImage" />
      </cc:Work>
    </rdf:RDF>
  </metadata>
  <g
     inkscape:label="Layer 1"
     inkscape:groupmode="layer"
     id="layer1">
    <path
       style="fill:#a8a8a8;fill-opacity:1;fill-rule:evenodd;stroke:#000000;stroke-width:2.57257628;stroke-linecap:butt;stroke-linejoin:miter;stroke-miterlimit:4;stroke-dasharray:none;stroke-opacity:1"
       d="M 174.27106,343.62325 C 142.33457,344.87133 121.62511,371.77803 108.18799,398.65233 C 89.812439,435.40338 56.441129,555.24404 100.83202,574.11013 C 137.5831,589.7293 144.93907,555.76331 159.63952,533.71258 C 174.33998,511.66189 179.80563,495.19573 205.58414,496.00827 L 280.45874,498.36834 C 304.57664,498.59807 331.89875,496.28959 357.16514,496.28959 C 382.95648,496.28959 388.40935,511.90307 403.10975,533.95376 C 417.8102,556.00449 425.16617,590.01074 461.91725,574.39146 C 506.30814,555.52532 472.93683,435.64457 454.56128,398.89352 C 438.02328,365.81739 410.45994,332.7415 364.52111,347.44186 C 318.58224,362.14232 348.43676,352.98332 320.87344,362.171 C 311.49378,365.29759 290.13394,370.22021 283.7606,370.84203 C 276.89454,370.56495 260.09086,367.80818 249.22605,364.18663 C 227.1754,356.8364 244.16703,361.90116 198.22817,347.20068 C 189.61464,344.4444 181.64101,343.33527 174.27106,343.62325 z"
       id="path3351"
       sodipodi:nodetypes="csssscsssssscssc"
       inkscape:export-filename="/home/dave/matter/dresden/aljazarimap.png"
       inkscape:export-xdpi="300.07999"
       inkscape:export-ydpi="300.07999" />
    <path
       sodipodi:type="arc"
       style="fill:#ffffff;fill-opacity:1;fill-rule:evenodd;stroke:#000000;stroke-width:2;stroke-linecap:butt;stroke-linejoin:miter;stroke-miterlimit:4;stroke-dasharray:none;stroke-opacity:1"
       id="path3353"
       sodipodi:cx="237.85715"
       sodipodi:cy="409.50504"
       sodipodi:rx="26.428572"
       sodipodi:ry="26.428572"
       d="M 264.28572,409.50504 A 26.428572,26.428572 0 1 1 211.42858,409.50504 A 26.428572,26.428572 0 1 1 264.28572,409.50504 z"
       transform="matrix(1.2862883,0,0,1.2862883,-73.741391,-38.06555)"
       inkscape:export-filename="/home/dave/matter/dresden/aljazarimap.png"
       inkscape:export-xdpi="300.07999"
       inkscape:export-ydpi="300.07999" />
    <path
       sodipodi:type="arc"
       style="fill:#ffffff;fill-opacity:1;fill-rule:evenodd;stroke:#000000;stroke-width:2;stroke-linecap:butt;stroke-linejoin:miter;stroke-miterlimit:4;stroke-dasharray:none;stroke-opacity:1"
       id="path3355"
       sodipodi:cx="237.85715"
       sodipodi:cy="409.50504"
       sodipodi:rx="26.428572"
       sodipodi:ry="26.428572"
       d="M 264.28572,409.50504 A 26.428572,26.428572 0 1 1 211.42858,409.50504 A 26.428572,26.428572 0 1 1 264.28572,409.50504 z"
       transform="matrix(-1.2862883,0,0,1.2862883,636.47847,-37.797069)"
       inkscape:export-filename="/home/dave/matter/dresden/aljazarimap.png"
       inkscape:export-xdpi="300.07999"
       inkscape:export-ydpi="300.07999" />
    <path
       style="fill:#ffffff;fill-opacity:1;fill-rule:evenodd;stroke:#000000;stroke-width:2.57257628;stroke-linecap:butt;stroke-linejoin:miter;stroke-miterlimit:4;stroke-dasharray:none;stroke-opacity:1"
       d="M 163.57879,373.55313 L 163.57879,399.27902 L 137.85303,399.27902 L 137.85303,425.00479 L 163.57879,425.00479 L 163.57879,450.73055 L 189.30454,450.73055 L 189.30454,425.00479 L 215.03029,425.00479 L 215.03029,399.27902 L 189.30454,399.27902 L 189.30454,373.55313 L 163.57879,373.55313 z"
       id="path3357"
       sodipodi:nodetypes="ccccccccccccc"
       inkscape:export-filename="/home/dave/matter/dresden/aljazarimap.png"
       inkscape:export-xdpi="300.07999"
       inkscape:export-ydpi="300.07999" />
    <path
       sodipodi:type="arc"
       style="fill:#ffffff;fill-opacity:1;stroke:#000000;stroke-width:2;stroke-miterlimit:4;stroke-dasharray:none;stroke-opacity:1"
       id="path3359"
       sodipodi:cx="407.84909"
       sodipodi:cy="390.96481"
       sodipodi:rx="8.8388348"
       sodipodi:ry="8.8388348"
       d="M 416.68793,390.96481 A 8.8388348,8.8388348 0 1 1 399.01026,390.96481 A 8.8388348,8.8388348 0 1 1 416.68793,390.96481 z"
       transform="matrix(1.2862883,0,0,1.2862883,-131.22645,-113.18581)"
       inkscape:export-filename="/home/dave/matter/dresden/aljazarimap.png"
       inkscape:export-xdpi="300.07999"
       inkscape:export-ydpi="300.07999" />
    <path
       sodipodi:type="arc"
       style="fill:#ffffff;fill-opacity:1;stroke:#000000;stroke-width:2;stroke-miterlimit:4;stroke-dasharray:none;stroke-opacity:1"
       id="path3361"
       sodipodi:cx="407.84909"
       sodipodi:cy="390.96481"
       sodipodi:rx="8.8388348"
       sodipodi:ry="8.8388348"
       d="M 416.68793,390.96481 A 8.8388348,8.8388348 0 1 1 399.01026,390.96481 A 8.8388348,8.8388348 0 1 1 416.68793,390.96481 z"
       transform="matrix(1.2862883,0,0,1.2862883,-137.01123,-65.233172)"
       inkscape:export-filename="/home/dave/matter/dresden/aljazarimap.png"
       inkscape:export-xdpi="300.07999"
       inkscape:export-ydpi="300.07999" />
    <path
       sodipodi:type="arc"
       style="fill:#ffffff;fill-opacity:1;stroke:#000000;stroke-width:2;stroke-miterlimit:4;stroke-dasharray:none;stroke-opacity:1"
       id="path3363"
       sodipodi:cx="407.84909"
       sodipodi:cy="390.96481"
       sodipodi:rx="8.8388348"
       sodipodi:ry="8.8388348"
       d="M 416.68793,390.96481 A 8.8388348,8.8388348 0 1 1 399.01026,390.96481 A 8.8388348,8.8388348 0 1 1 416.68793,390.96481 z"
       transform="matrix(1.2862883,0,0,1.2862883,-165.72419,-91.830613)"
       inkscape:export-filename="/home/dave/matter/dresden/aljazarimap.png"
       inkscape:export-xdpi="300.07999"
       inkscape:export-ydpi="300.07999" />
    <path
       sodipodi:type="arc"
       style="fill:#ffffff;fill-opacity:1;stroke:#000000;stroke-width:2;stroke-miterlimit:4;stroke-dasharray:none;stroke-opacity:1"
       id="path3365"
       sodipodi:cx="407.84909"
       sodipodi:cy="390.96481"
       sodipodi:rx="8.8388348"
       sodipodi:ry="8.8388348"
       d="M 416.68793,390.96481 A 8.8388348,8.8388348 0 1 1 399.01026,390.96481 A 8.8388348,8.8388348 0 1 1 416.68793,390.96481 z"
       transform="matrix(1.2862883,0,0,1.2862883,-107.84121,-92.245219)"
       inkscape:export-filename="/home/dave/matter/dresden/aljazarimap.png"
       inkscape:export-xdpi="300.07999"
       inkscape:export-ydpi="300.07999" />
    <path
       sodipodi:type="arc"
       style="fill:#ffffff;fill-opacity:1;stroke:#000000;stroke-width:2;stroke-miterlimit:4;stroke-dasharray:none;stroke-opacity:1"
       id="path3367"
       sodipodi:cx="299.25769"
       sodipodi:cy="473.7973"
       sodipodi:rx="20.455589"
       sodipodi:ry="20.455589"
       d="M 319.71328,473.7973 A 20.455589,20.455589 0 1 1 278.8021,473.7973 A 20.455589,20.455589 0 1 1 319.71328,473.7973 z"
       transform="matrix(1.2862883,0,0,1.2862883,-152.59356,-120.82106)"
       inkscape:export-filename="/home/dave/matter/dresden/aljazarimap.png"
       inkscape:export-xdpi="300.07999"
       inkscape:export-ydpi="300.07999" />
    <path
       sodipodi:type="arc"
       style="fill:#ffffff;fill-opacity:1;stroke:#000000;stroke-width:2;stroke-miterlimit:4;stroke-dasharray:none;stroke-opacity:1"
       id="path3369"
       sodipodi:cx="299.25769"
       sodipodi:cy="473.7973"
       sodipodi:rx="20.455589"
       sodipodi:ry="20.455589"
       d="M 319.71328,473.7973 A 20.455589,20.455589 0 1 1 278.8021,473.7973 A 20.455589,20.455589 0 1 1 319.71328,473.7973 z"
       transform="matrix(1.2862883,0,0,1.2862883,-54.071741,-120.70681)"
       inkscape:export-filename="/home/dave/matter/dresden/aljazarimap.png"
       inkscape:export-xdpi="300.07999"
       inkscape:export-ydpi="300.07999" />
    <rect
       style="fill:#ffffff;fill-opacity:1;stroke:#000000;stroke-width:2.57257628;stroke-miterlimit:4;stroke-dasharray:none;stroke-opacity:1"
       id="rect3371"
       width="18.008034"
       height="9.6179943"
       x="245.90123"
       y="408.95508"
       inkscape:export-filename="/home/dave/matter/dresden/aljazarimap.png"
       inkscape:export-xdpi="300.07999"
       inkscape:export-ydpi="300.07999" />
    <rect
       style="fill:#ffffff;fill-opacity:1;stroke:#000000;stroke-width:2.57257628;stroke-miterlimit:4;stroke-dasharray:none;stroke-opacity:1"
       id="rect3373"
       width="18.008034"
       height="9.6179943"
       x="301.32593"
       y="408.95508"
       inkscape:export-filename="/home/dave/matter/dresden/aljazarimap.png"
       inkscape:export-xdpi="300.07999"
       inkscape:export-ydpi="300.07999" />
    <path
       style="fill:none;fill-rule:evenodd;stroke:#000000;stroke-width:2;stroke-linecap:butt;stroke-linejoin:miter;marker-start:url(#TriangleInL);marker-end:none;stroke-miterlimit:4;stroke-dasharray:none;stroke-opacity:1"
       d="M 367.37302,407.09188 L 494.50543,359.10128"
       id="path3385"
       sodipodi:nodetypes="cc"
       inkscape:export-filename="/home/dave/matter/dresden/aljazarimap.png"
       inkscape:export-xdpi="300.07999"
       inkscape:export-ydpi="300.07999" />
    <path
       style="fill:none;fill-rule:evenodd;stroke:#000000;stroke-width:2;stroke-linecap:butt;stroke-linejoin:miter;marker-start:url(#TriangleInL);marker-end:none;stroke-miterlimit:4;stroke-dasharray:none;stroke-opacity:1"
       d="M 176.96599,450.02106 L 178.37949,629.21381"
       id="path3391"
       sodipodi:nodetypes="cc"
       inkscape:export-filename="/home/dave/matter/dresden/aljazarimap.png"
       inkscape:export-xdpi="300.07999"
       inkscape:export-ydpi="300.07999" />
    <path
       style="fill:none;fill-rule:evenodd;stroke:#000000;stroke-width:2;stroke-linecap:butt;stroke-linejoin:miter;marker-start:url(#TriangleInL);marker-end:none;stroke-miterlimit:4;stroke-dasharray:none;stroke-opacity:1"
       d="M 320.46882,478.91232 L 192.03619,272.64327"
       id="path3393"
       sodipodi:nodetypes="cc"
       inkscape:export-filename="/home/dave/matter/dresden/aljazarimap.png"
       inkscape:export-xdpi="300.07999"
       inkscape:export-ydpi="300.07999" />
    <image
       y="19.930954"
       x="934.9519"
       id="image2720"
       height="67.144554"
       width="92.323761"
       sodipodi:absref="/home/dave/flotsam/waffle/seville-inst/blue.png"
       xlink:href="/home/dave/flotsam/waffle/seville-inst/blue.png" />
    <image
       y="23.906857"
       x="684.40997"
       id="image2763"
       height="63.495392"
       width="91.958847"
       sodipodi:absref="/home/dave/flotsam/waffle/seville-inst/green.png"
       xlink:href="/home/dave/flotsam/waffle/seville-inst/green.png" />
    <image
       y="22.488251"
       x="560.52722"
       id="image2806"
       height="63.130474"
       width="90.499176"
       sodipodi:absref="/home/dave/flotsam/waffle/seville-inst/red.png"
       xlink:href="/home/dave/flotsam/waffle/seville-inst/red.png" />
    <image
       y="22.500214"
       x="807.5838"
       id="image2849"
       height="65.319969"
       width="90.499176"
       sodipodi:absref="/home/dave/flotsam/waffle/seville-inst/yellow.png"
       xlink:href="/home/dave/flotsam/waffle/seville-inst/yellow.png" />
    <text
       xml:space="preserve"
       style="font-size:20px;font-style:normal;font-weight:normal;fill:#000000;fill-opacity:1;stroke:none;stroke-width:1px;stroke-linecap:butt;stroke-linejoin:miter;stroke-opacity:1;font-family:Bitstream Vera Sans"
       x="39.925747"
       y="46.613144"
       id="text2852"><tspan
         sodipodi:role="line"
         x="39.925747"
         y="46.613144"
         id="tspan2858">Pick a joypad - each one controls a robot, </tspan><tspan
         sodipodi:role="line"
         x="39.925747"
         y="71.613144"
         id="tspan6104">indicated by the colour.</tspan><tspan
         sodipodi:role="line"
         x="39.925747"
         y="96.613144"
         id="tspan2476">Nimm einen Joypad - jeder kontrolliert einen </tspan><tspan
         sodipodi:role="line"
         x="39.925747"
         y="121.61314"
         id="tspan2480">Roboter, angezeigt durch die Farbe.</tspan><tspan
         sodipodi:role="line"
         x="39.925747"
         y="146.61314"
         id="tspan2492">Toma un mando-cada uno controla un robot, </tspan><tspan
         sodipodi:role="line"
         x="39.925747"
         y="171.61314"
         id="tspan2494">según indica su color.</tspan><tspan
         sodipodi:role="line"
         x="39.925747"
         y="196.61314"
         id="tspan2856" /></text>
    <text
       xml:space="preserve"
       style="font-size:20px;font-style:normal;font-weight:normal;fill:#000000;fill-opacity:1;stroke:none;stroke-width:1px;stroke-linecap:butt;stroke-linejoin:miter;stroke-opacity:1;font-family:Bitstream Vera Sans"
       x="31.928286"
       y="212.17296"
       id="text2860"><tspan
         sodipodi:role="line"
         x="31.928286"
         y="212.17296"
         id="tspan2864">Use the left joystick to select an instruction.</tspan><tspan
         sodipodi:role="line"
         x="31.928286"
         y="237.17296"
         id="tspan2502">Mit dem Linken Joystick wählst du die Anweisungen aus.</tspan><tspan
         sodipodi:role="line"
         x="31.928286"
         y="262.17297"
         id="tspan2498">Usa el joystick izquierdo para seleccionar una instrucción.</tspan></text>
    <text
       xml:space="preserve"
       style="font-size:20px;font-style:normal;font-weight:normal;fill:#000000;fill-opacity:1;stroke:none;stroke-width:1px;stroke-linecap:butt;stroke-linejoin:miter;stroke-opacity:1;font-family:Bitstream Vera Sans"
       x="506.11325"
       y="304.5499"
       id="text2874"><tspan
         sodipodi:role="line"
         id="tspan2876"
         x="506.11325"
         y="304.5499">Press button 1 while holding the joystick to write </tspan><tspan
         sodipodi:role="line"
         x="506.11325"
         y="329.5499"
         id="tspan2508">the chosen instruction.</tspan><tspan
         sodipodi:role="line"
         x="506.11325"
         y="354.5499"
         id="tspan2510">Drücke Knopf 1, während du den Joystick hälst, um </tspan><tspan
         sodipodi:role="line"
         x="506.11325"
         y="379.5499"
         id="tspan2516">die ausgewählte Anweisung zu schreiben.</tspan><tspan
         sodipodi:role="line"
         x="506.11325"
         y="404.5499"
         id="tspan2512">Presiona el botón 1 mientras sostienes el joystick </tspan><tspan
         sodipodi:role="line"
         x="506.11325"
         y="429.5499"
         id="tspan2878">para escribir la instrucción seleccionada.</tspan><tspan
         sodipodi:role="line"
         x="506.11325"
         y="454.5499"
         id="tspan6110" /></text>
    <text
       xml:space="preserve"
       style="font-size:20px;font-style:normal;font-weight:normal;fill:#000000;fill-opacity:1;stroke:none;stroke-width:1px;stroke-linecap:butt;stroke-linejoin:miter;stroke-opacity:1;font-family:Bitstream Vera Sans"
       x="131.35744"
       y="651.8855"
       id="text2882"><tspan
         sodipodi:role="line"
         id="tspan2884"
         x="131.35744"
         y="651.8855">Use the directional buttons to move around the program.</tspan><tspan
         sodipodi:role="line"
         x="131.35744"
         y="676.8855"
         id="tspan2524">Mit den Richtungsknöpfen kannst du dich durch das Programm bewegen.</tspan><tspan
         sodipodi:role="line"
         x="131.35744"
         y="701.8855"
         id="tspan2520">Usa los botones de dirección para moverte en torno al programa.</tspan><tspan
         sodipodi:role="line"
         x="131.35744"
         y="726.8855"
         id="tspan2886" /></text>
    <path
       style="fill:#d00000;fill-opacity:1;fill-rule:evenodd;stroke:#000000;stroke-width:0.687603;stroke-linecap:butt;stroke-linejoin:miter;stroke-miterlimit:4;stroke-dasharray:none;stroke-opacity:1"
       d="M 579.92793,108.69651 C 571.39189,109.0301 565.85662,116.22178 562.26512,123.40479 C 557.35368,133.22768 548.43413,165.2589 560.29901,170.30148 C 570.12191,174.47619 572.08802,165.3977 576.01719,159.50395 C 579.94636,153.6102 581.40722,149.20909 588.29736,149.42626 L 608.30997,150.05706 C 614.75624,150.11848 622.05894,149.50146 628.81219,149.50146 C 635.70575,149.50146 637.16321,153.67465 641.09235,159.5684 C 645.02152,165.46217 646.98764,174.55141 656.81054,170.37667 C 668.67541,165.33409 659.75586,133.29214 654.84441,123.46926 C 650.42411,114.62861 643.05692,105.78803 630.77832,109.71716 C 618.49968,113.64633 626.47925,111.19829 619.11208,113.65399 C 616.60506,114.48967 610.89597,115.8054 609.19249,115.9716 C 607.35731,115.89755 602.866,115.16071 599.96203,114.19273 C 594.06829,112.22815 598.60985,113.58187 586.33123,109.6527 C 584.02899,108.916 581.89779,108.61954 579.92793,108.69651 z "
       id="path2888"
       sodipodi:nodetypes="csssscsssssscssc"
       inkscape:export-filename="/home/dave/matter/dresden/aljazarimap.png"
       inkscape:export-xdpi="300.07999"
       inkscape:export-ydpi="300.07999" />
    <path
       sodipodi:type="arc"
       style="fill:#ffffff;fill-opacity:1;fill-rule:evenodd;stroke:#000000;stroke-width:2;stroke-linecap:butt;stroke-linejoin:miter;stroke-miterlimit:4;stroke-dasharray:none;stroke-opacity:1"
       id="path2890"
       sodipodi:cx="237.85715"
       sodipodi:cy="409.50504"
       sodipodi:rx="26.428572"
       sodipodi:ry="26.428572"
       d="M 264.28572 409.50504 A 26.428572 26.428572 0 1 1  211.42858,409.50504 A 26.428572 26.428572 0 1 1  264.28572 409.50504 z"
       transform="matrix(0.3438015,0,0,0.3438015,513.63871,6.678026)"
       inkscape:export-filename="/home/dave/matter/dresden/aljazarimap.png"
       inkscape:export-xdpi="300.07999"
       inkscape:export-ydpi="300.07999" />
    <path
       sodipodi:type="arc"
       style="fill:#ffffff;fill-opacity:1;fill-rule:evenodd;stroke:#000000;stroke-width:2;stroke-linecap:butt;stroke-linejoin:miter;stroke-miterlimit:4;stroke-dasharray:none;stroke-opacity:1"
       id="path2892"
       sodipodi:cx="237.85715"
       sodipodi:cy="409.50504"
       sodipodi:rx="26.428572"
       sodipodi:ry="26.428572"
       d="M 264.28572 409.50504 A 26.428572 26.428572 0 1 1  211.42858,409.50504 A 26.428572 26.428572 0 1 1  264.28572 409.50504 z"
       transform="matrix(-0.3438015,0,0,0.3438015,703.46759,6.749787)"
       inkscape:export-filename="/home/dave/matter/dresden/aljazarimap.png"
       inkscape:export-xdpi="300.07999"
       inkscape:export-ydpi="300.07999" />
    <path
       style="fill:#ffffff;fill-opacity:1;fill-rule:evenodd;stroke:#000000;stroke-width:0.687603;stroke-linecap:butt;stroke-linejoin:miter;stroke-miterlimit:4;stroke-dasharray:none;stroke-opacity:1"
       d="M 576.99282,116.76395 L 576.99282,123.64002 L 570.11679,123.64002 L 570.11679,130.51605 L 576.99282,130.51605 L 576.99282,137.39209 L 583.86884,137.39209 L 583.86884,130.51605 L 590.74487,130.51605 L 590.74487,123.64002 L 583.86884,123.64002 L 583.86884,116.76395 L 576.99282,116.76395 z "
       id="path2894"
       sodipodi:nodetypes="ccccccccccccc"
       inkscape:export-filename="/home/dave/matter/dresden/aljazarimap.png"
       inkscape:export-xdpi="300.07999"
       inkscape:export-ydpi="300.07999" />
    <path
       sodipodi:type="arc"
       style="fill:#ffffff;fill-opacity:1;stroke:#000000;stroke-width:2;stroke-miterlimit:4;stroke-dasharray:none;stroke-opacity:1"
       id="path2896"
       sodipodi:cx="407.84909"
       sodipodi:cy="390.96481"
       sodipodi:rx="8.8388348"
       sodipodi:ry="8.8388348"
       d="M 416.68793 390.96481 A 8.8388348 8.8388348 0 1 1  399.01026,390.96481 A 8.8388348 8.8388348 0 1 1  416.68793 390.96481 z"
       transform="matrix(0.3438015,0,0,0.3438015,496.38404,-14.912254)"
       inkscape:export-filename="/home/dave/matter/dresden/aljazarimap.png"
       inkscape:export-xdpi="300.07999"
       inkscape:export-ydpi="300.07999" />
    <path
       sodipodi:type="arc"
       style="fill:#ffffff;fill-opacity:1;stroke:#000000;stroke-width:2;stroke-miterlimit:4;stroke-dasharray:none;stroke-opacity:1"
       id="path2898"
       sodipodi:cx="407.84909"
       sodipodi:cy="390.96481"
       sodipodi:rx="8.8388348"
       sodipodi:ry="8.8388348"
       d="M 416.68793 390.96481 A 8.8388348 8.8388348 0 1 1  399.01026,390.96481 A 8.8388348 8.8388348 0 1 1  416.68793 390.96481 z"
       transform="matrix(0.3438015,0,0,0.3438015,496.72783,-0.5833955)"
       inkscape:export-filename="/home/dave/matter/dresden/aljazarimap.png"
       inkscape:export-xdpi="300.07999"
       inkscape:export-ydpi="300.07999" />
    <path
       sodipodi:type="arc"
       style="fill:#ffffff;fill-opacity:1;stroke:#000000;stroke-width:2;stroke-miterlimit:4;stroke-dasharray:none;stroke-opacity:1"
       id="path2900"
       sodipodi:cx="407.84909"
       sodipodi:cy="390.96481"
       sodipodi:rx="8.8388348"
       sodipodi:ry="8.8388348"
       d="M 416.68793 390.96481 A 8.8388348 8.8388348 0 1 1  399.01026,390.96481 A 8.8388348 8.8388348 0 1 1  416.68793 390.96481 z"
       transform="matrix(0.3438015,0,0,0.3438015,489.05338,-7.6924128)"
       inkscape:export-filename="/home/dave/matter/dresden/aljazarimap.png"
       inkscape:export-xdpi="300.07999"
       inkscape:export-ydpi="300.07999" />
    <path
       sodipodi:type="arc"
       style="fill:#ffffff;fill-opacity:1;stroke:#000000;stroke-width:2;stroke-miterlimit:4;stroke-dasharray:none;stroke-opacity:1"
       id="path2902"
       sodipodi:cx="407.84909"
       sodipodi:cy="390.96481"
       sodipodi:rx="8.8388348"
       sodipodi:ry="8.8388348"
       d="M 416.68793 390.96481 A 8.8388348 8.8388348 0 1 1  399.01026,390.96481 A 8.8388348 8.8388348 0 1 1  416.68793 390.96481 z"
       transform="matrix(0.3438015,0,0,0.3438015,504.52444,-7.8032241)"
       inkscape:export-filename="/home/dave/matter/dresden/aljazarimap.png"
       inkscape:export-xdpi="300.07999"
       inkscape:export-ydpi="300.07999" />
    <path
       sodipodi:type="arc"
       style="fill:#ffffff;fill-opacity:1;stroke:#000000;stroke-width:2;stroke-miterlimit:4;stroke-dasharray:none;stroke-opacity:1"
       id="path2904"
       sodipodi:cx="299.25769"
       sodipodi:cy="473.7973"
       sodipodi:rx="20.455589"
       sodipodi:ry="20.455589"
       d="M 319.71328 473.7973 A 20.455589 20.455589 0 1 1  278.8021,473.7973 A 20.455589 20.455589 0 1 1  319.71328 473.7973 z"
       transform="matrix(0.3438015,0,0,0.3438015,492.48569,-15.37331)"
       inkscape:export-filename="/home/dave/matter/dresden/aljazarimap.png"
       inkscape:export-xdpi="300.07999"
       inkscape:export-ydpi="300.07999" />
    <path
       sodipodi:type="arc"
       style="fill:#ffffff;fill-opacity:1;stroke:#000000;stroke-width:2;stroke-miterlimit:4;stroke-dasharray:none;stroke-opacity:1"
       id="path2906"
       sodipodi:cx="299.25769"
       sodipodi:cy="473.7973"
       sodipodi:rx="20.455589"
       sodipodi:ry="20.455589"
       d="M 319.71328 473.7973 A 20.455589 20.455589 0 1 1  278.8021,473.7973 A 20.455589 20.455589 0 1 1  319.71328 473.7973 z"
       transform="matrix(0.3438015,0,0,0.3438015,518.89605,-15.410502)"
       inkscape:export-filename="/home/dave/matter/dresden/aljazarimap.png"
       inkscape:export-xdpi="300.07999"
       inkscape:export-ydpi="300.07999" />
    <rect
       style="fill:#ffffff;fill-opacity:1;stroke:#000000;stroke-width:0.687603;stroke-miterlimit:4;stroke-dasharray:none;stroke-opacity:1"
       id="rect2908"
       width="4.8132205"
       height="2.5707152"
       x="598.99609"
       y="126.22627"
       inkscape:export-filename="/home/dave/matter/dresden/aljazarimap.png"
       inkscape:export-xdpi="300.07999"
       inkscape:export-ydpi="300.07999" />
    <rect
       style="fill:#ffffff;fill-opacity:1;stroke:#000000;stroke-width:0.687603;stroke-miterlimit:4;stroke-dasharray:none;stroke-opacity:1"
       id="rect2910"
       width="4.8132205"
       height="2.5707152"
       x="613.88739"
       y="126.15854"
       inkscape:export-filename="/home/dave/matter/dresden/aljazarimap.png"
       inkscape:export-xdpi="300.07999"
       inkscape:export-ydpi="300.07999" />
    <path
       style="fill:#00ae00;fill-opacity:1;fill-rule:evenodd;stroke:#000000;stroke-width:0.687603;stroke-linecap:butt;stroke-linejoin:miter;stroke-miterlimit:4;stroke-dasharray:none;stroke-opacity:1"
       d="M 704.26419,110.64581 C 695.72814,110.9794 690.19287,118.17108 686.60137,125.35409 C 681.68993,135.17698 672.77038,167.2082 684.63526,172.25078 C 694.45816,176.42549 696.42427,167.347 700.35344,161.45325 C 704.28261,155.5595 705.74347,151.15839 712.63361,151.37556 L 732.64623,152.00636 C 739.0925,152.06778 746.39521,151.45076 753.14846,151.45076 C 760.04202,151.45076 761.49947,155.62395 765.42862,161.5177 C 769.35778,167.41147 771.32391,176.50071 781.1468,172.32597 C 793.01167,167.28339 784.09213,135.24144 779.18068,125.41856 C 774.76037,116.57791 767.39319,107.73733 755.11458,111.66646 C 742.83595,115.59563 750.81552,113.1476 743.44834,115.60329 C 740.94133,116.43897 735.23223,117.75471 733.52875,117.9209 C 731.69357,117.84685 727.20226,117.11001 724.29829,116.14203 C 718.40455,114.17745 722.94612,115.53117 710.66749,111.60201 C 708.36525,110.8653 706.23404,110.56884 704.26419,110.64581 z "
       id="path3883"
       sodipodi:nodetypes="csssscsssssscssc"
       inkscape:export-filename="/home/dave/matter/dresden/aljazarimap.png"
       inkscape:export-xdpi="300.07999"
       inkscape:export-ydpi="300.07999" />
    <path
       sodipodi:type="arc"
       style="fill:#ffffff;fill-opacity:1;fill-rule:evenodd;stroke:#000000;stroke-width:2;stroke-linecap:butt;stroke-linejoin:miter;stroke-miterlimit:4;stroke-dasharray:none;stroke-opacity:1"
       id="path3885"
       sodipodi:cx="237.85715"
       sodipodi:cy="409.50504"
       sodipodi:rx="26.428572"
       sodipodi:ry="26.428572"
       d="M 264.28572 409.50504 A 26.428572 26.428572 0 1 1  211.42858,409.50504 A 26.428572 26.428572 0 1 1  264.28572 409.50504 z"
       transform="matrix(0.3438015,0,0,0.3438015,637.97496,8.627315)"
       inkscape:export-filename="/home/dave/matter/dresden/aljazarimap.png"
       inkscape:export-xdpi="300.07999"
       inkscape:export-ydpi="300.07999" />
    <path
       sodipodi:type="arc"
       style="fill:#ffffff;fill-opacity:1;fill-rule:evenodd;stroke:#000000;stroke-width:2;stroke-linecap:butt;stroke-linejoin:miter;stroke-miterlimit:4;stroke-dasharray:none;stroke-opacity:1"
       id="path3887"
       sodipodi:cx="237.85715"
       sodipodi:cy="409.50504"
       sodipodi:rx="26.428572"
       sodipodi:ry="26.428572"
       d="M 264.28572 409.50504 A 26.428572 26.428572 0 1 1  211.42858,409.50504 A 26.428572 26.428572 0 1 1  264.28572 409.50504 z"
       transform="matrix(-0.3438015,0,0,0.3438015,827.80386,8.699076)"
       inkscape:export-filename="/home/dave/matter/dresden/aljazarimap.png"
       inkscape:export-xdpi="300.07999"
       inkscape:export-ydpi="300.07999" />
    <path
       style="fill:#ffffff;fill-opacity:1;fill-rule:evenodd;stroke:#000000;stroke-width:0.687603;stroke-linecap:butt;stroke-linejoin:miter;stroke-miterlimit:4;stroke-dasharray:none;stroke-opacity:1"
       d="M 701.40634,118.64553 L 701.40634,125.52159 L 694.53031,125.52159 L 694.53031,132.39763 L 701.40634,132.39763 L 701.40634,139.27366 L 708.28236,139.27366 L 708.28236,132.39763 L 715.15839,132.39763 L 715.15839,125.52159 L 708.28236,125.52159 L 708.28236,118.64553 L 701.40634,118.64553 z "
       id="path3889"
       sodipodi:nodetypes="ccccccccccccc"
       inkscape:export-filename="/home/dave/matter/dresden/aljazarimap.png"
       inkscape:export-xdpi="300.07999"
       inkscape:export-ydpi="300.07999" />
    <path
       sodipodi:type="arc"
       style="fill:#ffffff;fill-opacity:1;stroke:#000000;stroke-width:2;stroke-miterlimit:4;stroke-dasharray:none;stroke-opacity:1"
       id="path3891"
       sodipodi:cx="407.84909"
       sodipodi:cy="390.96481"
       sodipodi:rx="8.8388348"
       sodipodi:ry="8.8388348"
       d="M 416.68793 390.96481 A 8.8388348 8.8388348 0 1 1  399.01026,390.96481 A 8.8388348 8.8388348 0 1 1  416.68793 390.96481 z"
       transform="matrix(0.3438015,0,0,0.3438015,620.72028,-12.962952)"
       inkscape:export-filename="/home/dave/matter/dresden/aljazarimap.png"
       inkscape:export-xdpi="300.07999"
       inkscape:export-ydpi="300.07999" />
    <path
       sodipodi:type="arc"
       style="fill:#ffffff;fill-opacity:1;stroke:#000000;stroke-width:2;stroke-miterlimit:4;stroke-dasharray:none;stroke-opacity:1"
       id="path3893"
       sodipodi:cx="407.84909"
       sodipodi:cy="390.96481"
       sodipodi:rx="8.8388348"
       sodipodi:ry="8.8388348"
       d="M 416.68793 390.96481 A 8.8388348 8.8388348 0 1 1  399.01026,390.96481 A 8.8388348 8.8388348 0 1 1  416.68793 390.96481 z"
       transform="matrix(0.3438015,0,0,0.3438015,621.06407,1.365906)"
       inkscape:export-filename="/home/dave/matter/dresden/aljazarimap.png"
       inkscape:export-xdpi="300.07999"
       inkscape:export-ydpi="300.07999" />
    <path
       sodipodi:type="arc"
       style="fill:#ffffff;fill-opacity:1;stroke:#000000;stroke-width:2;stroke-miterlimit:4;stroke-dasharray:none;stroke-opacity:1"
       id="path3895"
       sodipodi:cx="407.84909"
       sodipodi:cy="390.96481"
       sodipodi:rx="8.8388348"
       sodipodi:ry="8.8388348"
       d="M 416.68793 390.96481 A 8.8388348 8.8388348 0 1 1  399.01026,390.96481 A 8.8388348 8.8388348 0 1 1  416.68793 390.96481 z"
       transform="matrix(0.3438015,0,0,0.3438015,613.38962,-5.7431113)"
       inkscape:export-filename="/home/dave/matter/dresden/aljazarimap.png"
       inkscape:export-xdpi="300.07999"
       inkscape:export-ydpi="300.07999" />
    <path
       sodipodi:type="arc"
       style="fill:#ffffff;fill-opacity:1;stroke:#000000;stroke-width:2;stroke-miterlimit:4;stroke-dasharray:none;stroke-opacity:1"
       id="path3897"
       sodipodi:cx="407.84909"
       sodipodi:cy="390.96481"
       sodipodi:rx="8.8388348"
       sodipodi:ry="8.8388348"
       d="M 416.68793 390.96481 A 8.8388348 8.8388348 0 1 1  399.01026,390.96481 A 8.8388348 8.8388348 0 1 1  416.68793 390.96481 z"
       transform="matrix(0.3438015,0,0,0.3438015,628.8607,-5.8539226)"
       inkscape:export-filename="/home/dave/matter/dresden/aljazarimap.png"
       inkscape:export-xdpi="300.07999"
       inkscape:export-ydpi="300.07999" />
    <path
       sodipodi:type="arc"
       style="fill:#ffffff;fill-opacity:1;stroke:#000000;stroke-width:2;stroke-miterlimit:4;stroke-dasharray:none;stroke-opacity:1"
       id="path3899"
       sodipodi:cx="299.25769"
       sodipodi:cy="473.7973"
       sodipodi:rx="20.455589"
       sodipodi:ry="20.455589"
       d="M 319.71328 473.7973 A 20.455589 20.455589 0 1 1  278.8021,473.7973 A 20.455589 20.455589 0 1 1  319.71328 473.7973 z"
       transform="matrix(0.3438015,0,0,0.3438015,616.8992,-13.49174)"
       inkscape:export-filename="/home/dave/matter/dresden/aljazarimap.png"
       inkscape:export-xdpi="300.07999"
       inkscape:export-ydpi="300.07999" />
    <path
       sodipodi:type="arc"
       style="fill:#ffffff;fill-opacity:1;stroke:#000000;stroke-width:2;stroke-miterlimit:4;stroke-dasharray:none;stroke-opacity:1"
       id="path3901"
       sodipodi:cx="299.25769"
       sodipodi:cy="473.7973"
       sodipodi:rx="20.455589"
       sodipodi:ry="20.455589"
       d="M 319.71328 473.7973 A 20.455589 20.455589 0 1 1  278.8021,473.7973 A 20.455589 20.455589 0 1 1  319.71328 473.7973 z"
       transform="matrix(0.3438015,0,0,0.3438015,643.2323,-13.4612)"
       inkscape:export-filename="/home/dave/matter/dresden/aljazarimap.png"
       inkscape:export-xdpi="300.07999"
       inkscape:export-ydpi="300.07999" />
    <rect
       style="fill:#ffffff;fill-opacity:1;stroke:#000000;stroke-width:0.687603;stroke-miterlimit:4;stroke-dasharray:none;stroke-opacity:1"
       id="rect3903"
       width="4.8132205"
       height="2.5707152"
       x="723.40967"
       y="128.10783"
       inkscape:export-filename="/home/dave/matter/dresden/aljazarimap.png"
       inkscape:export-xdpi="300.07999"
       inkscape:export-ydpi="300.07999" />
    <rect
       style="fill:#ffffff;fill-opacity:1;stroke:#000000;stroke-width:0.687603;stroke-miterlimit:4;stroke-dasharray:none;stroke-opacity:1"
       id="rect3905"
       width="4.8132205"
       height="2.5707152"
       x="738.22369"
       y="128.10783"
       inkscape:export-filename="/home/dave/matter/dresden/aljazarimap.png"
       inkscape:export-xdpi="300.07999"
       inkscape:export-ydpi="300.07999" />
    <path
       style="fill:#d9ff00;fill-opacity:1;fill-rule:evenodd;stroke:#000000;stroke-width:0.687603;stroke-linecap:butt;stroke-linejoin:miter;stroke-miterlimit:4;stroke-dasharray:none;stroke-opacity:1"
       d="M 829.99346,108.18268 C 821.45742,108.51627 815.92216,115.70795 812.33066,122.89096 C 807.41922,132.71385 798.49967,164.74508 810.36454,169.78765 C 820.18744,173.96236 822.15356,164.88387 826.08271,158.99012 C 830.01188,153.09637 831.47275,148.69526 838.36288,148.91243 L 858.37551,149.54324 C 864.82178,149.60465 872.12448,148.98763 878.87773,148.98763 C 885.77129,148.98763 887.22875,153.16082 891.15789,159.05457 C 895.08706,164.94834 897.05318,174.03758 906.87608,169.86284 C 918.74095,164.82026 909.8214,132.77831 904.90995,122.95543 C 900.48965,114.11478 893.12246,105.2742 880.84386,109.20333 C 868.56522,113.1325 876.54479,110.68447 869.17762,113.14016 C 866.6706,113.97585 860.96151,115.29158 859.25803,115.45777 C 857.42285,115.38372 852.93154,114.64688 850.02757,113.6789 C 844.13383,111.71432 848.67539,113.06804 836.39676,109.13888 C 834.09452,108.40217 831.96332,108.10571 829.99346,108.18268 z "
       id="path3907"
       sodipodi:nodetypes="csssscsssssscssc"
       inkscape:export-filename="/home/dave/matter/dresden/aljazarimap.png"
       inkscape:export-xdpi="300.07999"
       inkscape:export-ydpi="300.07999" />
    <path
       sodipodi:type="arc"
       style="fill:#ffffff;fill-opacity:1;fill-rule:evenodd;stroke:#000000;stroke-width:2;stroke-linecap:butt;stroke-linejoin:miter;stroke-miterlimit:4;stroke-dasharray:none;stroke-opacity:1"
       id="path3909"
       sodipodi:cx="237.85715"
       sodipodi:cy="409.50504"
       sodipodi:rx="26.428572"
       sodipodi:ry="26.428572"
       d="M 264.28572 409.50504 A 26.428572 26.428572 0 1 1  211.42858,409.50504 A 26.428572 26.428572 0 1 1  264.28572 409.50504 z"
       transform="matrix(0.3438015,0,0,0.3438015,763.70424,6.164186)"
       inkscape:export-filename="/home/dave/matter/dresden/aljazarimap.png"
       inkscape:export-xdpi="300.07999"
       inkscape:export-ydpi="300.07999" />
    <path
       sodipodi:type="arc"
       style="fill:#ffffff;fill-opacity:1;fill-rule:evenodd;stroke:#000000;stroke-width:2;stroke-linecap:butt;stroke-linejoin:miter;stroke-miterlimit:4;stroke-dasharray:none;stroke-opacity:1"
       id="path3911"
       sodipodi:cx="237.85715"
       sodipodi:cy="409.50504"
       sodipodi:rx="26.428572"
       sodipodi:ry="26.428572"
       d="M 264.28572 409.50504 A 26.428572 26.428572 0 1 1  211.42858,409.50504 A 26.428572 26.428572 0 1 1  264.28572 409.50504 z"
       transform="matrix(-0.3438015,0,0,0.3438015,953.53313,6.235947)"
       inkscape:export-filename="/home/dave/matter/dresden/aljazarimap.png"
       inkscape:export-xdpi="300.07999"
       inkscape:export-ydpi="300.07999" />
    <path
       style="fill:#ffffff;fill-opacity:1;fill-rule:evenodd;stroke:#000000;stroke-width:0.687603;stroke-linecap:butt;stroke-linejoin:miter;stroke-miterlimit:4;stroke-dasharray:none;stroke-opacity:1"
       d="M 827.13561,116.1824 L 827.13561,123.05847 L 820.25958,123.05847 L 820.25958,129.9345 L 827.13561,129.9345 L 827.13561,136.81053 L 834.01163,136.81053 L 834.01163,129.9345 L 840.88767,129.9345 L 840.88767,123.05847 L 834.01163,123.05847 L 834.01163,116.1824 L 827.13561,116.1824 z "
       id="path3913"
       sodipodi:nodetypes="ccccccccccccc"
       inkscape:export-filename="/home/dave/matter/dresden/aljazarimap.png"
       inkscape:export-xdpi="300.07999"
       inkscape:export-ydpi="300.07999" />
    <path
       sodipodi:type="arc"
       style="fill:#ffffff;fill-opacity:1;stroke:#000000;stroke-width:2;stroke-miterlimit:4;stroke-dasharray:none;stroke-opacity:1"
       id="path3915"
       sodipodi:cx="407.84909"
       sodipodi:cy="390.96481"
       sodipodi:rx="8.8388348"
       sodipodi:ry="8.8388348"
       d="M 416.68793 390.96481 A 8.8388348 8.8388348 0 1 1  399.01026,390.96481 A 8.8388348 8.8388348 0 1 1  416.68793 390.96481 z"
       transform="matrix(0.3438015,0,0,0.3438015,746.44956,-15.426082)"
       inkscape:export-filename="/home/dave/matter/dresden/aljazarimap.png"
       inkscape:export-xdpi="300.07999"
       inkscape:export-ydpi="300.07999" />
    <path
       sodipodi:type="arc"
       style="fill:#ffffff;fill-opacity:1;stroke:#000000;stroke-width:2;stroke-miterlimit:4;stroke-dasharray:none;stroke-opacity:1"
       id="path3917"
       sodipodi:cx="407.84909"
       sodipodi:cy="390.96481"
       sodipodi:rx="8.8388348"
       sodipodi:ry="8.8388348"
       d="M 416.68793 390.96481 A 8.8388348 8.8388348 0 1 1  399.01026,390.96481 A 8.8388348 8.8388348 0 1 1  416.68793 390.96481 z"
       transform="matrix(0.3438015,0,0,0.3438015,746.79336,-1.0972236)"
       inkscape:export-filename="/home/dave/matter/dresden/aljazarimap.png"
       inkscape:export-xdpi="300.07999"
       inkscape:export-ydpi="300.07999" />
    <path
       sodipodi:type="arc"
       style="fill:#ffffff;fill-opacity:1;stroke:#000000;stroke-width:2;stroke-miterlimit:4;stroke-dasharray:none;stroke-opacity:1"
       id="path3919"
       sodipodi:cx="407.84909"
       sodipodi:cy="390.96481"
       sodipodi:rx="8.8388348"
       sodipodi:ry="8.8388348"
       d="M 416.68793 390.96481 A 8.8388348 8.8388348 0 1 1  399.01026,390.96481 A 8.8388348 8.8388348 0 1 1  416.68793 390.96481 z"
       transform="matrix(0.3438015,0,0,0.3438015,739.11891,-8.2062408)"
       inkscape:export-filename="/home/dave/matter/dresden/aljazarimap.png"
       inkscape:export-xdpi="300.07999"
       inkscape:export-ydpi="300.07999" />
    <path
       sodipodi:type="arc"
       style="fill:#ffffff;fill-opacity:1;stroke:#000000;stroke-width:2;stroke-miterlimit:4;stroke-dasharray:none;stroke-opacity:1"
       id="path3921"
       sodipodi:cx="407.84909"
       sodipodi:cy="390.96481"
       sodipodi:rx="8.8388348"
       sodipodi:ry="8.8388348"
       d="M 416.68793 390.96481 A 8.8388348 8.8388348 0 1 1  399.01026,390.96481 A 8.8388348 8.8388348 0 1 1  416.68793 390.96481 z"
       transform="matrix(0.3438015,0,0,0.3438015,754.58997,-8.3170521)"
       inkscape:export-filename="/home/dave/matter/dresden/aljazarimap.png"
       inkscape:export-xdpi="300.07999"
       inkscape:export-ydpi="300.07999" />
    <path
       sodipodi:type="arc"
       style="fill:#ffffff;fill-opacity:1;stroke:#000000;stroke-width:2;stroke-miterlimit:4;stroke-dasharray:none;stroke-opacity:1"
       id="path3923"
       sodipodi:cx="299.25769"
       sodipodi:cy="473.7973"
       sodipodi:rx="20.455589"
       sodipodi:ry="20.455589"
       d="M 319.71328 473.7973 A 20.455589 20.455589 0 1 1  278.8021,473.7973 A 20.455589 20.455589 0 1 1  319.71328 473.7973 z"
       transform="matrix(0.3438015,0,0,0.3438015,742.62849,-15.95487)"
       inkscape:export-filename="/home/dave/matter/dresden/aljazarimap.png"
       inkscape:export-xdpi="300.07999"
       inkscape:export-ydpi="300.07999" />
    <path
       sodipodi:type="arc"
       style="fill:#ffffff;fill-opacity:1;stroke:#000000;stroke-width:2;stroke-miterlimit:4;stroke-dasharray:none;stroke-opacity:1"
       id="path3925"
       sodipodi:cx="299.25769"
       sodipodi:cy="473.7973"
       sodipodi:rx="20.455589"
       sodipodi:ry="20.455589"
       d="M 319.71328 473.7973 A 20.455589 20.455589 0 1 1  278.8021,473.7973 A 20.455589 20.455589 0 1 1  319.71328 473.7973 z"
       transform="matrix(0.3438015,0,0,0.3438015,768.96158,-15.92433)"
       inkscape:export-filename="/home/dave/matter/dresden/aljazarimap.png"
       inkscape:export-xdpi="300.07999"
       inkscape:export-ydpi="300.07999" />
    <rect
       style="fill:#ffffff;fill-opacity:1;stroke:#000000;stroke-width:0.687603;stroke-miterlimit:4;stroke-dasharray:none;stroke-opacity:1"
       id="rect3927"
       width="4.8132205"
       height="2.5707152"
       x="849.13892"
       y="125.6447"
       inkscape:export-filename="/home/dave/matter/dresden/aljazarimap.png"
       inkscape:export-xdpi="300.07999"
       inkscape:export-ydpi="300.07999" />
    <rect
       style="fill:#ffffff;fill-opacity:1;stroke:#000000;stroke-width:0.687603;stroke-miterlimit:4;stroke-dasharray:none;stroke-opacity:1"
       id="rect3929"
       width="4.8132205"
       height="2.5707152"
       x="863.95294"
       y="125.6447"
       inkscape:export-filename="/home/dave/matter/dresden/aljazarimap.png"
       inkscape:export-xdpi="300.07999"
       inkscape:export-ydpi="300.07999" />
    <path
       style="fill:#0000ff;fill-opacity:1;fill-rule:evenodd;stroke:#000000;stroke-width:0.687603;stroke-linecap:butt;stroke-linejoin:miter;stroke-miterlimit:4;stroke-dasharray:none;stroke-opacity:1"
       d="M 955.84652,108.18268 C 947.31048,108.51627 941.77521,115.70795 938.18371,122.89096 C 933.27227,132.71385 924.35272,164.74508 936.2176,169.78765 C 946.0405,173.96236 948.00661,164.88387 951.93578,158.99012 C 955.86495,153.09637 957.32581,148.69526 964.21595,148.91243 L 984.22857,149.54324 C 990.67484,149.60465 997.9775,148.98763 1004.7308,148.98763 C 1011.6244,148.98763 1013.0818,153.16082 1017.011,159.05457 C 1020.9401,164.94834 1022.9062,174.03758 1032.7291,169.86284 C 1044.594,164.82026 1035.6745,132.77831 1030.763,122.95543 C 1026.3427,114.11478 1018.9755,105.2742 1006.6969,109.20333 C 994.4183,113.1325 1002.3979,110.68447 995.0307,113.14016 C 992.52366,113.97585 986.81457,115.29158 985.11109,115.45777 C 983.27591,115.38372 978.7846,114.64688 975.88063,113.6789 C 969.98689,111.71432 974.52846,113.06804 962.24983,109.13888 C 959.94758,108.40217 957.81638,108.10571 955.84652,108.18268 z "
       id="path3931"
       sodipodi:nodetypes="csssscsssssscssc"
       inkscape:export-filename="/home/dave/matter/dresden/aljazarimap.png"
       inkscape:export-xdpi="300.07999"
       inkscape:export-ydpi="300.07999" />
    <path
       sodipodi:type="arc"
       style="fill:#ffffff;fill-opacity:1;fill-rule:evenodd;stroke:#000000;stroke-width:2;stroke-linecap:butt;stroke-linejoin:miter;stroke-miterlimit:4;stroke-dasharray:none;stroke-opacity:1"
       id="path3933"
       sodipodi:cx="237.85715"
       sodipodi:cy="409.50504"
       sodipodi:rx="26.428572"
       sodipodi:ry="26.428572"
       d="M 264.28572 409.50504 A 26.428572 26.428572 0 1 1  211.42858,409.50504 A 26.428572 26.428572 0 1 1  264.28572 409.50504 z"
       transform="matrix(0.3438015,0,0,0.3438015,889.5573,4.923714)"
       inkscape:export-filename="/home/dave/matter/dresden/aljazarimap.png"
       inkscape:export-xdpi="300.07999"
       inkscape:export-ydpi="300.07999" />
    <path
       sodipodi:type="arc"
       style="fill:#ffffff;fill-opacity:1;fill-rule:evenodd;stroke:#000000;stroke-width:2;stroke-linecap:butt;stroke-linejoin:miter;stroke-miterlimit:4;stroke-dasharray:none;stroke-opacity:1"
       id="path3935"
       sodipodi:cx="237.85715"
       sodipodi:cy="409.50504"
       sodipodi:rx="26.428572"
       sodipodi:ry="26.428572"
       d="M 264.28572 409.50504 A 26.428572 26.428572 0 1 1  211.42858,409.50504 A 26.428572 26.428572 0 1 1  264.28572 409.50504 z"
       transform="matrix(-0.3438015,0,0,0.3438015,1079.3862,4.995476)"
       inkscape:export-filename="/home/dave/matter/dresden/aljazarimap.png"
       inkscape:export-xdpi="300.07999"
       inkscape:export-ydpi="300.07999" />
    <path
       style="fill:#ffffff;fill-opacity:1;fill-rule:evenodd;stroke:#000000;stroke-width:0.687603;stroke-linecap:butt;stroke-linejoin:miter;stroke-miterlimit:4;stroke-dasharray:none;stroke-opacity:1"
       d="M 952.98868,114.94192 L 952.98868,121.81799 L 946.11265,121.81799 L 946.11265,128.69403 L 952.98868,128.69403 L 952.98868,135.57006 L 959.8647,135.57006 L 959.8647,128.69403 L 966.74073,128.69403 L 966.74073,121.81799 L 959.8647,121.81799 L 959.8647,114.94192 L 952.98868,114.94192 z "
       id="path3937"
       sodipodi:nodetypes="ccccccccccccc"
       inkscape:export-filename="/home/dave/matter/dresden/aljazarimap.png"
       inkscape:export-xdpi="300.07999"
       inkscape:export-ydpi="300.07999" />
    <path
       sodipodi:type="arc"
       style="fill:#ffffff;fill-opacity:1;stroke:#000000;stroke-width:2;stroke-miterlimit:4;stroke-dasharray:none;stroke-opacity:1"
       id="path3939"
       sodipodi:cx="407.84909"
       sodipodi:cy="390.96481"
       sodipodi:rx="8.8388348"
       sodipodi:ry="8.8388348"
       d="M 416.68793 390.96481 A 8.8388348 8.8388348 0 1 1  399.01026,390.96481 A 8.8388348 8.8388348 0 1 1  416.68793 390.96481 z"
       transform="matrix(0.3438015,0,0,0.3438015,872.30261,-16.666553)"
       inkscape:export-filename="/home/dave/matter/dresden/aljazarimap.png"
       inkscape:export-xdpi="300.07999"
       inkscape:export-ydpi="300.07999" />
    <path
       sodipodi:type="arc"
       style="fill:#ffffff;fill-opacity:1;stroke:#000000;stroke-width:2;stroke-miterlimit:4;stroke-dasharray:none;stroke-opacity:1"
       id="path3941"
       sodipodi:cx="407.84909"
       sodipodi:cy="390.96481"
       sodipodi:rx="8.8388348"
       sodipodi:ry="8.8388348"
       d="M 416.68793 390.96481 A 8.8388348 8.8388348 0 1 1  399.01026,390.96481 A 8.8388348 8.8388348 0 1 1  416.68793 390.96481 z"
       transform="matrix(0.3438015,0,0,0.3438015,872.64641,-2.3376949)"
       inkscape:export-filename="/home/dave/matter/dresden/aljazarimap.png"
       inkscape:export-xdpi="300.07999"
       inkscape:export-ydpi="300.07999" />
    <path
       sodipodi:type="arc"
       style="fill:#ffffff;fill-opacity:1;stroke:#000000;stroke-width:2;stroke-miterlimit:4;stroke-dasharray:none;stroke-opacity:1"
       id="path3943"
       sodipodi:cx="407.84909"
       sodipodi:cy="390.96481"
       sodipodi:rx="8.8388348"
       sodipodi:ry="8.8388348"
       d="M 416.68793 390.96481 A 8.8388348 8.8388348 0 1 1  399.01026,390.96481 A 8.8388348 8.8388348 0 1 1  416.68793 390.96481 z"
       transform="matrix(0.3438015,0,0,0.3438015,864.97196,-9.4467122)"
       inkscape:export-filename="/home/dave/matter/dresden/aljazarimap.png"
       inkscape:export-xdpi="300.07999"
       inkscape:export-ydpi="300.07999" />
    <path
       sodipodi:type="arc"
       style="fill:#ffffff;fill-opacity:1;stroke:#000000;stroke-width:2;stroke-miterlimit:4;stroke-dasharray:none;stroke-opacity:1"
       id="path3945"
       sodipodi:cx="407.84909"
       sodipodi:cy="390.96481"
       sodipodi:rx="8.8388348"
       sodipodi:ry="8.8388348"
       d="M 416.68793 390.96481 A 8.8388348 8.8388348 0 1 1  399.01026,390.96481 A 8.8388348 8.8388348 0 1 1  416.68793 390.96481 z"
       transform="matrix(0.3438015,0,0,0.3438015,880.44303,-9.5575235)"
       inkscape:export-filename="/home/dave/matter/dresden/aljazarimap.png"
       inkscape:export-xdpi="300.07999"
       inkscape:export-ydpi="300.07999" />
    <path
       sodipodi:type="arc"
       style="fill:#ffffff;fill-opacity:1;stroke:#000000;stroke-width:2;stroke-miterlimit:4;stroke-dasharray:none;stroke-opacity:1"
       id="path3947"
       sodipodi:cx="299.25769"
       sodipodi:cy="473.7973"
       sodipodi:rx="20.455589"
       sodipodi:ry="20.455589"
       d="M 319.71328 473.7973 A 20.455589 20.455589 0 1 1  278.8021,473.7973 A 20.455589 20.455589 0 1 1  319.71328 473.7973 z"
       transform="matrix(0.3438015,0,0,0.3438015,868.48154,-17.195341)"
       inkscape:export-filename="/home/dave/matter/dresden/aljazarimap.png"
       inkscape:export-xdpi="300.07999"
       inkscape:export-ydpi="300.07999" />
    <path
       sodipodi:type="arc"
       style="fill:#ffffff;fill-opacity:1;stroke:#000000;stroke-width:2;stroke-miterlimit:4;stroke-dasharray:none;stroke-opacity:1"
       id="path3949"
       sodipodi:cx="299.25769"
       sodipodi:cy="473.7973"
       sodipodi:rx="20.455589"
       sodipodi:ry="20.455589"
       d="M 319.71328 473.7973 A 20.455589 20.455589 0 1 1  278.8021,473.7973 A 20.455589 20.455589 0 1 1  319.71328 473.7973 z"
       transform="matrix(0.3438015,0,0,0.3438015,894.81464,-17.164801)"
       inkscape:export-filename="/home/dave/matter/dresden/aljazarimap.png"
       inkscape:export-xdpi="300.07999"
       inkscape:export-ydpi="300.07999" />
    <rect
       style="fill:#ffffff;fill-opacity:1;stroke:#000000;stroke-width:0.687603;stroke-miterlimit:4;stroke-dasharray:none;stroke-opacity:1"
       id="rect3951"
       width="4.8132205"
       height="2.5707152"
       x="974.992"
       y="124.40422"
       inkscape:export-filename="/home/dave/matter/dresden/aljazarimap.png"
       inkscape:export-xdpi="300.07999"
       inkscape:export-ydpi="300.07999" />
    <rect
       style="fill:#ffffff;fill-opacity:1;stroke:#000000;stroke-width:0.687603;stroke-miterlimit:4;stroke-dasharray:none;stroke-opacity:1"
       id="rect3953"
       width="4.8132205"
       height="2.5707152"
       x="989.80597"
       y="124.40422"
       inkscape:export-filename="/home/dave/matter/dresden/aljazarimap.png"
       inkscape:export-xdpi="300.07999"
       inkscape:export-ydpi="300.07999" />
    <rect
       style="fill:none;fill-opacity:1;stroke:#000000;stroke-width:2.42934036;stroke-miterlimit:4;stroke-dasharray:none;stroke-opacity:1"
       id="rect3955"
       width="604.29565"
       height="81.586807"
       x="20.954103"
       y="190.03999"
       rx="12.389636"
       ry="12.389636" />
    <rect
       style="fill:none;fill-opacity:1;stroke:#000000;stroke-width:2.42934036;stroke-miterlimit:4;stroke-dasharray:none;stroke-opacity:1"
       id="rect4927"
       width="553.89856"
       height="155.59219"
       x="494.82968"
       y="283.11517"
       rx="12.389636"
       ry="12.389636" />
    <rect
       style="fill:none;fill-opacity:1;stroke:#000000;stroke-width:2.42934036;stroke-miterlimit:4;stroke-dasharray:none;stroke-opacity:1"
       id="rect4929"
       width="757.2384"
       height="85.372139"
       x="120.15617"
       y="628.27728"
       rx="12.389636"
       ry="12.389636" />
    <rect
       style="fill:none;fill-opacity:1;stroke:#000000;stroke-width:2.42934036;stroke-miterlimit:4;stroke-dasharray:none;stroke-opacity:1"
       id="rect4931"
       width="479.17615"
       height="156.6255"
       x="30.230106"
       y="21.322018"
       rx="12.389636"
       ry="12.389636" />
  </g>
</svg>
