(77841 (21 21 21 21 21 21) (50 0 50 0 50 0) 21)
(77841 (21 21 21 21 21 21) (50 0 50 0 50 0) 21)
(77841 (21 21 21 21 21 21) (50 0 50 0 50 0) 21)
(77841 (21 21 21 21 21 21) (50 0 50 0 50 0) 21)
(77841 (21 21 21 21 21 21) (50 0 50 0 50 0) 21)
(77841 (21 21 21 21 21 21) (50 0 50 0 50 0) 21)
(77841 (21 21 21 21 21 21) (50 0 50 0 50 0) 21)
(77841 (21 21 21 21 21 21) (50 0 50 0 50 0) 21)
(77841 (21 21 21 21 21 21) (50 0 50 0 50 0) 21)
(77841 (21 21 21 21 21 21) (50 0 50 0 50 0) 21)
(77841 (21 21 21 21 21 21) (50 0 50 0 50 0) 21)
(77841 (21 21 21 21 21 21) (50 0 50 0 50 0) 21)
(77841 (21 21 21 21 21 21) (50 0 50 0 50 0) 21)
(77841 (21 21 21 21 21 21) (50 0 50 0 50 0) 21)
(77841 (21 21 21 21 21 21) (50 0 50 0 50 0) 21)
(77841 (21 21 21 21 21 21) (50 0 50 0 50 0) 21)
(77841 (21 21 21 21 21 21) (50 0 50 0 50 0) 21)
(77841 (21 21 21 21 21 21) (50 0 50 0 50 0) 21)
(77841 (21 21 21 21 21 21) (50 0 50 0 50 0) 21)
(77841 (21 21 21 21 21 21) (50 0 50 0 50 0) 21)
(77841 (21 21 21 21 21 21) (50 0 50 0 50 0) 21)
(77841 (21 21 21 21 21 21) (50 0 50 0 50 0) 21)
(77841 (21 21 21 21 21 21) (50 0 50 0 50 0) 21)
(77841 (21 21 21 21 21 21) (50 0 50 0 50 0) 21)
(77841 (21 21 21 21 21 21) (50 0 50 0 50 0) 21)
(77841 (21 21 21 21 21 21) (50 0 50 0 50 0) 21)
(77841 (21 21 21 21 21 21) (50 0 50 0 50 0) 21)
(77841 (21 21 21 21 21 21) (50 0 50 0 50 0) 21)
(77841 (21 21 21 21 21 21) (50 0 50 0 50 0) 21)
(77841 (21 21 21 21 21 21) (50 0 50 0 50 0) 21)
(77841 (21 21 21 21 21 21) (50 0 50 0 50 0) 21)
(77841 (21 21 21 21 21 21) (50 0 50 0 50 0) 21)
(77841 (21 21 21 21 21 21) (50 0 50 0 50 0) 21)
(77841 (21 21 21 21 21 21) (50 0 50 0 50 0) 21)
(77841 (21 21 21 21 21 21) (50 0 50 0 50 0) 21)
(77841 (21 21 21 21 21 21) (50 0 50 0 50 0) 21)
(77841 (21 21 21 21 21 21) (50 0 50 0 50 0) 21)
(77841 (21 21 21 21 21 21) (50 0 50 0 50 0) 21)
(77841 (21 21 21 21 21 21) (50 0 50 0 50 0) 21)
(77841 (21 21 21 21 21 21) (50 0 50 0 50 0) 21)
(77841 (21 21 21 21 21 21) (50 0 50 0 50 0) 21)
(77841 (21 21 21 21 21 21) (50 0 50 0 50 0) 21)
(77841 (21 21 21 21 21 21) (50 0 50 0 50 0) 21)
(77841 (21 21 21 21 21 21) (50 0 50 0 50 0) 21)
(77841 (21 21 21 21 21 21) (50 0 50 0 50 0) 21)
(77841 (21 21 21 21 21 21) (50 0 50 0 50 0) 21)
(77841 (21 21 21 21 21 21) (50 0 50 0 50 0) 21)
(77841 (21 21 21 21 21 21) (50 0 50 0 50 0) 21)
(77841 (21 21 21 21 21 21) (50 0 50 0 50 0) 21)
(77841 (21 21 21 21 21 21) (50 0 50 0 50 0) 21)
(77841 (21 21 21 21 21 21) (50 0 50 0 50 0) 21)
(77841 (21 21 21 21 21 21) (50 0 50 0 50 0) 21)
(77841 (21 21 21 21 21 21) (50 0 50 0 50 0) 21)
(77841 (21 21 21 21 21 21) (50 0 50 0 50 0) 21)
(77841 (21 21 21 21 21 21) (50 0 50 0 50 0) 21)
(77841 (21 21 21 21 21 21) (50 0 50 0 50 0) 21)
(77841 (21 21 21 21 21 21) (50 0 50 0 50 0) 21)
(77841 (21 21 21 21 21 21) (50 0 50 0 50 0) 21)
(77841 (21 21 21 21 21 21) (50 0 50 0 50 0) 21)
(77841 (21 21 21 21 21 21) (50 0 50 0 50 0) 21)
(77841 (21 21 21 21 21 21) (50 0 50 0 50 0) 21)
(77841 (21 21 21 21 21 21) (50 0 50 0 50 0) 21)
(77841 (21 21 21 21 21 21) (50 0 50 0 50 0) 21)
(77841 (21 21 21 21 21 21) (50 0 50 0 50 0) 21)
(77841 (21 21 21 21 21 21) (50 0 50 0 50 0) 21)
(77841 (21 21 21 21 21 21) (50 0 50 0 50 0) 21)
(77841 (21 21 21 21 21 21) (50 0 50 0 50 0) 21)
(77841 (21 21 21 21 21 21) (50 0 50 0 50 0) 21)
(77841 (21 21 21 21 21 21) (50 0 50 0 50 0) 21)
(77841 (21 21 21 21 21 21) (50 0 50 0 50 0) 21)
(77841 (21 21 21 21 21 21) (50 0 50 0 50 0) 21)
(77841 (21 21 21 21 21 21) (50 0 50 0 50 0) 21)
(77841 (21 21 21 21 21 21) (50 0 50 0 50 0) 21)
(77841 (21 21 21 21 21 21) (50 0 50 0 50 0) 21)
(77841 (21 21 21 21 21 21) (50 0 50 0 50 0) 21)
(77841 (21 21 21 21 21 21) (50 0 50 0 50 0) 21)
(77841 (21 21 21 21 21 21) (50 0 50 0 50 0) 21)
(77841 (21 21 21 21 21 21) (50 0 50 0 50 0) 21)
(77841 (21 21 21 21 21 21) (50 0 50 0 50 0) 21)
(77841 (21 21 21 21 21 21) (50 0 50 0 50 0) 21)
(77841 (21 21 21 21 21 21) (50 0 50 0 50 0) 21)
(77841 (21 21 21 21 21 21) (50 0 50 0 50 0) 21)
(77841 (21 21 21 21 21 21) (50 0 50 0 50 0) 21)
(77841 (21 21 21 21 21 21) (50 0 50 0 50 0) 21)
(77841 (21 21 21 21 21 21) (50 0 50 0 50 0) 21)
(77841 (21 21 21 21 21 21) (50 0 50 0 50 0) 21)
(77841 (21 21 21 21 21 21) (50 0 50 0 50 0) 21)
(77841 (21 21 21 21 21 21) (50 0 50 0 50 0) 21)
(77841 (21 21 21 21 21 21) (50 0 50 0 50 0) 21)
(8100 (35 0 35 0 35 0) (50 0 50 0 50 0) (#<procedure:*> 35 (#<procedure:even> (#<procedure:clock>))))
(900 (55 0 55 0 55 0) (50 0 50 0 50 0) (#<procedure:*> 55 (#<procedure:even> (#<procedure:clock>))))
(144 (52 0 52 0 52 0) (50 0 50 0 50 0) (#<procedure:*> 52 (#<procedure:even> (#<procedure:clock>))))
(36 (49 0 49 0 49 0) (50 0 50 0 50 0) (#<procedure:*> 49 (#<procedure:even> (#<procedure:clock>))))
(36 (49 0 49 0 49 0) (50 0 50 0 50 0) (#<procedure:*> 49 (#<procedure:even> (#<procedure:clock>))))
(36 (49 0 49 0 49 0) (50 0 50 0 50 0) (#<procedure:*> 49 (#<procedure:even> (#<procedure:clock>))))
(36 (49 0 49 0 49 0) (50 0 50 0 50 0) (#<procedure:*> 49 (#<procedure:even> (#<procedure:clock>))))
(36 (49 0 49 0 49 0) (50 0 50 0 50 0) (#<procedure:*> 49 (#<procedure:even> (#<procedure:clock>))))
(36 (49 0 49 0 49 0) (50 0 50 0 50 0) (#<procedure:*> 49 (#<procedure:even> (#<procedure:clock>))))
(36 (49 0 49 0 49 0) (50 0 50 0 50 0) (#<procedure:*> 49 (#<procedure:even> (#<procedure:clock>))))
(36 (49 0 49 0 49 0) (50 0 50 0 50 0) (#<procedure:*> 49 (#<procedure:even> (#<procedure:clock>))))
(36 (49 0 49 0 49 0) (50 0 50 0 50 0) (#<procedure:*> 49 (#<procedure:even> (#<procedure:clock>))))
(36 (49 0 49 0 49 0) (50 0 50 0 50 0) (#<procedure:*> 49 (#<procedure:even> (#<procedure:clock>))))
(36 (49 0 49 0 49 0) (50 0 50 0 50 0) (#<procedure:*> 49 (#<procedure:even> (#<procedure:clock>))))
(0 (50 0 50 0 50 0) (50 0 50 0 50 0) (#<procedure:*> 50 (#<procedure:even> (#<procedure:clock>))))
(0 (50 0 50 0 50 0) (50 0 50 0 50 0) (#<procedure:*> 50 (#<procedure:even> (#<procedure:clock>))))
(0 (50 0 50 0 50 0) (50 0 50 0 50 0) (#<procedure:*> 50 (#<procedure:even> (#<procedure:clock>))))
(0 (50 0 50 0 50 0) (50 0 50 0 50 0) (#<procedure:*> 50 (#<procedure:even> (#<procedure:clock>))))
