# Blender3D v245 OBJ File: set-3.blend
# www.blender3d.org
mtllib board-0.mtl
o Plane
v 1.662889 1.014966 -6.603901
v 4.942746 3.969112 -6.804701
v 4.979985 4.019809 -5.450572
v 1.700131 1.065664 -5.249769
v 1.591401 1.094269 -6.604904
v 4.871259 4.048415 -6.805706
v 4.908497 4.099111 -5.451575
v 1.628644 1.144966 -5.250775
vt 0.262243 0.338128 0.0
vt 0.253006 0.338131 0.0
vt 0.262193 0.257235 0.0
vt 0.253006 0.338131 0.0
vt 0.252956 0.257238 0.0
vt 0.262193 0.257235 0.0
vt 0.243331 0.257242 0.0
vt 0.252568 0.257235 0.0
vt 0.252956 0.520914 0.0
vt 0.243331 0.257242 0.0
vt 0.252956 0.520914 0.0
vt 0.243720 0.520921 0.0
vt 0.253006 0.338131 0.0
vt 0.262243 0.338133 0.0
vt 0.262193 0.419027 0.0
vt 0.253006 0.338131 0.0
vt 0.262193 0.419027 0.0
vt 0.252956 0.419024 0.0
vt 0.234094 0.257235 0.0
vt 0.243331 0.257242 0.0
vt 0.233705 0.520914 0.0
vt 0.243331 0.257242 0.0
vt 0.242942 0.520921 0.0
vt 0.233705 0.520914 0.0
vt -0.001507 0.257306 0.0
vt 0.115763 0.257235 0.0
vt 0.116099 0.520914 0.0
vt -0.001507 0.257306 0.0
vt 0.116099 0.520914 0.0
vt -0.001172 0.520985 0.0
vt 0.116099 0.520914 0.0
vt 0.116434 0.257235 0.0
vt 0.233370 0.520985 0.0
vt 0.116434 0.257235 0.0
vt 0.233705 0.257306 0.0
vt 0.233370 0.520985 0.0
vn -0.742272 -0.668556 0.045445
vn -0.742276 -0.668552 0.045445
vn 0.027476 0.037394 0.998923
vn 0.027453 0.037421 0.998922
vn 0.742279 0.668548 -0.045442
vn 0.742269 0.668560 -0.045443
vn -0.027473 -0.037397 -0.998923
vn -0.027461 -0.037411 -0.998923
vn -0.669538 0.742719 -0.009392
vn -0.669537 0.742719 -0.009394
vn 0.669537 -0.742719 0.009393
vn 0.669538 -0.742719 0.009394
usemtl None_car-base.png
s off
f 5/1/1 1/2/1 8/3/1
f 1/4/2 4/5/2 8/6/2
f 3/7/3 7/8/3 8/9/3
f 3/10/4 8/11/4 4/12/4
f 2/13/5 6/14/5 7/15/5
f 2/16/6 7/17/6 3/18/6
f 1/19/7 5/20/7 2/21/7
f 5/22/8 6/23/8 2/24/8
f 5/25/9 8/26/9 7/27/9
f 5/28/10 7/29/10 6/30/10
f 1/31/11 2/32/11 4/33/11
f 2/34/12 3/35/12 4/36/12
