# Blender3D v245 OBJ File: <memory>
# www.blender3d.org
mtllib plant-5.mtl
o Plane.006_Plane.013
v -5.009992 1.961872 4.111613
v -4.971006 -0.115547 4.025349
v -3.799595 -0.164884 5.742903
v -3.838582 1.912534 5.829167
v -3.565377 1.977598 4.385754
v -3.526391 -0.099820 4.299490
v -5.244211 -0.180611 5.468762
v -5.283196 1.896808 5.555026
vt 0.001889 -0.005625 0.0
vt 0.498873 -0.002536 0.0
vt 0.498111 1.004084 0.0
vt 0.001889 -0.005625 0.0
vt 0.498111 1.004084 0.0
vt 0.001127 1.000996 0.0
vt 0.998471 1.000000 0.0
vt 0.500000 0.998471 0.0
vt 0.499200 0.001540 0.0
vt 0.998471 1.000000 0.0
vt 0.499200 0.001540 0.0
vt 0.997671 0.003069 0.0
vn 0.563294 -0.023725 0.825916
vn 0.826044 0.038850 -0.562265
usemtl None_bgplant-1.png
s off
f 7/1/1 6/2/1 5/3/1
f 7/4/1 5/5/1 8/6/1
f 1/7/2 4/8/2 3/9/2
f 1/10/2 3/11/2 2/12/2
