# Blender3D v245 OBJ File: set-3.blend
# www.blender3d.org
mtllib plant-0.mtl
o Plane.008
v -1.578908 8.287605 -11.625539
v -1.453653 1.613261 -11.902689
v 2.309864 1.454750 -6.384520
v 2.184608 8.129094 -6.107371
v 3.062362 8.338133 -10.744777
v 3.187617 1.663789 -11.021927
v -2.331407 1.404222 -7.265283
v -2.456661 8.078568 -6.988133
vt 0.001889 -0.005625 0.0
vt 0.498873 -0.002536 0.0
vt 0.498111 1.004084 0.0
vt 0.001889 -0.005625 0.0
vt 0.498111 1.004084 0.0
vt 0.001127 1.000996 0.0
vt 0.998471 1.000000 0.0
vt 0.500000 0.998471 0.0
vt 0.499200 0.001540 0.0
vt 0.998471 1.000000 0.0
vt 0.499200 0.001540 0.0
vt 0.997671 0.003069 0.0
vn 0.563294 -0.023725 0.825916
vn 0.826044 0.038850 -0.562265
usemtl None_bgplant-1.png
s off
f 7/1/1 6/2/1 5/3/1
f 7/4/1 5/5/1 8/6/1
f 1/7/2 4/8/2 3/9/2
f 1/10/2 3/11/2 2/12/2
