# Blender3D v245 OBJ File: scene.blend
# www.blender3d.org
o Stone4_Cube_Cube.001_(nu.003
v 101.206955 -53.830578 -9.123422
v 105.570755 -49.246555 -7.178271
v 102.689827 -56.075806 -3.867635
v 94.066879 -69.790535 2.047522
v 100.100380 -62.708969 -0.008403
v 103.111023 -65.252060 5.966266
v 84.075577 -72.279007 0.493014
v 82.597839 -71.325851 5.698349
v 82.716484 -68.141357 2.244853
v 87.887238 -53.584129 6.994435
v 78.946037 -61.461834 12.494590
v 81.423073 -60.350449 14.268393
v 74.540771 -75.832954 21.308449
v 72.950264 -76.027283 17.982113
v 76.973289 -78.030128 18.937176
v 92.430634 -51.154499 10.139730
v 87.092072 -59.690586 16.571571
v 96.576027 -50.089314 -12.638395
v 98.763695 -46.990715 -10.957091
v 90.273735 -78.653503 -9.444994
v 91.514618 -81.260155 -8.292296
v 87.795761 -78.515450 -7.125109
v 100.445435 -55.180462 14.719873
v 97.342255 -41.351189 -4.478520
v 98.812042 -42.366238 -0.616824
v 103.214508 -42.973167 -1.745769
v 103.771843 -48.200424 -1.823758
v 102.955017 -64.015137 33.806236
v 93.116623 -63.831707 22.460011
v 89.257561 -62.602448 26.518589
v 73.310020 -62.205021 20.803928
v 74.635963 -61.806618 22.839804
v 93.099335 -69.442207 23.422266
v 89.409134 -69.146225 26.791031
v 90.012680 -72.646690 17.758207
v 93.326744 -68.450401 16.520933
v 95.947411 -71.640244 8.030411
v 92.790382 -78.476578 -7.454647
v 89.073929 -43.471802 -0.005464
v 92.051170 -41.599770 -4.298924
v 86.418388 -44.170818 -2.708688
v 79.029709 -72.570038 11.574364
v 71.762466 -73.383888 18.757982
v 106.923744 -64.529984 32.300186
v 95.377731 -66.469673 22.328205
v 97.995667 -51.053463 10.683671
v 99.981194 -47.405079 3.683593
v 93.182579 -47.758087 7.229504
v 88.462463 -74.865776 1.092984
v 104.858307 -66.176331 28.286379
v 104.559021 -66.981781 31.496986
v 87.473450 -66.007652 29.360186
v 92.004204 -54.232571 -11.874534
v 92.452332 -59.119144 -5.237964
v 89.533890 -51.749310 -11.120030
v 90.379646 -61.332661 17.972555
v 89.012230 -55.838184 1.457530
v 86.234924 -46.521507 0.607701
v 90.646843 -44.443840 5.103550
v 98.031799 -45.830570 3.911132
v 84.597610 -42.934414 1.752479
v 85.157326 -74.802940 16.058779
v 86.963997 -77.541634 22.167646
v 92.827019 -66.425735 -0.013957
v 91.222267 -70.586670 -2.018201
v 70.093765 -67.966637 25.819111
v 81.216995 -76.693665 25.522058
v 80.946198 -68.688438 32.609287
v 86.328423 -63.753025 29.046635
v 87.095573 -66.536835 0.081537
v 87.826431 -46.456387 5.595097
v 89.983810 -50.094082 6.714342
v 90.033249 -61.963200 -0.505367
v 79.352242 -62.992104 8.560021
v 71.600784 -67.366859 20.063681
v 103.097687 -55.720009 1.249712
v 101.834068 -64.388298 9.377538
v 97.893349 -42.747383 -7.231874
v 88.773567 -73.092133 11.145928
v 95.295357 -45.838879 -11.161500
v 93.913597 -64.510643 16.356642
v 83.907257 -78.477112 23.276024
v 85.585663 -76.683090 26.049168
v 92.647705 -73.661270 0.884627
v 92.976212 -42.546459 -7.746490
v 74.664940 -65.601074 28.120676
v 103.655991 -60.977383 7.485970
v 84.070045 -71.281944 30.556330
v 80.047424 -39.700382 7.295288
v 84.720680 -41.119232 11.523530
v 87.695267 -43.550140 9.163199
vt 0.984832 0.692196 0.0
vt 0.990751 0.868886 0.0
vt 0.903139 0.714470 0.0
vt 0.711365 0.352919 0.0
vt 0.808137 0.573101 0.0
vt 0.729084 0.619823 0.0
vt 0.638002 0.130845 0.0
vt 0.524223 0.168698 0.0
vt 0.588154 0.205450 0.0
vt 0.543133 0.615741 0.0
vt 0.351906 0.361412 0.0
vt 0.343695 0.437639 0.0
vt 0.150148 0.078131 0.0
vt 0.196136 0.021569 0.0
vt 0.221518 0.054113 0.0
vt 0.529843 0.762425 0.0
vt 0.343695 0.437639 0.0
vt 0.359146 0.560369 0.0
vt 1.000000 0.663418 0.0
vt 0.989172 0.773649 0.0
vt 0.990751 0.868886 0.0
vt 0.893517 0.022364 0.0
vt 0.886573 0.000000 0.0
vt 0.824023 0.004411 0.0
vt 0.530167 0.848474 0.0
vt 0.529843 0.762425 0.0
vt 0.359146 0.560369 0.0
vt 0.848924 0.915733 0.0
vt 0.792440 0.950770 0.0
vt 0.859965 1.000000 0.0
vt 0.903139 0.714470 0.0
vt 0.990751 0.868886 0.0
vt 0.870758 0.904660 0.0
vt 0.203963 0.869807 0.0
vt 0.314226 0.622974 0.0
vt 0.196950 0.618772 0.0
vt 0.343695 0.437639 0.0
vt 0.137617 0.324455 0.0
vt 0.112959 0.370259 0.0
vt 0.299753 0.519351 0.0
vt 0.197817 0.493704 0.0
vt 0.376047 0.360012 0.0
vt 0.431023 0.486145 0.0
vt 0.376047 0.360012 0.0
vt 0.619904 0.395356 0.0
vt 0.886573 0.000000 0.0
vt 0.893517 0.022364 0.0
vt 0.882283 0.082474 0.0
vt 0.680126 0.777901 0.0
vt 0.790528 0.827538 0.0
vt 0.703646 0.699380 0.0
vt 0.524223 0.168698 0.0
vt 0.377525 0.135002 0.0
vt 0.167402 0.061303 0.0
vt 0.314226 0.622974 0.0
vt 0.273982 0.910828 0.0
vt 0.342060 0.605810 0.0
vt 0.577613 0.858007 0.0
vt 0.727289 0.904814 0.0
vt 0.590039 0.817970 0.0
vt 0.824023 0.004411 0.0
vt 0.674238 0.154733 0.0
vt 0.638002 0.130845 0.0
vt 0.328899 0.812246 0.0
vt 0.342060 0.605810 0.0
vt 0.273982 0.910828 0.0
vt 0.266043 0.817774 0.0
vt 0.127282 0.545961 0.0
vt 0.197817 0.493704 0.0
vt 0.940756 0.514316 0.0
vt 0.824124 0.478961 0.0
vt 0.899153 0.530161 0.0
vt 0.577613 0.858007 0.0
vt 0.529843 0.762425 0.0
vt 0.530167 0.848474 0.0
vt 0.167402 0.061303 0.0
vt 0.588154 0.205450 0.0
vt 0.524223 0.168698 0.0
vt 0.196950 0.618772 0.0
vt 0.314226 0.622974 0.0
vt 0.368242 0.591939 0.0
vt 0.792440 0.950770 0.0
vt 0.848924 0.915733 0.0
vt 0.790528 0.827538 0.0
vt 0.342060 0.605810 0.0
vt 0.328899 0.812246 0.0
vt 0.299753 0.519351 0.0
vt 0.674238 0.154733 0.0
vt 0.824023 0.004411 0.0
vt 0.886573 0.000000 0.0
vt 0.266043 0.817774 0.0
vt 0.197817 0.493704 0.0
vt 0.299753 0.519351 0.0
vt 0.899153 0.530161 0.0
vt 0.660333 0.543735 0.0
vt 0.641052 0.676996 0.0
vt 0.859965 1.000000 0.0
vt 0.870758 0.904660 0.0
vt 0.990751 0.868886 0.0
vt 0.808137 0.573101 0.0
vt 0.984832 0.692196 0.0
vt 0.729084 0.619823 0.0
vt 0.660333 0.543735 0.0
vt 0.543133 0.615741 0.0
vt 0.641052 0.676996 0.0
vt 0.680126 0.777901 0.0
vt 0.601272 0.825655 0.0
vt 0.701624 0.906672 0.0
vt 0.703646 0.699380 0.0
vt 0.641052 0.676996 0.0
vt 0.600068 0.731260 0.0
vt 0.221518 0.054113 0.0
vt 0.358755 0.225590 0.0
vt 0.264756 0.250252 0.0
vt 0.824023 0.004411 0.0
vt 0.638002 0.130845 0.0
vt 0.588154 0.205450 0.0
vt 0.734871 0.382888 0.0
vt 0.711365 0.352919 0.0
vt 0.758557 0.258288 0.0
vt 0.013789 0.199791 0.0
vt 0.141262 0.202490 0.0
vt 0.000000 0.414885 0.0
vt 0.368242 0.591939 0.0
vt 0.359146 0.560369 0.0
vt 0.343695 0.437639 0.0
vt 0.196950 0.618772 0.0
vt 0.119708 0.569752 0.0
vt 0.203963 0.869807 0.0
vt 0.824023 0.004411 0.0
vt 0.588154 0.205450 0.0
vt 0.893517 0.022364 0.0
vt 0.893517 0.022364 0.0
vt 0.588154 0.205450 0.0
vt 0.673368 0.289677 0.0
vt 0.563977 0.744613 0.0
vt 0.567914 0.716213 0.0
vt 0.590039 0.817970 0.0
vt 0.711954 0.422589 0.0
vt 0.660333 0.543735 0.0
vt 0.824124 0.478961 0.0
vt 0.137617 0.324455 0.0
vt 0.431039 0.305363 0.0
vt 0.137157 0.188690 0.0
vt 0.870758 0.904660 0.0
vt 0.811082 0.769957 0.0
vt 0.903139 0.714470 0.0
vt 0.619904 0.395356 0.0
vt 0.729084 0.619823 0.0
vt 0.651141 0.644429 0.0
vt 0.196950 0.618772 0.0
vt 0.112959 0.370259 0.0
vt 0.119708 0.569752 0.0
vt 0.141262 0.202490 0.0
vt 0.013789 0.199791 0.0
vt 0.150148 0.078131 0.0
vt 0.907303 0.874335 0.0
vt 0.848924 0.915733 0.0
vt 0.859965 1.000000 0.0
vt 0.701624 0.906672 0.0
vt 0.792440 0.950770 0.0
vt 0.790528 0.827538 0.0
vt 0.431039 0.305363 0.0
vt 0.351906 0.361412 0.0
vt 0.543133 0.615741 0.0
vt 0.266043 0.817774 0.0
vt 0.273982 0.910828 0.0
vt 0.203963 0.869807 0.0
vt 0.567914 0.716213 0.0
vt 0.641052 0.676996 0.0
vt 0.543133 0.615741 0.0
vt 0.619904 0.395356 0.0
vt 0.487559 0.277194 0.0
vt 0.674238 0.154733 0.0
vt 0.989172 0.773649 0.0
vt 1.000000 0.663418 0.0
vt 0.956056 0.739264 0.0
vt 0.701624 0.906672 0.0
vt 0.790528 0.827538 0.0
vt 0.680126 0.777901 0.0
vt 0.437579 0.572302 0.0
vt 0.530167 0.848474 0.0
vt 0.368242 0.591939 0.0
vt 0.882283 0.082474 0.0
vt 0.758557 0.258288 0.0
vt 0.711365 0.352919 0.0
vt 0.530167 0.848474 0.0
vt 0.727289 0.904814 0.0
vt 0.577613 0.858007 0.0
vt 0.893517 0.022364 0.0
vt 0.673368 0.289677 0.0
vt 0.758557 0.258288 0.0
vt 0.701624 0.906672 0.0
vt 0.859965 1.000000 0.0
vt 0.792440 0.950770 0.0
vt 0.358755 0.225590 0.0
vt 0.376047 0.360012 0.0
vt 0.264756 0.250252 0.0
vt 0.212691 0.191828 0.0
vt 0.221518 0.054113 0.0
vt 0.264756 0.250252 0.0
vt 0.641052 0.676996 0.0
vt 0.703646 0.699380 0.0
vt 0.899153 0.530161 0.0
vt 0.273982 0.910828 0.0
vt 0.266043 0.817774 0.0
vt 0.328899 0.812246 0.0
vt 0.212691 0.191828 0.0
vt 0.264756 0.250252 0.0
vt 0.176930 0.276981 0.0
vt 0.893517 0.022364 0.0
vt 0.758557 0.258288 0.0
vt 0.882283 0.082474 0.0
vt 0.720997 0.243934 0.0
vt 0.619904 0.395356 0.0
vt 0.674238 0.154733 0.0
vt 0.221518 0.054113 0.0
vt 0.212691 0.191828 0.0
vt 0.141262 0.202490 0.0
vt 0.221518 0.054113 0.0
vt 0.377525 0.135002 0.0
vt 0.358755 0.225590 0.0
vt 0.882283 0.082474 0.0
vt 0.711365 0.352919 0.0
vt 0.720997 0.243934 0.0
vt 0.956056 0.739264 0.0
vt 0.899153 0.530161 0.0
vt 0.865538 0.795356 0.0
vt 0.619904 0.395356 0.0
vt 0.711365 0.352919 0.0
vt 0.729084 0.619823 0.0
vt 0.016671 0.338741 0.0
vt 0.013789 0.199791 0.0
vt 0.000000 0.414885 0.0
vt 0.711365 0.352919 0.0
vt 0.619904 0.395356 0.0
vt 0.720997 0.243934 0.0
vt 0.376047 0.360012 0.0
vt 0.176930 0.276981 0.0
vt 0.264756 0.250252 0.0
vt 0.824124 0.478961 0.0
vt 0.734871 0.382888 0.0
vt 0.711954 0.422589 0.0
vt 0.720997 0.243934 0.0
vt 0.674238 0.154733 0.0
vt 0.886573 0.000000 0.0
vt 0.000000 0.414885 0.0
vt 0.127282 0.545961 0.0
vt 0.119708 0.569752 0.0
vt 0.882283 0.082474 0.0
vt 0.720997 0.243934 0.0
vt 0.886573 0.000000 0.0
vt 0.196136 0.021569 0.0
vt 0.013789 0.199791 0.0
vt 0.167402 0.061303 0.0
vt 0.808137 0.573101 0.0
vt 0.711365 0.352919 0.0
vt 0.734871 0.382888 0.0
vt 0.811082 0.769957 0.0
vt 0.703363 0.725738 0.0
vt 0.903139 0.714470 0.0
vt 0.674238 0.154733 0.0
vt 0.487559 0.277194 0.0
vt 0.524223 0.168698 0.0
vt 0.487559 0.277194 0.0
vt 0.377525 0.135002 0.0
vt 0.524223 0.168698 0.0
vt 0.137617 0.324455 0.0
vt 0.343695 0.437639 0.0
vt 0.351906 0.361412 0.0
vt 0.137157 0.188690 0.0
vt 0.112959 0.370259 0.0
vt 0.137617 0.324455 0.0
vt 0.119708 0.569752 0.0
vt 0.127282 0.545961 0.0
vt 0.203963 0.869807 0.0
vt 0.711954 0.422589 0.0
vt 0.734871 0.382888 0.0
vt 0.673368 0.289677 0.0
vt 0.590039 0.817970 0.0
vt 0.701624 0.906672 0.0
vt 0.601272 0.825655 0.0
vt 0.641052 0.676996 0.0
vt 0.567914 0.716213 0.0
vt 0.563977 0.744613 0.0
vt 0.431039 0.305363 0.0
vt 0.137617 0.324455 0.0
vt 0.351906 0.361412 0.0
vt 0.567914 0.716213 0.0
vt 0.543133 0.615741 0.0
vt 0.529843 0.762425 0.0
vt 0.119708 0.569752 0.0
vt 0.112959 0.370259 0.0
vt 0.016671 0.338741 0.0
vt 0.703363 0.725738 0.0
vt 0.530167 0.848474 0.0
vt 0.651141 0.644429 0.0
vt 0.314226 0.622974 0.0
vt 0.437579 0.572302 0.0
vt 0.368242 0.591939 0.0
vt 0.530167 0.848474 0.0
vt 0.703363 0.725738 0.0
vt 0.811082 0.769957 0.0
vt 0.703646 0.699380 0.0
vt 0.865538 0.795356 0.0
vt 0.899153 0.530161 0.0
vt 0.119708 0.569752 0.0
vt 0.016671 0.338741 0.0
vt 0.000000 0.414885 0.0
vt 0.758557 0.258288 0.0
vt 0.673368 0.289677 0.0
vt 0.734871 0.382888 0.0
vt 0.711954 0.422589 0.0
vt 0.673368 0.289677 0.0
vt 0.543133 0.615741 0.0
vt 0.577613 0.858007 0.0
vt 0.590039 0.817970 0.0
vt 0.567914 0.716213 0.0
vt 0.197817 0.493704 0.0
vt 0.176930 0.276981 0.0
vt 0.376047 0.360012 0.0
vt 0.990751 0.868886 0.0
vt 0.984832 0.692196 0.0
vt 1.000000 0.663418 0.0
vt 0.197817 0.493704 0.0
vt 0.072871 0.396689 0.0
vt 0.176930 0.276981 0.0
vt 0.680126 0.777901 0.0
vt 0.600068 0.731260 0.0
vt 0.601272 0.825655 0.0
vt 0.899153 0.530161 0.0
vt 0.824124 0.478961 0.0
vt 0.660333 0.543735 0.0
vt 0.600068 0.731260 0.0
vt 0.446370 0.767887 0.0
vt 0.601272 0.825655 0.0
vt 0.416692 0.849224 0.0
vt 0.601272 0.825655 0.0
vt 0.446370 0.767887 0.0
vt 0.984832 0.692196 0.0
vt 0.940756 0.514316 0.0
vt 1.000000 0.663418 0.0
vt 0.487559 0.277194 0.0
vt 0.376047 0.360012 0.0
vt 0.358755 0.225590 0.0
vt 0.729084 0.619823 0.0
vt 0.984832 0.692196 0.0
vt 0.903139 0.714470 0.0
vt 0.343695 0.437639 0.0
vt 0.529843 0.762425 0.0
vt 0.543133 0.615741 0.0
vt 0.368242 0.591939 0.0
vt 0.530167 0.848474 0.0
vt 0.359146 0.560369 0.0
vt 0.790528 0.827538 0.0
vt 0.865538 0.795356 0.0
vt 0.703646 0.699380 0.0
vt 0.984832 0.692196 0.0
vt 0.808137 0.573101 0.0
vt 0.940756 0.514316 0.0
vt 0.112959 0.370259 0.0
vt 0.013789 0.199791 0.0
vt 0.016671 0.338741 0.0
vt 0.377525 0.135002 0.0
vt 0.196136 0.021569 0.0
vt 0.167402 0.061303 0.0
vt 0.314226 0.622974 0.0
vt 0.342060 0.605810 0.0
vt 0.431023 0.486145 0.0
vt 0.377525 0.135002 0.0
vt 0.487559 0.277194 0.0
vt 0.358755 0.225590 0.0
vt 0.266043 0.817774 0.0
vt 0.299753 0.519351 0.0
vt 0.328899 0.812246 0.0
vt 0.196136 0.021569 0.0
vt 0.150148 0.078131 0.0
vt 0.013789 0.199791 0.0
vt 0.989172 0.773649 0.0
vt 0.907303 0.874335 0.0
vt 0.990751 0.868886 0.0
vt 0.127282 0.545961 0.0
vt 0.000000 0.414885 0.0
vt 0.072871 0.396689 0.0
vt 1.000000 0.663418 0.0
vt 0.899153 0.530161 0.0
vt 0.956056 0.739264 0.0
vt 0.711954 0.422589 0.0
vt 0.543133 0.615741 0.0
vt 0.660333 0.543735 0.0
vt 0.416692 0.849224 0.0
vt 0.641052 0.676996 0.0
vt 0.563977 0.744613 0.0
vt 0.811082 0.769957 0.0
vt 0.727289 0.904814 0.0
vt 0.530167 0.848474 0.0
vt 0.588154 0.205450 0.0
vt 0.431039 0.305363 0.0
vt 0.673368 0.289677 0.0
vt 0.013789 0.199791 0.0
vt 0.112959 0.370259 0.0
vt 0.137157 0.188690 0.0
vt 0.137157 0.188690 0.0
vt 0.167402 0.061303 0.0
vt 0.013789 0.199791 0.0
vt 0.674238 0.154733 0.0
vt 0.524223 0.168698 0.0
vt 0.638002 0.130845 0.0
vt 0.641052 0.676996 0.0
vt 0.446370 0.767887 0.0
vt 0.600068 0.731260 0.0
vt 0.903139 0.714470 0.0
vt 0.703363 0.725738 0.0
vt 0.729084 0.619823 0.0
vt 0.431023 0.486145 0.0
vt 0.619904 0.395356 0.0
vt 0.651141 0.644429 0.0
vt 0.734871 0.382888 0.0
vt 0.824124 0.478961 0.0
vt 0.808137 0.573101 0.0
vt 0.072871 0.396689 0.0
vt 0.000000 0.414885 0.0
vt 0.176930 0.276981 0.0
vt 0.203963 0.869807 0.0
vt 0.127282 0.545961 0.0
vt 0.266043 0.817774 0.0
vt 0.907303 0.874335 0.0
vt 0.865538 0.795356 0.0
vt 0.848924 0.915733 0.0
vt 0.446370 0.767887 0.0
vt 0.641052 0.676996 0.0
vt 0.416692 0.849224 0.0
vt 0.859965 1.000000 0.0
vt 0.727289 0.904814 0.0
vt 0.870758 0.904660 0.0
vt 0.197817 0.493704 0.0
vt 0.127282 0.545961 0.0
vt 0.072871 0.396689 0.0
vt 0.651141 0.644429 0.0
vt 0.437579 0.572302 0.0
vt 0.431023 0.486145 0.0
vt 0.790528 0.827538 0.0
vt 0.848924 0.915733 0.0
vt 0.865538 0.795356 0.0
vt 0.907303 0.874335 0.0
vt 0.989172 0.773649 0.0
vt 0.956056 0.739264 0.0
vt 1.000000 0.663418 0.0
vt 0.940756 0.514316 0.0
vt 0.899153 0.530161 0.0
vt 0.859965 1.000000 0.0
vt 0.990751 0.868886 0.0
vt 0.907303 0.874335 0.0
vt 0.416692 0.849224 0.0
vt 0.563977 0.744613 0.0
vt 0.493667 0.829344 0.0
vt 0.493667 0.829344 0.0
vt 0.563977 0.744613 0.0
vt 0.590039 0.817970 0.0
vt 0.368242 0.591939 0.0
vt 0.343695 0.437639 0.0
vt 0.196950 0.618772 0.0
vt 0.703363 0.725738 0.0
vt 0.651141 0.644429 0.0
vt 0.729084 0.619823 0.0
vt 0.343695 0.437639 0.0
vt 0.112959 0.370259 0.0
vt 0.196950 0.618772 0.0
vt 0.600068 0.731260 0.0
vt 0.680126 0.777901 0.0
vt 0.703646 0.699380 0.0
vt 0.619904 0.395356 0.0
vt 0.376047 0.360012 0.0
vt 0.487559 0.277194 0.0
vt 0.141262 0.202490 0.0
vt 0.150148 0.078131 0.0
vt 0.221518 0.054113 0.0
vt 0.376047 0.360012 0.0
vt 0.431023 0.486145 0.0
vt 0.299753 0.519351 0.0
vt 0.342060 0.605810 0.0
vt 0.299753 0.519351 0.0
vt 0.431023 0.486145 0.0
vt 0.273982 0.910828 0.0
vt 0.314226 0.622974 0.0
vt 0.203963 0.869807 0.0
vt 0.493667 0.829344 0.0
vt 0.590039 0.817970 0.0
vt 0.601272 0.825655 0.0
vt 0.859965 1.000000 0.0
vt 0.701624 0.906672 0.0
vt 0.727289 0.904814 0.0
vt 0.416692 0.849224 0.0
vt 0.493667 0.829344 0.0
vt 0.601272 0.825655 0.0
vt 0.567914 0.716213 0.0
vt 0.529843 0.762425 0.0
vt 0.577613 0.858007 0.0
vt 0.176930 0.276981 0.0
vt 0.000000 0.414885 0.0
vt 0.141262 0.202490 0.0
vt 0.212691 0.191828 0.0
vt 0.176930 0.276981 0.0
vt 0.141262 0.202490 0.0
vt 0.701624 0.906672 0.0
vt 0.590039 0.817970 0.0
vt 0.727289 0.904814 0.0
vt 0.824124 0.478961 0.0
vt 0.940756 0.514316 0.0
vt 0.808137 0.573101 0.0
vt 0.673368 0.289677 0.0
vt 0.431039 0.305363 0.0
vt 0.543133 0.615741 0.0
vt 0.167402 0.061303 0.0
vt 0.431039 0.305363 0.0
vt 0.588154 0.205450 0.0
vt 0.431039 0.305363 0.0
vt 0.167402 0.061303 0.0
vt 0.137157 0.188690 0.0
vt 0.727289 0.904814 0.0
vt 0.811082 0.769957 0.0
vt 0.870758 0.904660 0.0
vt 0.437579 0.572302 0.0
vt 0.651141 0.644429 0.0
vt 0.530167 0.848474 0.0
vt 0.196136 0.021569 0.0
vt 0.377525 0.135002 0.0
vt 0.221518 0.054113 0.0
vt 0.431023 0.486145 0.0
vt 0.437579 0.572302 0.0
vt 0.314226 0.622974 0.0
vt 0.956056 0.739264 0.0
vt 0.865538 0.795356 0.0
vt 0.907303 0.874335 0.0
vn 0.737937 -0.519897 -0.430298
vn 0.552577 -0.629413 -0.546351
vn -0.949242 -0.214318 -0.230235
vn -0.543773 0.798187 0.259246
vn -0.480192 -0.831876 0.278206
vn -0.339353 0.692181 0.636966
vn 0.508918 0.104330 -0.854469
vn -0.589215 -0.544479 -0.596966
vn -0.111444 0.641551 0.758941
vn 0.180648 0.965964 0.185148
vn 0.912098 -0.215784 0.348589
vn 0.171326 0.976227 -0.132775
vn -0.245459 0.968950 -0.029750
vn 0.260523 -0.894241 0.363950
vn 0.768606 -0.483506 0.418887
vn 0.621701 -0.049711 -0.781676
vn -0.379346 0.915206 0.135995
vn -0.223295 -0.917258 -0.329813
vn 0.523939 0.484105 -0.700806
vn 0.216593 0.839205 0.498822
vn -0.507418 -0.771511 0.383794
vn 0.278230 0.829905 -0.483575
vn -0.129351 -0.674648 0.726717
vn -0.710016 -0.589091 -0.385810
vn -0.084205 0.670719 0.736916
vn -0.570776 -0.593778 -0.567136
vn 0.473717 0.859944 0.189971
vn -0.036185 0.963042 0.266908
vn 0.443163 -0.588549 -0.676179
vn -0.464101 -0.794964 0.390696
vn 0.084532 -0.980261 0.178724
vn -0.946125 -0.294348 -0.134931
vn 0.949041 0.096713 0.299946
vn 0.552263 -0.629714 -0.546321
vn -0.953709 -0.291165 -0.075243
vn 0.202246 0.971631 0.122596
vn -0.904058 -0.323511 -0.279321
vn 0.187440 -0.874441 -0.447459
vn -0.933525 -0.173896 -0.313515
vn 0.822608 -0.044196 -0.566889
vn -0.452783 -0.599568 0.659928
vn -0.379209 0.029836 0.924830
vn -0.080765 0.939158 0.333855
vn -0.637862 0.320293 -0.700389
vn -0.522054 0.438325 -0.731663
vn -0.257299 0.141520 0.955913
vn -0.889892 -0.002154 -0.456166
vn -0.834932 0.338681 -0.433801
vn 0.990522 -0.117726 -0.070761
vn 0.670332 -0.619902 0.407892
vn -0.043134 0.927220 0.372024
vn -0.472999 -0.624042 0.621967
vn 0.397367 0.848079 -0.350517
vn -0.219811 0.792694 0.568612
vn -0.728887 0.609295 -0.312223
vn 0.247052 -0.508499 0.824860
vn -0.633581 0.432114 0.641758
vn 0.262021 -0.951739 0.159807
vn 0.176672 0.370132 -0.912025
vn 0.050319 0.902241 0.428287
vn 0.351887 -0.082784 0.932375
vn 0.652559 0.513583 -0.557135
vn 0.421855 0.749447 0.510262
vn 0.256855 0.638075 -0.725869
vn 0.260265 0.744671 0.614595
vn 0.490577 -0.731758 -0.473144
vn 0.157302 -0.924711 -0.346648
vn -0.964054 -0.188687 -0.187075
vn 0.732390 -0.673402 -0.100666
vn 0.382990 -0.863906 0.327085
vn 0.490031 0.558537 -0.669258
vn 0.280273 -0.949774 0.139201
vn -0.284615 -0.887068 0.363462
vn 0.120393 -0.813187 -0.569415
vn 0.884237 -0.397743 0.244795
vn -0.470667 0.453494 -0.756846
vn 0.543502 -0.738443 -0.399134
vn -0.513739 0.175697 0.839763
vn 0.907154 -0.225950 -0.354991
vn 0.900677 -0.227520 0.370156
vn -0.640590 -0.468074 -0.608729
vn 0.248812 -0.760868 0.599310
vn 0.327683 0.291402 0.898726
vn 0.835968 -0.468925 0.285072
vn -0.890841 -0.436881 0.124647
vn 0.228554 -0.445965 -0.865378
vn 0.996722 0.010730 -0.080186
vn -0.407330 -0.897151 0.170890
vn -0.062551 -0.968020 -0.242952
vn -0.323216 0.936580 -0.135462
vn -0.838018 0.204974 0.505680
vn -0.275294 -0.006116 0.961341
vn -0.014250 -0.118257 -0.992881
vn 0.238434 0.647002 0.724249
vn -0.861005 -0.424389 0.280293
vn -0.600761 0.722158 -0.342891
vn -0.658274 0.444218 0.607738
vn -0.172360 0.799498 0.575408
vn 0.843916 -0.168279 0.509399
vn 0.669892 0.742443 0.004885
vn 0.936989 0.303906 0.172319
vn -0.609121 0.463695 -0.643396
vn -0.165221 0.689338 0.705348
vn -0.023499 0.441184 -0.897109
vn -0.698222 0.369815 -0.612963
vn -0.385040 0.337849 0.858838
vn 0.857357 -0.458051 0.234793
vn 0.523344 -0.141649 -0.840266
vn 0.629785 -0.385850 0.674159
vn 0.169663 0.976413 0.133538
vn -0.848619 -0.491730 -0.195055
vn 0.356042 0.904342 -0.235371
vn 0.385087 0.915241 -0.118494
vn 0.272997 -0.457277 -0.846386
vn 0.410343 -0.911800 -0.015472
vn 0.828119 -0.391706 -0.400980
vn -0.574797 0.787644 0.221870
vn -0.073733 0.557735 0.826738
vn -0.468858 0.811551 -0.348652
vn 0.229744 -0.710976 -0.664628
vn -0.581296 0.659285 0.476905
vn -0.693497 -0.102299 -0.713160
vn 0.670658 0.596855 -0.440434
vn -0.065947 -0.926251 -0.371092
vn 0.337900 -0.919846 -0.199265
vn -0.701137 -0.609009 0.370832
vn 0.527957 0.618874 -0.581598
vn 0.479254 -0.111830 0.870523
vn -0.259407 0.246317 -0.933829
vn -0.981588 -0.114673 -0.152757
vn -0.704875 -0.669737 0.233674
vn 0.937874 0.300997 0.172609
vn -0.523884 0.501830 -0.688267
vn -0.830001 0.533808 -0.161701
vn -0.967718 0.028342 -0.250437
vn -0.509209 -0.860545 0.013017
vn -0.810698 -0.193720 -0.552487
vn 0.989243 -0.083389 -0.120183
vn 0.658234 -0.614971 0.434210
vn 0.280946 -0.548608 -0.787464
vn -0.035407 -0.646142 0.762396
vn -0.130583 -0.651992 0.746897
vn 0.082382 0.895407 -0.437562
vn -0.526544 -0.788717 0.317296
vn 0.826456 0.079803 0.557316
vn 0.620714 -0.230589 0.749362
vn 0.660205 -0.067146 0.748078
vn -0.054492 0.959043 -0.277971
vn 0.262456 0.666452 -0.697825
vn -0.226058 0.070319 -0.971572
vn 0.556678 0.653367 -0.513051
vn -0.135668 -0.770619 0.622688
vn -0.355396 -0.731088 0.582412
vn 0.045149 0.987254 0.152616
vn 0.883312 -0.252931 0.394698
vn 0.009593 0.984547 0.174858
vn 0.012881 0.964935 -0.262173
vn 0.209384 -0.977471 0.026611
vn -0.363538 -0.839132 0.404596
vn 0.773688 -0.630216 -0.065076
vn 0.780623 -0.621754 -0.063631
vn 0.101431 0.992240 -0.071910
vn 0.644953 0.695965 0.315703
vn 0.492309 0.507313 0.707294
vn 0.751137 0.494589 0.437236
vn -0.049116 0.943670 0.327222
vn -0.088206 -0.661959 0.744332
vn -0.066811 -0.818818 0.570152
vn 0.410160 0.388581 0.825090
vn 0.028739 -0.804000 -0.593934
vn -0.581331 0.410478 -0.702540
vn -0.843318 0.097242 -0.528544
vn -0.841719 0.092801 -0.531880
vn 0.824449 0.149215 0.545911
vn 0.629868 -0.316529 0.709278
vn -0.226636 -0.750983 -0.620210
vn 0.979705 -0.139950 0.143497
vn 0.099155 0.749158 -0.654928
usemtl (null).001
s off
f 1/1/1 2/2/1 3/3/1
f 4/4/2 5/5/2 6/6/2
f 7/7/3 8/8/3 9/9/3
f 10/10/4 11/11/4 12/12/4
f 13/13/5 14/14/5 15/15/5
f 16/16/6 12/17/6 17/18/6
f 18/19/7 19/20/7 2/21/7
f 20/22/8 21/23/8 22/24/8
f 23/25/9 16/26/9 17/27/9
f 24/28/10 25/29/10 26/30/10
f 3/31/11 2/32/11 27/33/11
f 28/34/12 29/35/12 30/36/12
f 12/37/13 31/38/13 32/39/13
f 33/40/14 34/41/14 35/42/14
f 36/43/15 35/44/15 37/45/15
f 21/46/16 20/47/16 38/48/16
f 39/49/17 40/50/17 41/51/17
f 8/52/18 42/53/18 43/54/18
f 29/55/19 44/56/19 45/57/19
f 46/58/20 47/59/20 48/60/20
f 22/61/21 49/62/21 7/63/21
f 50/64/22 45/65/22 44/66/22
f 51/67/23 52/68/23 34/69/23
f 53/70/24 54/71/24 55/72/24
f 46/73/25 16/74/25 23/75/25
f 43/76/26 9/77/26 8/78/26
f 30/79/27 29/80/27 56/81/27
f 25/82/28 24/83/28 40/84/28
f 45/85/29 50/86/29 33/87/29
f 49/88/30 22/89/30 21/90/30
f 51/91/31 34/92/31 33/93/31
f 55/94/32 57/95/32 58/96/32
f 26/97/33 27/98/33 2/99/33
f 5/100/34 1/101/34 6/102/34
f 57/103/35 10/104/35 58/105/35
f 39/106/36 59/107/36 60/108/36
f 41/109/37 58/110/37 61/111/37
f 15/112/38 62/113/38 63/114/38
f 22/115/39 7/116/39 9/117/39
f 64/118/40 4/119/40 65/120/40
f 66/121/41 67/122/41 68/123/41
f 56/124/42 17/125/42 12/126/42
f 30/127/43 69/128/43 28/129/43
f 22/130/44 9/131/44 20/132/44
f 20/133/45 9/134/45 70/135/45
f 71/136/46 72/137/46 48/138/46
f 73/139/47 57/140/47 54/141/47
f 31/142/48 74/143/48 75/144/48
f 27/145/49 76/146/49 3/147/49
f 37/148/50 6/149/50 77/150/50
f 30/151/51 32/152/51 69/153/51
f 67/154/52 66/155/52 13/156/52
f 78/157/53 24/158/53 26/159/53
f 60/160/54 25/161/54 40/162/54
f 74/163/55 11/164/55 10/165/55
f 51/166/56 44/167/56 28/168/56
f 72/169/57 58/170/57 10/171/57
f 37/172/58 79/173/58 49/174/58
f 19/175/59 18/176/59 80/177/59
f 60/178/60 40/179/60 39/180/60
f 81/181/61 23/182/61 56/183/61
f 38/184/62 65/185/62 4/186/62
f 23/187/63 47/188/63 46/189/63
f 20/190/64 70/191/64 65/192/64
f 60/193/65 26/194/65 25/195/65
f 62/196/66 35/197/66 63/198/66
f 82/199/67 15/200/67 63/201/67
f 58/202/68 41/203/68 55/204/68
f 44/205/69 51/206/69 50/207/69
f 82/208/70 63/209/70 83/210/70
f 20/211/71 65/212/71 38/213/71
f 84/214/72 37/215/72 49/216/72
f 15/217/73 82/218/73 67/219/73
f 15/220/74 42/221/74 62/222/74
f 38/223/75 4/224/75 84/225/75
f 80/226/76 55/227/76 85/228/76
f 37/229/77 4/230/77 6/231/77
f 86/232/78 66/233/78 68/234/78
f 4/235/79 37/236/79 84/237/79
f 35/238/80 83/239/80 63/240/80
f 54/241/81 64/242/81 73/243/81
f 84/244/82 49/245/82 21/246/82
f 68/247/83 52/248/83 69/249/83
f 38/250/84 84/251/84 21/252/84
f 14/253/85 66/254/85 43/255/85
f 5/256/86 4/257/86 64/258/86
f 76/259/87 87/260/87 3/261/87
f 49/262/88 79/263/88 8/264/88
f 79/265/89 42/266/89 8/267/89
f 31/268/90 12/269/90 11/270/90
f 75/271/91 32/272/91 31/273/91
f 69/274/92 52/275/92 28/276/92
f 73/277/93 64/278/93 70/279/93
f 48/280/94 60/281/94 59/282/94
f 58/283/95 72/284/95 71/285/95
f 74/286/96 31/287/96 11/288/96
f 72/289/97 10/290/97 16/291/97
f 69/292/98 32/293/98 86/294/98
f 87/295/99 23/296/99 77/297/99
f 29/298/100 81/299/100 56/300/100
f 23/301/101 87/302/101 76/303/101
f 41/304/102 85/305/102 55/306/102
f 69/307/103 86/308/103 68/309/103
f 65/310/104 70/311/104 64/312/104
f 73/313/105 70/314/105 10/315/105
f 46/316/106 48/317/106 72/318/106
f 34/319/107 83/320/107 35/321/107
f 2/322/108 1/323/108 18/324/108
f 34/325/109 88/326/109 83/327/109
f 39/328/110 61/329/110 59/330/110
f 55/331/111 54/332/111 57/333/111
f 61/334/112 89/335/112 59/336/112
f 90/337/113 59/338/113 89/339/113
f 1/340/114 53/341/114 18/342/114
f 79/343/115 35/344/115 62/345/115
f 6/346/116 1/347/116 3/348/116
f 12/349/117 16/350/117 10/351/117
f 56/352/118 23/353/118 17/354/118
f 40/355/119 85/356/119 41/357/119
f 1/358/120 5/359/120 53/360/120
f 32/361/121 66/362/121 86/363/121
f 42/364/122 14/365/122 43/366/122
f 29/367/123 45/368/123 36/369/123
f 42/370/124 79/371/124 62/372/124
f 51/373/125 33/374/125 50/375/125
f 14/376/126 13/377/126 66/378/126
f 19/379/127 78/380/127 2/381/127
f 52/382/128 68/383/128 88/384/128
f 18/385/129 55/386/129 80/387/129
f 73/388/130 10/389/130 57/390/130
f 90/391/131 58/392/131 71/393/131
f 76/394/132 47/395/132 23/396/132
f 9/397/133 74/398/133 70/399/133
f 66/400/134 32/401/134 75/402/134
f 75/403/135 43/404/135 66/405/135
f 49/406/136 8/407/136 7/408/136
f 58/409/137 89/410/137 61/411/137
f 3/412/138 87/413/138 6/414/138
f 36/415/139 37/416/139 77/417/139
f 64/418/140 54/419/140 5/420/140
f 88/421/141 68/422/141 83/423/141
f 28/424/142 52/425/142 51/426/142
f 78/427/143 85/428/143 24/429/143
f 89/430/144 58/431/144 90/432/144
f 26/433/145 47/434/145 27/435/145
f 34/436/146 52/437/146 88/438/146
f 77/439/147 81/440/147 36/441/147
f 40/442/148 24/443/148 85/444/148
f 78/445/149 19/446/149 80/447/149
f 18/448/150 53/449/150 55/450/150
f 26/451/151 2/452/151 78/453/151
f 90/454/152 71/455/152 91/456/152
f 91/457/153 71/458/153 48/459/153
f 56/460/154 12/461/154 30/462/154
f 87/463/155 77/464/155 6/465/155
f 12/466/156 32/467/156 30/468/156
f 61/469/157 39/470/157 41/471/157
f 37/472/158 35/473/158 79/474/158
f 67/475/159 13/476/159 15/477/159
f 35/478/160 36/479/160 33/480/160
f 45/481/161 33/482/161 36/483/161
f 44/484/162 29/485/162 28/486/162
f 91/487/163 48/488/163 59/489/163
f 26/490/164 60/491/164 47/492/164
f 90/493/165 91/494/165 59/495/165
f 72/496/166 16/497/166 46/498/166
f 83/499/167 68/500/167 67/501/167
f 82/502/168 83/503/168 67/504/168
f 60/505/169 48/506/169 47/507/169
f 54/508/170 53/509/170 5/510/170
f 70/511/171 74/512/171 10/513/171
f 43/514/172 74/515/172 9/516/172
f 74/517/173 43/518/173 75/519/173
f 47/520/174 76/521/174 27/522/174
f 81/523/175 77/524/175 23/525/175
f 14/526/176 42/527/176 15/528/176
f 36/529/177 81/530/177 29/531/177
f 80/532/178 85/533/178 78/534/178
