# Blender3D v245 OBJ File: 
# www.blender3d.org
mtllib wiggle.mtl
o CurveCircle_Mesh_(nul
v 0.208095 -0.156977 0.017711
v -0.037298 -0.356583 -0.019218
v 0.192230 -0.221891 0.026241
v 0.208168 -0.161538 0.013279
v 0.208095 -0.156977 0.017711
v 0.198452 -0.227051 -0.036313
v -1.326984 -0.476287 0.072533
v -1.493619 -0.194802 0.068075
v -1.554723 -0.202240 -0.093267
v 1.229019 -0.750123 0.281311
v 1.113263 -1.045097 0.137689
v 1.414439 -0.572527 0.234613
v -0.953035 0.068941 -0.321284
v -0.738872 0.469263 -0.303217
v -0.683708 0.402189 -0.116084
v 0.202388 -0.243628 -0.024386
v 0.905134 -0.846050 0.208283
v 0.440652 -1.489653 0.014381
v 0.967585 -1.034856 0.217836
v -0.736670 0.401414 0.138078
v -0.496720 0.633753 0.234299
v -0.470719 0.867642 0.417543
v -1.216161 0.844662 -0.330276
v -0.914634 1.155045 -0.291755
v -0.945816 0.869226 -0.436903
v -0.274321 0.784625 0.358422
v -0.163229 1.453646 -0.211884
v 0.222006 1.522514 -0.021136
v 0.219253 1.409063 -0.216841
v -1.524884 -0.191001 -0.267736
v -1.504945 0.272988 -0.343585
v -1.430805 0.054596 -0.416404
v 1.245686 0.708115 0.446210
v 1.400320 0.644284 0.265500
v 1.147985 1.032912 0.270396
v 0.204527 -0.210141 0.014027
v -0.949416 0.599060 0.343689
v -0.274853 1.143158 0.490425
v -1.391361 -0.522604 -0.184635
v -0.585097 -0.842848 -0.138295
v -0.810748 -0.853402 -0.168900
v -0.872742 -0.760110 -0.299919
v 1.559563 0.168353 0.097886
v 1.399891 0.648334 0.008275
v 1.478706 0.163654 -0.089268
v 1.190377 0.754457 -0.186028
v 0.964196 1.214447 0.037355
v 1.236636 0.935879 0.052406
v -1.346577 0.192541 0.249846
v -1.236812 0.795046 0.238598
v -1.504737 0.247731 0.140896
v -0.886355 0.047298 -0.140929
v 0.613506 1.410951 0.011941
v 0.906195 1.128461 -0.157403
v -0.345909 1.247721 -0.366266
v -0.439073 0.943600 -0.396444
v 0.203798 1.523112 0.210469
v 0.718340 1.360055 0.251210
v 0.679251 1.060412 -0.289116
v 1.042601 0.566245 -0.258333
v 0.130340 1.191731 -0.349361
v 1.342907 -0.787567 0.059215
v 1.534339 -0.324233 0.099297
v 0.076168 0.696928 0.254603
v 0.462610 0.622863 0.377448
v 0.148842 0.871471 0.476946
v 1.030738 -1.146533 -0.028336
v 0.718073 -1.396022 0.034971
v 0.749096 -1.313727 -0.099633
v 1.406397 0.152436 0.431184
v 1.513048 0.302878 0.249722
v -0.817044 -0.360412 -0.212891
v -0.892648 -0.158021 -0.153306
v -0.918709 -0.172541 0.005891
v -1.316302 0.872020 0.063335
v 0.427557 0.552454 0.169705
v 0.701384 0.310541 0.175736
v 0.763495 0.344005 0.369349
v -0.929611 0.043754 0.065095
v -1.041374 -0.171070 0.144938
v 0.641953 0.992569 0.563147
v 0.876217 1.117446 0.449272
v 0.903525 -0.637367 0.132462
v 0.712792 -1.071845 0.074983
v 0.584367 1.306221 -0.185687
v -1.066215 -0.646084 0.094721
v -1.325167 -0.181808 0.193164
v 0.388035 0.609600 -0.058951
v 0.621022 0.456853 -0.039140
v -0.225053 0.673888 0.168925
v -0.848425 0.459074 0.270476
v -0.456725 -0.722105 -0.227037
v -0.804261 -0.610232 -0.342233
v 0.198678 -0.219184 0.002002
v 0.974388 -0.425961 -0.055459
v 0.942405 -0.780749 -0.107810
v 0.845593 -0.801416 0.014757
v -0.883418 1.306360 -0.086148
v -0.561895 1.360602 -0.251644
v 0.172361 1.409163 0.404697
v 0.541988 1.303409 0.433768
v -0.964686 -0.234199 -0.348614
v -0.854584 -0.389533 0.043332
v -0.697474 -0.571392 0.061128
v 0.204576 -0.216140 0.010439
v 0.524704 0.756122 -0.263025
v 0.720969 0.554241 -0.202476
v -1.222010 -0.668879 -0.035374
v -1.116327 -0.747048 -0.219725
v 0.283644 1.224243 0.516785
v -1.219180 -0.074751 0.215668
v -0.920432 0.900001 0.383641
v -0.599762 1.289140 0.353800
v 0.964654 0.336159 0.495326
v 1.090454 -0.159131 0.403976
v 1.316390 -0.316878 0.408001
v -0.896005 1.280815 0.137403
v -0.947030 1.089824 0.298212
v 0.092231 0.665996 0.027853
v -1.347099 -0.226890 -0.422493
v -1.228394 0.297977 -0.477634
v 0.612128 0.730800 0.522648
v 0.973684 0.687221 0.555979
v -0.891908 0.546281 -0.428418
v -0.553596 0.732873 -0.349577
v -0.155837 -0.577666 0.034097
v -0.802539 -0.688807 0.094831
v -0.600109 -0.814089 0.013115
v 1.515977 -0.060544 0.303701
v -1.220554 -0.529381 -0.364760
v -0.199073 0.673379 -0.058795
v 0.124045 0.752661 -0.180387
v -0.440545 0.635697 -0.186982
v 0.981472 -0.444976 0.256319
v 1.331956 0.113729 -0.198008
v 1.195067 -0.226720 -0.189455
v -1.123382 -0.423478 -0.417782
v -1.033630 -0.785023 -0.036652
v -0.816070 -0.820264 0.016576
v 0.198288 -0.234710 0.030889
v 0.933812 0.200498 -0.160923
v -0.203983 0.784063 -0.255054
v 0.834687 0.107260 0.071041
v -0.341671 1.499579 0.211352
v 1.209563 0.390944 0.514584
v -1.021293 0.105715 0.194137
v 1.475756 -0.305205 -0.064682
v -0.258039 -0.464082 -0.060393
v 0.112910 0.943417 -0.321583
v 0.967787 -0.118123 -0.071519
v 1.290217 -0.744200 -0.088822
v 0.916787 -1.036186 -0.138529
v 1.328579 -0.430133 -0.159167
v -0.328376 -0.556913 -0.165668
v -0.699311 -0.463814 -0.186777
v -0.638260 -0.488387 -0.072140
v -1.598506 0.168952 -0.093396
v -1.563537 0.422665 -0.097167
v 0.620292 -1.190294 -0.051324
v -0.452044 -0.534513 0.005989
v -1.105545 0.009192 -0.430274
v -0.159390 -0.613437 -0.095013
v -0.324404 1.528848 -0.018756
v -1.308480 0.891567 -0.149382
v -0.216688 1.375323 0.404359
v 0.450922 -1.480804 -0.105836
v -0.247748 -0.508022 0.030297
v -0.386672 -0.746016 0.013565
v -0.578671 -0.566701 -0.233782
v 0.933209 -0.250115 0.143948
v -0.496571 0.556681 0.013245
v -0.445057 -0.513834 -0.113989
v 0.413076 -1.423105 -0.027600
v 0.472807 -1.540355 -0.028649
v 0.920415 -0.045822 0.270916
v -0.366935 -0.767491 -0.104545
vt 0.556312 0.781259 0.0
vt 0.556340 0.839882 0.0
vt 0.548626 0.790736 0.0
vt 0.206989 0.755395 0.0
vt 0.206984 0.766292 0.0
vt 0.206100 0.755833 0.0
vt 0.000000 0.000000 0.0
vt 0.000000 0.000000 0.0
vt 0.000000 0.000000 0.0
vt 0.902517 0.740990 0.0
vt 0.902547 0.799199 0.0
vt 0.892586 0.787695 0.0
vt 0.648872 0.656396 0.0
vt 0.652325 0.601784 0.0
vt 0.682606 0.593705 0.0
vt 0.901705 0.798522 0.0
vt 0.892586 0.787695 0.0
vt 0.902547 0.799199 0.0
vt 0.128667 0.746941 0.0
vt 0.154252 0.693121 0.0
vt 0.136805 0.794255 0.0
vt 0.624021 0.590327 0.0
vt 0.629423 0.670783 0.0
vt 0.592261 0.671654 0.0
vt 0.216648 0.663611 0.0
vt 0.212896 0.650223 0.0
vt 0.216649 0.651460 0.0
vt 0.662304 0.060626 0.0
vt 0.509276 0.084678 0.0
vt 0.635988 0.034458 0.0
vt 0.731620 0.434642 0.0
vt 0.793673 0.413854 0.0
vt 0.840050 0.427241 0.0
vt 0.238409 0.000000 0.0
vt 0.317964 0.022158 0.0
vt 0.265003 0.038292 0.0
vt 0.793673 0.413854 0.0
vt 0.841201 0.388793 0.0
vt 0.840050 0.427241 0.0
vt 0.011085 0.937729 0.0
vt 0.037310 0.998775 0.0
vt 0.000000 0.980507 0.0
vt 0.029856 0.546095 0.0
vt 0.016767 0.608798 0.0
vt 0.000257 0.588305 0.0
vt 0.387183 0.772018 0.0
vt 0.425306 0.747618 0.0
vt 0.424540 0.832413 0.0
vt 0.216648 0.663611 0.0
vt 0.210940 0.657995 0.0
vt 0.212896 0.650223 0.0
vt 0.752182 0.483793 0.0
vt 0.840050 0.427241 0.0
vt 0.905047 0.417541 0.0
vt 0.696882 0.652122 0.0
vt 0.682606 0.593705 0.0
vt 0.716079 0.597527 0.0
vt 0.501698 0.815013 0.0
vt 0.501752 0.783820 0.0
vt 0.528942 0.781259 0.0
vt 0.425306 0.747618 0.0
vt 0.449064 0.655129 0.0
vt 0.472452 0.746709 0.0
vt 0.443697 0.444619 0.0
vt 0.367879 0.496972 0.0
vt 0.439893 0.396704 0.0
vt 0.211776 0.669485 0.0
vt 0.239642 0.735845 0.0
vt 0.211605 0.760992 0.0
vt 0.647446 0.515647 0.0
vt 0.758160 0.548395 0.0
vt 0.640538 0.547334 0.0
vt 0.624021 0.590327 0.0
vt 0.592261 0.671654 0.0
vt 0.589182 0.598572 0.0
vt 0.458932 0.937114 0.0
vt 0.464257 0.875991 0.0
vt 0.494727 0.865416 0.0
vt 0.265003 0.038292 0.0
vt 0.383066 0.103088 0.0
vt 0.323256 0.113940 0.0
vt 0.407501 0.990637 0.0
vt 0.418384 0.921583 0.0
vt 0.458932 0.937114 0.0
vt 0.444143 0.285494 0.0
vt 0.394033 0.387586 0.0
vt 0.416361 0.184618 0.0
vt 0.136805 0.794255 0.0
vt 0.168677 0.756779 0.0
vt 0.163543 0.842880 0.0
vt 0.853500 0.325235 0.0
vt 0.876964 0.254475 0.0
vt 0.894828 0.325582 0.0
vt 0.185814 0.669417 0.0
vt 0.175595 0.596342 0.0
vt 0.201616 0.611520 0.0
vt 0.387183 0.772018 0.0
vt 0.380743 0.667245 0.0
vt 0.423176 0.682050 0.0
vt 0.879679 0.602118 0.0
vt 0.871233 0.642002 0.0
vt 0.840513 0.642671 0.0
vt 0.108146 0.612740 0.0
vt 0.121671 0.720651 0.0
vt 0.090942 0.718067 0.0
vt 0.282079 0.675722 0.0
vt 0.282332 0.742537 0.0
vt 0.246514 0.749465 0.0
vt 0.840513 0.642671 0.0
vt 0.835468 0.679507 0.0
vt 0.809570 0.653821 0.0
vt 0.464257 0.875991 0.0
vt 0.501698 0.780249 0.0
vt 0.494727 0.865416 0.0
vt 0.959346 0.254157 0.0
vt 0.959608 0.132805 0.0
vt 0.997394 0.227563 0.0
vt 0.239642 0.760992 0.0
vt 0.239577 0.849012 0.0
vt 0.222134 0.793929 0.0
vt 0.478521 0.251582 0.0
vt 0.477787 0.319338 0.0
vt 0.444143 0.285494 0.0
vt 0.525746 0.401079 0.0
vt 0.584635 0.481337 0.0
vt 0.531691 0.458226 0.0
vt 0.325521 0.662557 0.0
vt 0.323352 0.713933 0.0
vt 0.282079 0.675722 0.0
vt 0.275409 0.564144 0.0
vt 0.262871 0.607822 0.0
vt 0.239642 0.546095 0.0
vt 0.544338 0.668469 0.0
vt 0.501698 0.768007 0.0
vt 0.521020 0.663751 0.0
vt 0.044642 0.261026 0.0
vt 0.000087 0.195862 0.0
vt 0.030705 0.192615 0.0
vt 0.209967 0.650223 0.0
vt 0.210940 0.659394 0.0
vt 0.209065 0.657041 0.0
vt 0.804057 0.587664 0.0
vt 0.809481 0.640097 0.0
vt 0.782739 0.651003 0.0
vt 0.053062 0.828375 0.0
vt 0.013628 0.874037 0.0
vt 0.014482 0.801329 0.0
vt 0.367196 0.975705 0.0
vt 0.375386 0.927970 0.0
vt 0.418384 0.921583 0.0
vt 0.622033 0.548395 0.0
vt 0.624021 0.590327 0.0
vt 0.589182 0.598572 0.0
vt 0.418384 0.921583 0.0
vt 0.424540 0.832413 0.0
vt 0.464257 0.875991 0.0
vt 0.444143 0.285494 0.0
vt 0.439893 0.396704 0.0
vt 0.394033 0.387586 0.0
vt 0.830268 0.601885 0.0
vt 0.809570 0.653821 0.0
vt 0.828844 0.559104 0.0
vt 0.206969 0.755395 0.0
vt 0.205751 0.745380 0.0
vt 0.206989 0.744576 0.0
vt 0.367065 0.666870 0.0
vt 0.356339 0.718035 0.0
vt 0.323352 0.713933 0.0
vt 0.667565 0.692682 0.0
vt 0.696882 0.652122 0.0
vt 0.702207 0.717359 0.0
vt 0.966831 0.332714 0.0
vt 0.997394 0.227563 0.0
vt 1.000000 0.298009 0.0
vt 0.568802 0.347405 0.0
vt 0.609308 0.436346 0.0
vt 0.612279 0.472744 0.0
vt 0.806455 0.503881 0.0
vt 0.905047 0.417541 0.0
vt 0.898592 0.484424 0.0
vt 0.667565 0.692682 0.0
vt 0.648872 0.656396 0.0
vt 0.696882 0.652122 0.0
vt 0.874231 0.147011 0.0
vt 0.798984 0.085851 0.0
vt 0.791650 0.035611 0.0
vt 0.121671 0.720651 0.0
vt 0.095505 0.826742 0.0
vt 0.090942 0.718067 0.0
vt 0.126479 0.797415 0.0
vt 0.128667 0.868833 0.0
vt 0.095505 0.826742 0.0
vt 0.841201 0.388793 0.0
vt 0.894828 0.325582 0.0
vt 0.840050 0.427241 0.0
vt 0.305937 0.612299 0.0
vt 0.325521 0.662557 0.0
vt 0.282079 0.675722 0.0
vt 0.045467 0.070177 0.0
vt 0.085352 0.032368 0.0
vt 0.143313 0.041885 0.0
vt 0.911599 0.237501 0.0
vt 0.935799 0.174344 0.0
vt 0.959346 0.254157 0.0
vt 0.215725 0.075338 0.0
vt 0.278389 0.115254 0.0
vt 0.218333 0.109852 0.0
vt 0.116511 0.003361 0.0
vt 0.238409 0.000000 0.0
vt 0.265003 0.038292 0.0
vt 0.911599 0.237501 0.0
vt 0.874231 0.147011 0.0
vt 0.935799 0.174344 0.0
vt 0.613042 0.258583 0.0
vt 0.540929 0.354365 0.0
vt 0.534880 0.311628 0.0
vt 0.804057 0.587664 0.0
vt 0.782739 0.651003 0.0
vt 0.764428 0.618422 0.0
vt 0.402696 0.622364 0.0
vt 0.433115 0.576191 0.0
vt 0.449064 0.655129 0.0
vt 0.265003 0.038292 0.0
vt 0.323256 0.113940 0.0
vt 0.215725 0.075338 0.0
vt 0.696882 0.652122 0.0
vt 0.745982 0.628671 0.0
vt 0.731932 0.679242 0.0
vt 0.319010 0.566937 0.0
vt 0.346570 0.606963 0.0
vt 0.305937 0.612299 0.0
vt 0.323352 0.713933 0.0
vt 0.282332 0.742537 0.0
vt 0.282079 0.675722 0.0
vt 0.879091 0.060035 0.0
vt 0.791650 0.035611 0.0
vt 0.849184 0.025620 0.0
vt 0.629423 0.670783 0.0
vt 0.643859 0.728562 0.0
vt 0.610439 0.732482 0.0
vt 0.855245 0.181941 0.0
vt 0.798984 0.085851 0.0
vt 0.874231 0.147011 0.0
vt 0.737705 0.081287 0.0
vt 0.662304 0.060626 0.0
vt 0.635988 0.034458 0.0
vt 0.344771 0.474982 0.0
vt 0.275554 0.483033 0.0
vt 0.394033 0.387586 0.0
vt 0.006841 0.118358 0.0
vt 0.045467 0.070177 0.0
vt 0.032472 0.123258 0.0
vt 0.045467 0.070177 0.0
vt 0.143313 0.041885 0.0
vt 0.032472 0.123258 0.0
vt 0.635988 0.034458 0.0
vt 0.549162 0.046939 0.0
vt 0.644575 0.010644 0.0
vt 0.692800 0.774708 0.0
vt 0.667346 0.733390 0.0
vt 0.702207 0.717359 0.0
vt 0.540929 0.354365 0.0
vt 0.525746 0.401079 0.0
vt 0.515588 0.346395 0.0
vt 0.892586 0.698001 0.0
vt 0.885251 0.706589 0.0
vt 0.882610 0.706988 0.0
vt 0.901487 0.698001 0.0
vt 0.901647 0.571044 0.0
vt 0.909321 0.646543 0.0
vt 0.136805 0.794255 0.0
vt 0.154252 0.693121 0.0
vt 0.168677 0.756779 0.0
vt 0.610439 0.732482 0.0
vt 0.626083 0.781259 0.0
vt 0.586319 0.770094 0.0
vt 0.323352 0.713933 0.0
vt 0.302265 0.783441 0.0
vt 0.282332 0.742537 0.0
vt 0.095830 0.927392 0.0
vt 0.118584 0.983847 0.0
vt 0.081519 1.000000 0.0
vt 0.935799 0.174344 0.0
vt 0.791650 0.035611 0.0
vt 0.904767 0.111343 0.0
vt 0.609308 0.436346 0.0
vt 0.658986 0.455762 0.0
vt 0.612279 0.472744 0.0
vt 0.169093 0.911908 0.0
vt 0.163543 0.842880 0.0
vt 0.195745 0.838305 0.0
vt 0.207119 0.790385 0.0
vt 0.208928 0.744576 0.0
vt 0.209065 0.840055 0.0
vt 0.373546 0.204244 0.0
vt 0.379688 0.288025 0.0
vt 0.344661 0.226408 0.0
vt 0.892586 0.787695 0.0
vt 0.901051 0.698001 0.0
vt 0.902517 0.740990 0.0
vt 0.319569 0.169214 0.0
vt 0.373546 0.204244 0.0
vt 0.344661 0.226408 0.0
vt 0.394033 0.387586 0.0
vt 0.275554 0.483033 0.0
vt 0.275322 0.440302 0.0
vt 0.905047 0.417541 0.0
vt 0.959346 0.254157 0.0
vt 0.966831 0.332714 0.0
vt 0.198694 0.546095 0.0
vt 0.108954 0.541307 0.0
vt 0.115650 0.510532 0.0
vt 0.380743 0.667245 0.0
vt 0.402696 0.622364 0.0
vt 0.423176 0.682050 0.0
vt 0.205751 0.744127 0.0
vt 0.208856 0.650223 0.0
vt 0.209065 0.744576 0.0
vt 0.367879 0.496972 0.0
vt 0.253765 0.522953 0.0
vt 0.344771 0.474982 0.0
vt 0.317964 0.022158 0.0
vt 0.383066 0.103088 0.0
vt 0.265003 0.038292 0.0
vt 0.871896 0.698001 0.0
vt 0.872073 0.809964 0.0
vt 0.856629 0.785203 0.0
vt 0.791650 0.035611 0.0
vt 0.707868 0.014910 0.0
vt 0.752387 0.000000 0.0
vt 0.382094 0.869879 0.0
vt 0.387183 0.772018 0.0
vt 0.424540 0.832413 0.0
vt 0.877229 0.575543 0.0
vt 0.830268 0.601885 0.0
vt 0.858310 0.567122 0.0
vt 0.806455 0.503881 0.0
vt 0.834042 0.525096 0.0
vt 0.758160 0.548395 0.0
vt 0.907777 0.698001 0.0
vt 0.907640 0.818671 0.0
vt 0.902547 0.702694 0.0
vt 0.904767 0.111343 0.0
vt 0.791650 0.035611 0.0
vt 0.879091 0.060035 0.0
vt 0.066056 0.586876 0.0
vt 0.065390 0.624793 0.0
vt 0.016767 0.608798 0.0
vt 0.108146 0.612740 0.0
vt 0.065390 0.624793 0.0
vt 0.066056 0.586876 0.0
vt 0.809481 0.640097 0.0
vt 0.783059 0.732451 0.0
vt 0.782739 0.651003 0.0
vt 0.425306 0.747618 0.0
vt 0.423176 0.682050 0.0
vt 0.449064 0.655129 0.0
vt 0.485038 0.179067 0.0
vt 0.501698 0.252317 0.0
vt 0.478521 0.251582 0.0
vt 0.193163 0.328482 0.0
vt 0.044642 0.261026 0.0
vt 0.084740 0.268757 0.0
vt 0.782739 0.651003 0.0
vt 0.783059 0.732451 0.0
vt 0.764058 0.701305 0.0
vt 0.568802 0.347405 0.0
vt 0.612279 0.472744 0.0
vt 0.584635 0.481337 0.0
vt 0.275554 0.483033 0.0
vt 0.224479 0.468660 0.0
vt 0.275322 0.440302 0.0
vt 0.611047 0.820082 0.0
vt 0.594103 0.806894 0.0
vt 0.610980 0.781259 0.0
vt 0.485038 0.179067 0.0
vt 0.478521 0.251582 0.0
vt 0.462777 0.183366 0.0
vt 0.079436 0.133947 0.0
vt 0.106502 0.088005 0.0
vt 0.131776 0.110065 0.0
vt 0.319010 0.566937 0.0
vt 0.305937 0.612299 0.0
vt 0.275409 0.564144 0.0
vt 0.193163 0.328482 0.0
vt 0.091382 0.302593 0.0
vt 0.044642 0.261026 0.0
vt 0.458932 0.937114 0.0
vt 0.494727 0.865416 0.0
vt 0.490672 0.921054 0.0
vt 0.462777 0.183366 0.0
vt 0.444143 0.285494 0.0
vt 0.416361 0.184618 0.0
vt 0.348258 0.787491 0.0
vt 0.329226 0.826426 0.0
vt 0.302265 0.783441 0.0
vt 0.477787 0.319338 0.0
vt 0.439893 0.396704 0.0
vt 0.444143 0.285494 0.0
vt 0.439893 0.396704 0.0
vt 0.344771 0.474982 0.0
vt 0.394033 0.387586 0.0
vt 0.000087 0.195862 0.0
vt 0.006841 0.118358 0.0
vt 0.032472 0.123258 0.0
vt 0.095505 0.826742 0.0
vt 0.095830 0.927392 0.0
vt 0.052041 0.930015 0.0
vt 0.589182 0.598572 0.0
vt 0.592261 0.671654 0.0
vt 0.544338 0.668469 0.0
vt 0.085352 0.032368 0.0
vt 0.116511 0.003361 0.0
vt 0.143313 0.041885 0.0
vt 0.752182 0.483793 0.0
vt 0.806455 0.503881 0.0
vt 0.647446 0.515647 0.0
vt 0.682606 0.593705 0.0
vt 0.686969 0.548395 0.0
vt 0.716079 0.597527 0.0
vt 0.735256 0.456320 0.0
vt 0.840050 0.427241 0.0
vt 0.752182 0.483793 0.0
vt 0.367196 0.975705 0.0
vt 0.418384 0.921583 0.0
vt 0.407501 0.990637 0.0
vt 0.841201 0.388793 0.0
vt 0.853500 0.325235 0.0
vt 0.894828 0.325582 0.0
vt 0.210940 0.659394 0.0
vt 0.209075 0.759059 0.0
vt 0.209065 0.657041 0.0
vt 0.737705 0.081287 0.0
vt 0.635988 0.034458 0.0
vt 0.798984 0.085851 0.0
vt 0.416361 0.184618 0.0
vt 0.394033 0.387586 0.0
vt 0.379688 0.288025 0.0
vt 0.822672 0.882302 0.0
vt 0.809514 0.790167 0.0
vt 0.833119 0.783194 0.0
vt 0.090942 0.718067 0.0
vt 0.095505 0.826742 0.0
vt 0.053062 0.828375 0.0
vt 0.065390 0.624793 0.0
vt 0.090942 0.718067 0.0
vt 0.050646 0.718462 0.0
vt 0.905047 0.417541 0.0
vt 0.966831 0.332714 0.0
vt 0.946961 0.428454 0.0
vt 0.959346 0.254157 0.0
vt 0.935799 0.174344 0.0
vt 0.959608 0.132805 0.0
vt 0.821125 0.883573 0.0
vt 0.809514 0.790167 0.0
vt 0.822672 0.882302 0.0
vt 0.115650 0.510532 0.0
vt 0.000000 0.475683 0.0
vt 0.064686 0.478854 0.0
vt 0.346570 0.606963 0.0
vt 0.325521 0.662557 0.0
vt 0.305937 0.612299 0.0
vt 0.037999 0.042685 0.0
vt 0.085352 0.032368 0.0
vt 0.045467 0.070177 0.0
vt 0.876964 0.254475 0.0
vt 0.911599 0.237501 0.0
vt 0.894828 0.325582 0.0
vt 0.439893 0.396704 0.0
vt 0.367879 0.496972 0.0
vt 0.344771 0.474982 0.0
vt 0.052041 0.930015 0.0
vt 0.081519 1.000000 0.0
vt 0.037310 0.998775 0.0
vt 0.323256 0.113940 0.0
vt 0.319569 0.169214 0.0
vt 0.278389 0.115254 0.0
vt 0.357113 0.553589 0.0
vt 0.346570 0.606963 0.0
vt 0.319010 0.566937 0.0
vt 0.143313 0.041885 0.0
vt 0.265003 0.038292 0.0
vt 0.215725 0.075338 0.0
vt 0.317964 0.022158 0.0
vt 0.384510 0.061703 0.0
vt 0.383066 0.103088 0.0
vt 0.876964 0.254475 0.0
vt 0.874231 0.147011 0.0
vt 0.911599 0.237501 0.0
vt 0.652325 0.601784 0.0
vt 0.643859 0.553811 0.0
vt 0.686969 0.548395 0.0
vt 0.584635 0.481337 0.0
vt 0.640538 0.547334 0.0
vt 0.564931 0.509159 0.0
vt 0.966831 0.332714 0.0
vt 1.000000 0.298009 0.0
vt 0.985716 0.367659 0.0
vt 0.323352 0.713933 0.0
vt 0.348258 0.787491 0.0
vt 0.302265 0.783441 0.0
vt 0.713644 0.234206 0.0
vt 0.613042 0.258583 0.0
vt 0.704052 0.230241 0.0
vt 0.198694 0.546095 0.0
vt 0.115650 0.510532 0.0
vt 0.253765 0.522953 0.0
vt 0.215725 0.075338 0.0
vt 0.323256 0.113940 0.0
vt 0.278389 0.115254 0.0
vt 0.713644 0.234206 0.0
vt 0.616893 0.279503 0.0
vt 0.613042 0.258583 0.0
vt 0.879679 0.602118 0.0
vt 0.901487 0.634285 0.0
vt 0.871233 0.642002 0.0
vt 0.054709 0.508963 0.0
vt 0.000000 0.475683 0.0
vt 0.115650 0.510532 0.0
vt 0.323256 0.113940 0.0
vt 0.416361 0.184618 0.0
vt 0.373546 0.204244 0.0
vt 0.647446 0.515647 0.0
vt 0.806455 0.503881 0.0
vt 0.758160 0.548395 0.0
vt 0.275554 0.483033 0.0
vt 0.115650 0.510532 0.0
vt 0.161278 0.493139 0.0
vt 0.540929 0.354365 0.0
vt 0.515588 0.346395 0.0
vt 0.534880 0.311628 0.0
vt 0.205751 0.641001 0.0
vt 0.215715 0.546095 0.0
vt 0.215997 0.650223 0.0
vt 0.871233 0.642002 0.0
vt 0.875214 0.675346 0.0
vt 0.835468 0.679507 0.0
vt 0.169093 0.911908 0.0
vt 0.195745 0.838305 0.0
vt 0.205751 0.901383 0.0
vt 0.163543 0.842880 0.0
vt 0.198046 0.756174 0.0
vt 0.195745 0.838305 0.0
vt 0.745982 0.579416 0.0
vt 0.764428 0.618422 0.0
vt 0.748504 0.643343 0.0
vt 0.143313 0.041885 0.0
vt 0.215725 0.075338 0.0
vt 0.106502 0.088005 0.0
vt 0.613042 0.258583 0.0
vt 0.534880 0.311628 0.0
vt 0.564503 0.282429 0.0
vt 0.052041 0.930015 0.0
vt 0.037310 0.998775 0.0
vt 0.011085 0.937729 0.0
vt 0.885251 0.706589 0.0
vt 0.892291 0.801858 0.0
vt 0.882610 0.706988 0.0
vt 0.224697 0.669485 0.0
vt 0.221478 0.578709 0.0
vt 0.238242 0.575969 0.0
vt 0.059760 0.227769 0.0
vt 0.030705 0.192615 0.0
vt 0.066995 0.200725 0.0
vt 0.423176 0.682050 0.0
vt 0.402696 0.622364 0.0
vt 0.449064 0.655129 0.0
vt 0.540929 0.354365 0.0
vt 0.584635 0.481337 0.0
vt 0.525746 0.401079 0.0
vt 0.329226 0.826426 0.0
vt 0.286838 0.836121 0.0
vt 0.302265 0.783441 0.0
vt 0.592261 0.671654 0.0
vt 0.610439 0.732482 0.0
vt 0.570870 0.717790 0.0
vt 0.221478 0.578709 0.0
vt 0.216844 0.547382 0.0
vt 0.239642 0.546095 0.0
vt 0.128667 0.868833 0.0
vt 0.095830 0.927392 0.0
vt 0.095505 0.826742 0.0
vt 0.692800 0.774708 0.0
vt 0.702207 0.717359 0.0
vt 0.718547 0.755922 0.0
vt 0.783059 0.732451 0.0
vt 0.768685 0.788219 0.0
vt 0.764058 0.701305 0.0
vt 0.659746 0.802120 0.0
vt 0.657905 0.769958 0.0
vt 0.692800 0.774708 0.0
vt 0.065390 0.624793 0.0
vt 0.013904 0.721322 0.0
vt 0.016767 0.608798 0.0
vt 0.065390 0.624793 0.0
vt 0.050646 0.718462 0.0
vt 0.013904 0.721322 0.0
vt 0.201616 0.611520 0.0
vt 0.189661 0.546095 0.0
vt 0.205315 0.551424 0.0
vt 0.570870 0.717790 0.0
vt 0.530889 0.731144 0.0
vt 0.544338 0.668469 0.0
vt 0.791650 0.035611 0.0
vt 0.635988 0.034458 0.0
vt 0.707868 0.014910 0.0
vt 0.416361 0.184618 0.0
vt 0.379688 0.288025 0.0
vt 0.373546 0.204244 0.0
vt 0.163543 0.842880 0.0
vt 0.168677 0.756779 0.0
vt 0.198046 0.756174 0.0
vt 0.570870 0.717790 0.0
vt 0.586319 0.770094 0.0
vt 0.543342 0.770136 0.0
vt 0.581037 0.798297 0.0
vt 0.594080 0.781259 0.0
vt 0.594103 0.818016 0.0
vt 0.830268 0.601885 0.0
vt 0.840513 0.642671 0.0
vt 0.809570 0.653821 0.0
vt 0.935799 0.174344 0.0
vt 0.904767 0.111343 0.0
vt 0.959608 0.132805 0.0
vt 0.905047 0.417541 0.0
vt 0.946961 0.428454 0.0
vt 0.898592 0.484424 0.0
vt 0.128544 0.929793 0.0
vt 0.118584 0.983847 0.0
vt 0.095830 0.927392 0.0
vt 0.648872 0.656396 0.0
vt 0.682606 0.593705 0.0
vt 0.696882 0.652122 0.0
vt 0.286838 0.836121 0.0
vt 0.264555 0.864400 0.0
vt 0.264109 0.813487 0.0
vt 0.658986 0.455762 0.0
vt 0.735256 0.456320 0.0
vt 0.752182 0.483793 0.0
vt 0.282079 0.675722 0.0
vt 0.246514 0.749465 0.0
vt 0.243536 0.674761 0.0
vt 0.966831 0.332714 0.0
vt 0.959346 0.254157 0.0
vt 0.997394 0.227563 0.0
vt 0.568802 0.347405 0.0
vt 0.584635 0.481337 0.0
vt 0.540929 0.354365 0.0
vt 0.030705 0.192615 0.0
vt 0.073466 0.172172 0.0
vt 0.066995 0.200725 0.0
vt 0.375386 0.927970 0.0
vt 0.382094 0.869879 0.0
vt 0.418384 0.921583 0.0
vt 0.367065 0.597331 0.0
vt 0.395635 0.546095 0.0
vt 0.402696 0.622364 0.0
vt 0.095505 0.826742 0.0
vt 0.052041 0.930015 0.0
vt 0.053062 0.828375 0.0
vt 0.052041 0.930015 0.0
vt 0.011085 0.937729 0.0
vt 0.013628 0.874037 0.0
vt 0.570870 0.717790 0.0
vt 0.543342 0.770136 0.0
vt 0.530889 0.731144 0.0
vt 0.175595 0.596342 0.0
vt 0.189661 0.546095 0.0
vt 0.201616 0.611520 0.0
vt 0.766828 0.563287 0.0
vt 0.764428 0.618422 0.0
vt 0.745982 0.579416 0.0
vt 0.050646 0.718462 0.0
vt 0.014482 0.801329 0.0
vt 0.013904 0.721322 0.0
vt 0.612279 0.472744 0.0
vt 0.647446 0.515647 0.0
vt 0.584635 0.481337 0.0
vt 0.707868 0.014910 0.0
vt 0.635988 0.034458 0.0
vt 0.644575 0.010644 0.0
vt 0.804057 0.587664 0.0
vt 0.764428 0.618422 0.0
vt 0.766828 0.563287 0.0
vt 0.462777 0.183366 0.0
vt 0.478521 0.251582 0.0
vt 0.444143 0.285494 0.0
vt 0.424540 0.832413 0.0
vt 0.425306 0.747618 0.0
vt 0.472452 0.746709 0.0
vt 0.154252 0.693121 0.0
vt 0.185814 0.669417 0.0
vt 0.168677 0.756779 0.0
vt 0.905047 0.417541 0.0
vt 0.894828 0.325582 0.0
vt 0.959346 0.254157 0.0
vt 0.833119 0.783194 0.0
vt 0.832075 0.736241 0.0
vt 0.856629 0.729096 0.0
vt 0.472452 0.746709 0.0
vt 0.449064 0.655129 0.0
vt 0.479516 0.659861 0.0
vt 0.387183 0.772018 0.0
vt 0.423176 0.682050 0.0
vt 0.425306 0.747618 0.0
vt 0.108146 0.612740 0.0
vt 0.090942 0.718067 0.0
vt 0.065390 0.624793 0.0
vt 0.946961 0.428454 0.0
vt 0.966831 0.332714 0.0
vt 0.985716 0.367659 0.0
vt 0.246514 0.749465 0.0
vt 0.264109 0.813487 0.0
vt 0.239962 0.851796 0.0
vt 0.289284 0.538087 0.0
vt 0.198694 0.546095 0.0
vt 0.253765 0.522953 0.0
vt 0.424540 0.832413 0.0
vt 0.465531 0.807766 0.0
vt 0.464257 0.875991 0.0
vt 0.106502 0.088005 0.0
vt 0.215725 0.075338 0.0
vt 0.218333 0.109852 0.0
vt 0.613042 0.258583 0.0
vt 0.568802 0.347405 0.0
vt 0.540929 0.354365 0.0
vt 0.305937 0.612299 0.0
vt 0.282079 0.675722 0.0
vt 0.262871 0.607822 0.0
vt 0.809514 0.790167 0.0
vt 0.832075 0.736241 0.0
vt 0.833119 0.783194 0.0
vt 0.809514 0.790167 0.0
vt 0.810301 0.738203 0.0
vt 0.832075 0.736241 0.0
vt 0.904767 0.111343 0.0
vt 0.879091 0.060035 0.0
vt 0.959608 0.132805 0.0
vt 0.014282 0.253373 0.0
vt 0.000087 0.195862 0.0
vt 0.044642 0.261026 0.0
vt 0.262871 0.607822 0.0
vt 0.282079 0.675722 0.0
vt 0.243536 0.674761 0.0
vt 0.612279 0.472744 0.0
vt 0.752182 0.483793 0.0
vt 0.647446 0.515647 0.0
vt 0.379688 0.288025 0.0
vt 0.394033 0.387586 0.0
vt 0.324423 0.404687 0.0
vt 0.874231 0.147011 0.0
vt 0.791650 0.035611 0.0
vt 0.935799 0.174344 0.0
vt 0.702207 0.717359 0.0
vt 0.696882 0.652122 0.0
vt 0.731932 0.679242 0.0
vt 0.806455 0.503881 0.0
vt 0.898592 0.484424 0.0
vt 0.834042 0.525096 0.0
vt 0.210515 0.760992 0.0
vt 0.222134 0.847141 0.0
vt 0.210414 0.853479 0.0
vt 0.324423 0.404687 0.0
vt 0.394033 0.387586 0.0
vt 0.275322 0.440302 0.0
vt 0.128667 0.868833 0.0
vt 0.128544 0.929793 0.0
vt 0.095830 0.927392 0.0
vt 0.344771 0.474982 0.0
vt 0.253765 0.522953 0.0
vt 0.275554 0.483033 0.0
vt 0.402696 0.622364 0.0
vt 0.395635 0.546095 0.0
vt 0.433115 0.576191 0.0
vt 0.782739 0.651003 0.0
vt 0.764058 0.701305 0.0
vt 0.764428 0.618422 0.0
vt 0.346570 0.606963 0.0
vt 0.367065 0.666870 0.0
vt 0.325521 0.662557 0.0
vt 0.659746 0.802120 0.0
vt 0.692800 0.774708 0.0
vt 0.688266 0.807795 0.0
vt 0.657905 0.769958 0.0
vt 0.667346 0.733390 0.0
vt 0.692800 0.774708 0.0
vt 0.168677 0.756779 0.0
vt 0.185814 0.669417 0.0
vt 0.198046 0.756174 0.0
vt 0.798984 0.085851 0.0
vt 0.635988 0.034458 0.0
vt 0.791650 0.035611 0.0
vt 0.115650 0.510532 0.0
vt 0.064686 0.478854 0.0
vt 0.161278 0.493139 0.0
vt 0.809514 0.548395 0.0
vt 0.804057 0.587664 0.0
vt 0.766828 0.563287 0.0
vt 0.752182 0.483793 0.0
vt 0.905047 0.417541 0.0
vt 0.806455 0.503881 0.0
vt 0.643859 0.728562 0.0
vt 0.626083 0.781259 0.0
vt 0.610439 0.732482 0.0
vt 0.032472 0.123258 0.0
vt 0.143313 0.041885 0.0
vt 0.106502 0.088005 0.0
vt 0.894828 0.325582 0.0
vt 0.911599 0.237501 0.0
vt 0.959346 0.254157 0.0
vt 0.465531 0.807766 0.0
vt 0.472452 0.746709 0.0
vt 0.501698 0.780249 0.0
vt 0.531691 0.458226 0.0
vt 0.584635 0.481337 0.0
vt 0.564931 0.509159 0.0
vt 0.616893 0.279503 0.0
vt 0.594452 0.310958 0.0
vt 0.613042 0.258583 0.0
vt 0.424540 0.832413 0.0
vt 0.472452 0.746709 0.0
vt 0.465531 0.807766 0.0
vt 0.515588 0.346395 0.0
vt 0.525746 0.401079 0.0
vt 0.501698 0.385516 0.0
vt 0.871233 0.642002 0.0
vt 0.835468 0.679507 0.0
vt 0.840513 0.642671 0.0
vt 0.530889 0.731144 0.0
vt 0.543342 0.770136 0.0
vt 0.510285 0.781222 0.0
vt 0.876964 0.254475 0.0
vt 0.855245 0.181941 0.0
vt 0.874231 0.147011 0.0
vt 0.584635 0.481337 0.0
vt 0.647446 0.515647 0.0
vt 0.640538 0.547334 0.0
vt 0.550267 0.595563 0.0
vt 0.544338 0.668469 0.0
vt 0.521020 0.663751 0.0
vt 0.436255 0.118411 0.0
vt 0.462777 0.183366 0.0
vt 0.383066 0.103088 0.0
vt 0.030705 0.192615 0.0
vt 0.032472 0.123258 0.0
vt 0.079436 0.133947 0.0
vt 0.050646 0.718462 0.0
vt 0.053062 0.828375 0.0
vt 0.014482 0.801329 0.0
vt 0.221478 0.578709 0.0
vt 0.239642 0.546095 0.0
vt 0.238242 0.575969 0.0
vt 0.356339 0.718035 0.0
vt 0.348258 0.787491 0.0
vt 0.323352 0.713933 0.0
vt 0.635988 0.034458 0.0
vt 0.509276 0.084678 0.0
vt 0.549162 0.046939 0.0
vt 0.702207 0.717359 0.0
vt 0.731932 0.679242 0.0
vt 0.718547 0.755922 0.0
vt 0.418384 0.921583 0.0
vt 0.464257 0.875991 0.0
vt 0.458932 0.937114 0.0
vt 0.282332 0.742537 0.0
vt 0.264109 0.813487 0.0
vt 0.246514 0.749465 0.0
vt 0.548626 0.781259 0.0
vt 0.548600 0.806620 0.0
vt 0.528942 0.792695 0.0
vt 0.275409 0.564144 0.0
vt 0.305937 0.612299 0.0
vt 0.262871 0.607822 0.0
vt 0.407501 0.990637 0.0
vt 0.458932 0.937114 0.0
vt 0.450663 0.987585 0.0
vt 0.367065 0.666870 0.0
vt 0.323352 0.713933 0.0
vt 0.325521 0.662557 0.0
vt 0.877229 0.575543 0.0
vt 0.879679 0.602118 0.0
vt 0.830268 0.601885 0.0
vt 0.622033 0.548395 0.0
vt 0.589182 0.598572 0.0
vt 0.586670 0.570463 0.0
vt 0.783059 0.732451 0.0
vt 0.784217 0.793591 0.0
vt 0.768685 0.788219 0.0
vt 0.634449 0.803700 0.0
vt 0.611047 0.781259 0.0
vt 0.643859 0.781300 0.0
vt 0.858310 0.567122 0.0
vt 0.830268 0.601885 0.0
vt 0.828844 0.559104 0.0
vt 0.652325 0.601784 0.0
vt 0.686969 0.548395 0.0
vt 0.682606 0.593705 0.0
vt 0.879679 0.602118 0.0
vt 0.840513 0.642671 0.0
vt 0.830268 0.601885 0.0
vt 0.383066 0.103088 0.0
vt 0.462777 0.183366 0.0
vt 0.416361 0.184618 0.0
vt 0.623063 0.814022 0.0
vt 0.611047 0.781259 0.0
vt 0.634449 0.803700 0.0
vt 0.882610 0.757008 0.0
vt 0.872089 0.847403 0.0
vt 0.872073 0.698001 0.0
vt 0.549162 0.046939 0.0
vt 0.509276 0.084678 0.0
vt 0.502346 0.075630 0.0
vt 0.282332 0.742537 0.0
vt 0.302265 0.783441 0.0
vt 0.264109 0.813487 0.0
vt 0.629423 0.670783 0.0
vt 0.610439 0.732482 0.0
vt 0.592261 0.671654 0.0
vt 0.030705 0.192615 0.0
vt 0.079436 0.133947 0.0
vt 0.073466 0.172172 0.0
vt 0.032472 0.123258 0.0
vt 0.106502 0.088005 0.0
vt 0.079436 0.133947 0.0
vt 0.525746 0.401079 0.0
vt 0.531691 0.458226 0.0
vt 0.505335 0.426063 0.0
vt 0.658986 0.455762 0.0
vt 0.752182 0.483793 0.0
vt 0.612279 0.472744 0.0
vt 0.154252 0.693121 0.0
vt 0.175595 0.596342 0.0
vt 0.185814 0.669417 0.0
vt 0.888301 0.548395 0.0
vt 0.877229 0.575543 0.0
vt 0.858310 0.567122 0.0
vt 0.044642 0.261026 0.0
vt 0.030705 0.192615 0.0
vt 0.059760 0.227769 0.0
vt 0.044642 0.261026 0.0
vt 0.059760 0.227769 0.0
vt 0.084740 0.268757 0.0
vt 0.800257 0.124622 0.0
vt 0.737705 0.081287 0.0
vt 0.798984 0.085851 0.0
vt 0.696882 0.652122 0.0
vt 0.716079 0.597527 0.0
vt 0.745982 0.628671 0.0
vt 0.643901 0.713623 0.0
vt 0.667565 0.692682 0.0
vt 0.667346 0.733390 0.0
vt 0.383066 0.103088 0.0
vt 0.416361 0.184618 0.0
vt 0.323256 0.113940 0.0
vt 0.835468 0.679507 0.0
vt 0.809514 0.698001 0.0
vt 0.809570 0.653821 0.0
vt 0.667346 0.733390 0.0
vt 0.667565 0.692682 0.0
vt 0.702207 0.717359 0.0
vt 0.108954 0.541307 0.0
vt 0.054709 0.508963 0.0
vt 0.115650 0.510532 0.0
vt 0.000087 0.195862 0.0
vt 0.032472 0.123258 0.0
vt 0.030705 0.192615 0.0
vt 0.253765 0.522953 0.0
vt 0.115650 0.510532 0.0
vt 0.275554 0.483033 0.0
vt 0.323256 0.113940 0.0
vt 0.373546 0.204244 0.0
vt 0.319569 0.169214 0.0
vt 0.589182 0.598572 0.0
vt 0.544338 0.668469 0.0
vt 0.550267 0.595563 0.0
vt 0.275554 0.483033 0.0
vt 0.161278 0.493139 0.0
vt 0.224479 0.468660 0.0
vt 0.116511 0.003361 0.0
vt 0.265003 0.038292 0.0
vt 0.143313 0.041885 0.0
vt 0.029856 0.546095 0.0
vt 0.066056 0.586876 0.0
vt 0.016767 0.608798 0.0
vt 0.832075 0.736241 0.0
vt 0.837486 0.698001 0.0
vt 0.856629 0.729096 0.0
vt 0.090942 0.718067 0.0
vt 0.053062 0.828375 0.0
vt 0.050646 0.718462 0.0
vt 0.053062 0.828375 0.0
vt 0.052041 0.930015 0.0
vt 0.013628 0.874037 0.0
vt 0.382094 0.869879 0.0
vt 0.424540 0.832413 0.0
vt 0.418384 0.921583 0.0
vt 0.592261 0.671654 0.0
vt 0.570870 0.717790 0.0
vt 0.544338 0.668469 0.0
vt 0.384510 0.061703 0.0
vt 0.436255 0.118411 0.0
vt 0.383066 0.103088 0.0
vt 0.610439 0.732482 0.0
vt 0.586319 0.770094 0.0
vt 0.570870 0.717790 0.0
vt 0.095830 0.927392 0.0
vt 0.081519 1.000000 0.0
vt 0.052041 0.930015 0.0
vt 0.121671 0.720651 0.0
vt 0.126479 0.797415 0.0
vt 0.095505 0.826742 0.0
vt 0.106502 0.088005 0.0
vt 0.218333 0.109852 0.0
vt 0.131776 0.110065 0.0
vt 0.840050 0.427241 0.0
vt 0.894828 0.325582 0.0
vt 0.905047 0.417541 0.0
vt 0.302265 0.783441 0.0
vt 0.286838 0.836121 0.0
vt 0.264109 0.813487 0.0
vt 0.810301 0.738203 0.0
vt 0.809565 0.701990 0.0
vt 0.837486 0.698001 0.0
vt 0.810301 0.738203 0.0
vt 0.837486 0.698001 0.0
vt 0.832075 0.736241 0.0
vt 0.367879 0.496972 0.0
vt 0.289284 0.538087 0.0
vt 0.253765 0.522953 0.0
vt 0.594452 0.310958 0.0
vt 0.568802 0.347405 0.0
vt 0.613042 0.258583 0.0
vt 0.550267 0.595563 0.0
vt 0.521020 0.663751 0.0
vt 0.527622 0.593924 0.0
vn -0.299913 0.195981 0.933619
vn 0.952918 -0.203334 0.224949
vn 0.000000 0.000000 0.000000
vn -0.379333 0.597112 -0.706799
vn -0.814466 -0.476919 0.330444
vn -0.687645 0.500285 -0.526174
vn 0.642783 -0.524222 0.558590
vn 0.818466 -0.420175 -0.391875
vn 0.966419 0.047802 -0.252488
vn -0.316570 -0.056803 0.946867
vn 0.294938 -0.609394 0.735969
vn -0.362401 0.453141 -0.814450
vn -0.022692 -0.615003 0.788198
vn 0.093847 0.860751 -0.500301
vn -0.790752 -0.065511 -0.608621
vn 0.743871 0.477097 0.468011
vn 0.997172 -0.074555 0.009468
vn -0.009443 -0.249442 0.968344
vn -0.896173 -0.405814 -0.179412
vn 0.119649 -0.781120 -0.612810
vn 0.948678 0.316225 0.003397
vn 0.723249 0.247369 -0.644763
vn 0.611345 0.568132 -0.550894
vn -0.536504 0.113353 0.836250
vn 0.821689 -0.444195 -0.357096
vn 0.457227 0.755253 -0.469613
vn 0.067984 0.077872 -0.994643
vn 0.296040 0.952391 0.072880
vn 0.114314 0.022184 -0.993197
vn 0.916359 -0.387358 0.101190
vn -0.336790 -0.684027 0.647054
vn 0.542181 -0.766710 -0.343796
vn 0.761049 0.203451 0.615965
vn 0.937619 0.297085 0.180587
vn -0.809018 0.306505 0.501542
vn -0.630338 -0.705414 0.324136
vn 0.741545 -0.142096 0.655682
vn 0.692429 0.560868 -0.453837
vn 0.302776 0.266446 0.915059
vn -0.722710 0.231092 0.651373
vn 0.332421 0.471908 -0.816577
vn -0.308662 -0.358929 0.880851
vn -0.537686 -0.835157 -0.115787
vn -0.072623 -0.869218 0.489066
vn 0.434059 -0.632270 0.641738
vn 0.192508 -0.347092 -0.917860
vn -0.917707 0.074753 0.390161
vn -0.787620 0.158846 -0.595334
vn -0.390409 0.768785 -0.506508
vn 0.208837 0.858613 0.468157
vn 0.937753 -0.004733 -0.347270
vn 0.595154 0.790204 0.146184
vn 0.278733 0.145816 -0.949234
vn 0.757245 0.653022 -0.011961
vn 0.823504 -0.024695 -0.566772
vn -0.443403 -0.624040 -0.643403
vn -0.634621 -0.771962 -0.036480
vn 0.172831 0.386168 0.906093
vn 0.458779 0.213547 0.862508
vn -0.259936 0.284952 0.922624
vn -0.760013 -0.579307 0.294590
vn -0.171103 -0.220565 0.960247
vn -0.636199 0.557459 0.533377
vn -0.465073 0.639593 0.612069
vn -0.066027 -0.677738 0.732333
vn -0.238931 -0.950973 -0.196371
vn -0.234918 -0.048858 -0.970786
vn -0.107616 -0.140020 0.984283
vn 0.426337 -0.438762 -0.791028
vn -0.375175 0.210538 -0.902728
vn -0.110393 -0.166449 0.979851
vn 0.148464 -0.360703 0.920789
vn -0.945233 0.326224 0.010556
vn 0.986911 -0.050098 0.153284
vn 0.081418 -0.012594 -0.996600
vn -0.672468 -0.400156 -0.622625
vn 0.087047 -0.924380 -0.371408
vn -0.636668 -0.727066 -0.256960
vn 0.606421 -0.154828 0.779924
vn 0.542045 -0.499782 -0.675578
vn -0.517289 -0.280511 0.808533
vn -0.310283 -0.054612 0.949074
vn 0.103091 -0.066384 -0.992454
vn -0.217522 -0.270017 -0.937963
vn -0.059094 -0.091071 -0.994089
vn 0.350937 -0.604523 0.715119
vn -0.320639 -0.945808 -0.051352
vn -0.081949 -0.503555 0.860068
vn -0.190289 0.253922 0.948321
vn -0.436223 -0.158420 0.885784
vn 0.746164 -0.551908 0.372340
vn 0.371428 -0.804710 -0.463124
vn -0.845941 -0.531339 -0.045420
vn -0.036486 0.864513 0.501284
vn -0.016638 -0.151335 0.988343
vn 0.273671 -0.187539 0.943363
vn 0.938757 -0.049048 -0.341071
vn 0.128386 0.113720 -0.985183
vn -0.157669 -0.593430 -0.789291
vn -0.459356 0.863510 0.208190
vn 0.126251 -0.585410 -0.800847
vn -0.517303 -0.172278 -0.838283
vn -0.061819 0.103058 0.992752
vn 0.415261 -0.391283 -0.821253
vn 0.824405 0.089651 0.558855
vn 0.305833 -0.507135 -0.805779
vn 0.607442 -0.060339 -0.792069
vn -0.188719 0.460945 -0.867130
vn -0.348639 0.806216 -0.477983
vn 0.518683 -0.334662 0.786746
vn 0.577104 0.516170 0.632866
vn 0.406410 0.913458 -0.020634
vn -0.478474 0.303746 0.823894
vn 0.266793 -0.733773 0.624819
vn 0.281705 -0.101159 0.954154
vn -0.945236 0.125804 -0.301168
vn -0.934761 0.133729 0.329147
vn -0.719067 0.498821 -0.483860
vn 0.949675 0.312939 0.013673
vn 0.277580 0.831338 -0.481483
vn 0.185240 0.212507 -0.959441
vn -0.862773 0.466891 0.194001
vn 0.047843 -0.250614 0.966904
vn -0.480800 -0.055961 -0.875043
vn -0.009765 0.850721 0.525527
vn 0.275190 0.830054 -0.485057
vn 0.566984 0.052323 -0.822066
vn -0.025148 -0.999684 -0.000634
vn 0.451214 -0.170307 -0.876014
vn 0.458442 0.755532 -0.467977
vn 0.202744 0.447998 -0.870743
vn -0.861923 -0.220081 -0.456786
vn 0.385937 0.358313 -0.850097
vn 0.339952 0.092616 -0.935871
vn -0.083289 -0.383979 -0.919578
vn -0.375894 0.922368 0.089116
vn 0.849577 -0.497406 0.175517
vn -0.442147 0.145033 -0.885139
vn -0.109890 -0.120398 0.986625
vn -0.977841 -0.115399 -0.174672
vn 0.089918 -0.409861 0.907705
vn 0.220381 0.825328 0.519871
vn -0.012647 -0.784510 0.619987
vn -0.708098 0.685141 -0.170816
vn -0.783498 -0.022068 0.621002
vn -0.091193 -0.272401 -0.957853
vn 0.708221 -0.685134 0.170333
vn -0.700407 0.712508 0.041982
vn -0.877844 0.478804 0.011719
vn -0.096977 0.367226 0.925062
vn 0.329839 0.337642 0.881592
vn 0.682389 -0.695094 -0.226250
vn -0.446871 0.409751 -0.795242
vn -0.284526 -0.868882 -0.405079
vn -0.666244 -0.182481 -0.723063
vn -0.262362 -0.625280 0.734977
vn 0.558695 0.138741 -0.817686
vn 0.011584 0.999932 -0.001671
vn 0.292122 -0.356163 -0.887588
vn 0.028574 -0.870367 -0.491575
vn 0.145907 -0.001637 -0.989297
vn -0.191636 0.494304 -0.847903
vn -0.437573 -0.444972 0.781364
vn -0.914234 -0.088051 0.395504
vn -0.582479 -0.146210 0.799588
vn 0.094466 0.556994 0.825127
vn -0.656071 -0.560322 -0.505580
vn 0.124923 -0.059730 0.990367
vn 0.312836 -0.243821 -0.917979
vn 0.413857 -0.406119 -0.814733
vn -0.002064 0.051766 0.998657
vn 0.782160 0.426035 -0.454665
vn 0.144782 -0.222592 -0.964101
vn 0.133391 -0.119422 -0.983842
vn -0.441192 0.097032 0.892152
vn -0.593945 0.154516 -0.789527
vn 0.028426 -0.513469 0.857637
vn 0.155004 -0.250892 -0.955525
vn 0.977932 -0.042307 0.204595
vn 0.917909 -0.026536 -0.395902
vn 0.869286 -0.348101 -0.350953
vn -0.917469 0.129579 0.376112
vn 0.198771 -0.075688 -0.977119
vn 0.063835 -0.206602 0.976340
vn 0.009281 0.934401 -0.356101
vn -0.164592 0.266552 0.949663
vn -0.490908 0.760875 0.424356
vn 0.238948 0.621163 -0.746365
vn 0.965764 0.045712 0.255361
vn -0.037202 -0.227094 0.973162
vn -0.888789 -0.313271 -0.334538
vn 0.673762 -0.732099 -0.100383
vn -0.293146 0.944887 0.145786
vn -0.376271 0.789593 0.484731
vn -0.209506 -0.840634 -0.499441
vn -0.748674 0.659239 -0.069939
vn 0.030961 -0.983786 0.176656
vn -0.797196 0.412960 -0.440389
vn -0.784470 0.371403 -0.496656
vn 0.389833 -0.672354 -0.629262
vn 0.615980 -0.743718 0.259718
vn 0.092193 -0.296555 0.950556
vn 0.087549 -0.116814 -0.989287
vn 0.858930 -0.320313 -0.399549
vn 0.374184 -0.926274 0.044760
vn -0.012424 0.754091 -0.656653
vn 0.712531 0.318444 0.625214
vn 0.359148 0.157406 0.919911
vn -0.205372 0.385008 0.899773
vn -0.071555 0.816937 0.572271
vn -0.814970 -0.499412 0.293958
vn -0.976359 -0.154864 0.150795
vn 0.233420 -0.313076 0.920597
vn -0.633773 -0.693770 0.342073
vn 0.181322 0.454913 0.871881
vn 0.241878 0.061521 0.968354
vn 0.526713 0.411926 -0.743566
vn 0.373651 0.720284 0.584446
vn 0.664520 -0.227827 0.711694
vn -0.377218 0.922293 0.084151
vn -0.156144 0.869375 -0.468836
vn 0.213696 -0.922396 0.321744
vn 0.540898 -0.767317 -0.344463
vn -0.880512 0.053524 0.470993
vn -0.601546 0.643181 -0.473772
vn -0.055397 -0.152575 0.986738
vn 0.382854 -0.521514 0.762526
vn -0.959391 0.081549 -0.270035
vn 0.199717 0.444518 -0.873222
vn 0.838733 0.544496 0.007174
vn 0.750575 -0.660094 0.030213
vn -0.113780 -0.225444 0.967589
vn 0.495635 -0.630789 -0.597035
vn 0.892626 0.223895 -0.391267
vn 0.778073 0.229893 0.584595
vn -0.845140 0.309264 0.435998
vn -0.044096 0.498309 0.865877
vn -0.716372 -0.427584 0.551346
vn 0.660477 -0.240025 -0.711448
vn 0.715324 0.698506 -0.020019
vn 0.550714 -0.216271 -0.806189
vn 0.051164 0.232974 0.971136
vn -0.357262 -0.928489 0.101351
vn 0.577555 -0.790666 0.203167
vn 0.558445 -0.794722 0.237817
vn 0.511626 0.124984 0.850069
vn 0.184639 -0.701905 -0.687922
vn -0.282517 -0.893002 0.350329
vn -0.069765 -0.159173 0.984783
vn -0.077391 -0.235030 -0.968902
vn -0.068046 -0.168153 0.983410
vn -0.577583 -0.625823 -0.524159
vn -0.338770 0.346250 0.874841
vn -0.568779 0.257156 0.781256
vn 0.034004 -0.266644 -0.963195
vn -0.248498 0.733222 0.632957
vn 0.115853 -0.071472 -0.990692
vn 0.897992 -0.228809 0.375841
vn -0.901063 0.413049 -0.132194
vn -0.123766 -0.764938 -0.632101
vn 0.020355 -0.981860 0.188514
vn -0.197321 -0.966022 0.166932
vn 0.733500 -0.535911 -0.418064
vn -0.147076 -0.185863 0.971506
vn -0.348352 0.146283 -0.925879
vn -0.983843 -0.030302 -0.176449
vn -0.118048 -0.119501 0.985791
vn 0.276208 -0.728191 -0.627254
vn 0.277939 -0.039169 -0.959800
vn -0.138085 -0.136045 0.981032
vn 0.714273 0.483231 -0.506263
vn -0.550402 -0.313575 0.773776
vn -0.106618 -0.086661 0.990516
vn 0.869895 0.471826 0.143743
vn -0.275206 -0.693806 0.665503
vn 0.986771 0.005387 0.162029
vn 0.248199 -0.806877 0.536047
vn -0.466603 -0.524152 0.712423
vn -0.596321 -0.153413 0.787951
vn 0.576141 -0.450030 0.682301
vn 0.055436 0.566975 -0.821867
vn 0.287701 0.106589 -0.951771
vn -0.604883 0.682421 -0.410387
vn -0.167043 0.879719 0.445186
vn -0.618504 -0.447980 -0.645574
vn 0.107777 -0.507347 0.854975
vn -0.274985 -0.620835 -0.734130
vn 0.490240 0.871088 -0.029501
vn -0.838515 -0.423959 0.342273
vn 0.166088 0.970118 0.176878
vn 0.036567 -0.989811 0.137615
vn 0.272523 0.961963 0.018941
vn -0.354720 -0.630591 -0.690311
vn 0.626763 0.758595 0.178047
vn 0.939205 -0.008094 -0.343262
vn -0.604552 0.472758 -0.641106
vn 0.026280 0.903397 -0.427999
vn 0.574659 0.555284 0.601188
vn -0.927894 -0.109323 0.356456
vn 0.936251 0.306355 0.171992
vn 0.088574 0.491897 -0.866136
vn 0.100475 0.863999 -0.493367
vn -0.804217 0.471309 0.362081
vn 0.139287 -0.587925 0.796833
vn -0.845760 -0.531707 -0.044475
vn 0.561466 -0.712470 -0.420882
vn 0.774979 0.321391 -0.544165
vn 0.442911 -0.044113 -0.895480
vn -0.452956 -0.610770 0.649454
vn 0.384853 -0.318657 0.866225
vn 0.634972 -0.758290 0.147670
vn 0.605384 0.780683 -0.155060
vn 0.377762 0.257834 -0.889279
vn 0.253565 0.157549 -0.954402
vn -0.662810 -0.128365 0.737702
vn -0.642714 -0.419451 -0.641077
vn -0.412111 -0.675157 0.611823
vn 0.045311 0.084889 -0.995360
vn 0.764436 -0.166184 0.622913
vn -0.523563 -0.849856 0.060216
vn 0.430529 -0.375173 -0.820908
vn 0.053852 -0.294021 -0.954281
vn 0.085297 -0.091741 -0.992123
vn 0.110921 -0.562609 -0.819248
vn 0.852279 -0.494543 0.170434
vn -0.618524 0.168989 -0.767379
vn -0.439200 0.278166 -0.854240
vn -0.933987 -0.018197 -0.356842
vn 0.348265 -0.766682 -0.539360
vn -0.700876 0.712179 0.039671
vn -0.316313 0.892310 -0.322070
vn 0.525098 0.716553 0.459155
vn 0.582005 -0.804457 0.118825
vn -0.072680 0.638735 -0.765986
vn 0.291185 -0.914904 -0.279573
vn -0.042577 0.991503 0.122921
vn -0.676813 0.571503 0.464014
vn 0.629915 -0.304750 -0.714377
vn -0.092473 -0.192677 0.976895
vn -0.946453 -0.211087 0.244272
vn 0.296911 -0.932305 0.206521
vn 0.288394 -0.932429 0.217728
vn 0.567406 -0.046680 -0.822114
vn 0.042371 0.733030 0.678876
vn 0.616999 -0.442444 0.650811
usemtl (null)
s off
f 1/1/1 2/2/1 3/3/1
f 1/4/2 3/5/2 4/6/2
f 2/7/3 1/8/3 5/9/3
f 2/10/4 5/11/4 6/12/4
f 7/13/5 8/14/5 9/15/5
f 4/16/6 6/17/6 5/18/6
f 10/19/7 11/20/7 12/21/7
f 13/22/8 14/23/8 15/24/8
f 4/25/9 16/26/9 6/27/9
f 17/28/10 18/29/10 19/30/10
f 20/31/11 21/32/11 22/33/11
f 23/34/12 24/35/12 25/36/12
f 21/37/13 26/38/13 22/39/13
f 27/40/14 28/41/14 29/42/14
f 30/43/15 31/44/15 32/45/15
f 33/46/16 34/47/16 35/48/16
f 4/49/17 36/50/17 16/51/17
f 37/52/18 22/53/18 38/54/18
f 39/55/19 9/56/19 30/57/19
f 40/58/20 41/59/20 42/60/20
f 34/61/21 43/62/21 44/63/21
f 44/64/22 45/65/22 46/66/22
f 47/67/23 48/68/23 46/69/23
f 49/70/24 50/71/24 51/72/24
f 13/73/25 15/74/25 52/75/25
f 53/76/26 47/77/26 54/78/26
f 25/79/27 55/80/27 56/81/27
f 57/82/28 58/83/28 53/84/28
f 59/85/29 60/86/29 61/87/29
f 12/88/30 62/89/30 63/90/30
f 64/91/31 65/92/31 66/93/31
f 67/94/32 68/95/32 69/96/32
f 33/97/33 70/98/33 71/99/33
f 72/100/34 73/101/34 74/102/34
f 51/103/35 50/104/35 75/105/35
f 76/106/36 77/107/36 78/108/36
f 74/109/37 79/110/37 80/111/37
f 47/112/38 46/113/38 54/114/38
f 81/115/39 33/116/39 82/117/39
f 83/118/40 84/119/40 17/120/40
f 85/121/41 54/122/41 59/123/41
f 86/124/42 87/125/42 7/126/42
f 88/127/43 89/128/43 76/129/43
f 90/130/44 64/131/44 26/132/44
f 20/133/45 22/134/45 91/135/45
f 92/136/46 42/137/46 93/138/46
f 4/139/47 94/140/47 36/141/47
f 95/142/48 96/143/48 97/144/48
f 98/145/49 99/146/49 24/147/49
f 100/148/50 101/149/50 58/150/50
f 102/151/51 13/152/51 52/153/51
f 58/154/52 35/155/52 47/156/52
f 59/157/53 46/158/53 60/159/53
f 103/160/54 80/161/54 104/162/54
f 4/163/55 105/164/55 94/165/55
f 106/166/56 107/167/56 89/168/56
f 108/169/57 39/170/57 109/171/57
f 110/172/58 82/173/58 101/174/58
f 104/175/59 80/176/59 111/177/59
f 112/178/60 38/179/60 113/180/60
f 108/181/61 7/182/61 39/183/61
f 114/184/62 115/185/62 116/186/62
f 50/187/63 117/188/63 75/189/63
f 118/190/64 113/191/64 117/192/64
f 26/193/65 66/194/65 22/195/65
f 119/196/66 88/197/66 76/198/66
f 120/199/67 32/200/67 121/201/67
f 122/202/68 123/203/68 81/204/68
f 124/205/69 125/206/69 14/207/69
f 31/208/70 23/209/70 25/210/70
f 122/211/71 114/212/71 123/213/71
f 126/214/72 127/215/72 128/216/72
f 95/217/73 97/218/73 83/219/73
f 129/220/74 63/221/74 43/222/74
f 25/223/75 56/224/75 124/225/75
f 39/226/76 120/227/76 130/228/76
f 131/229/77 132/230/77 119/231/77
f 89/232/78 77/233/78 76/234/78
f 70/235/79 116/236/79 129/237/79
f 14/238/80 125/239/80 133/240/80
f 78/241/81 115/242/81 114/243/81
f 134/244/82 17/245/82 19/246/82
f 135/247/83 136/248/83 60/249/83
f 130/250/84 120/251/84 137/252/84
f 120/253/85 121/254/85 137/255/85
f 19/256/86 68/257/86 11/258/86
f 41/259/87 138/260/87 109/261/87
f 127/262/88 86/263/88 139/264/88
f 4/265/89 3/266/89 140/267/89
f 106/268/90 141/269/90 107/270/90
f 12/271/91 11/272/91 62/273/91
f 133/274/92 142/275/92 131/276/92
f 89/277/93 143/278/93 77/279/93
f 144/280/94 100/281/94 57/282/94
f 123/283/95 116/284/95 145/285/95
f 80/286/96 146/287/96 111/288/96
f 43/289/97 63/290/97 147/291/97
f 2/292/98 148/293/98 3/294/98
f 149/295/99 106/296/99 132/297/99
f 6/298/100 148/299/100 2/300/100
f 142/301/101 149/302/101 132/303/101
f 60/304/102 136/305/102 150/306/102
f 38/307/103 81/308/103 110/309/103
f 151/310/104 67/311/104 152/312/104
f 70/313/105 129/314/105 71/315/105
f 16/316/106 148/317/106 6/318/106
f 45/319/107 153/320/107 135/321/107
f 24/322/108 55/323/108 25/324/108
f 16/325/109 154/326/109 148/327/109
f 116/328/110 10/329/110 12/330/110
f 82/331/111 33/332/111 35/333/111
f 155/334/112 103/335/112 156/336/112
f 112/337/113 118/338/113 50/339/113
f 36/340/114 154/341/114 16/342/114
f 145/343/115 116/344/115 70/345/115
f 157/346/116 158/347/116 31/348/116
f 51/349/117 158/350/117 157/351/117
f 96/352/118 159/353/118 97/354/118
f 34/355/119 71/356/119 43/357/119
f 28/358/120 53/359/120 85/360/120
f 36/361/121 92/362/121 154/363/121
f 97/364/122 159/365/122 84/366/122
f 104/367/123 111/368/123 87/369/123
f 136/370/124 95/371/124 150/372/124
f 160/373/125 156/374/125 104/375/125
f 28/376/126 85/377/126 29/378/126
f 102/379/127 161/380/127 13/381/127
f 131/382/128 119/383/128 90/384/128
f 36/385/129 162/386/129 92/387/129
f 53/388/130 54/389/130 85/390/130
f 29/391/131 59/392/131 61/393/131
f 141/394/132 150/395/132 143/396/132
f 54/397/133 46/398/133 59/399/133
f 46/400/134 135/401/134 60/402/134
f 42/403/135 130/404/135 137/405/135
f 117/406/136 144/407/136 163/408/136
f 52/409/137 15/410/137 20/411/137
f 32/412/138 31/413/138 121/414/138
f 37/415/139 112/416/139 49/417/139
f 9/418/140 157/419/140 30/420/140
f 91/421/141 22/422/141 37/423/141
f 100/424/142 58/425/142 57/426/142
f 26/427/143 64/428/143 66/429/143
f 94/430/144 162/431/144 36/432/144
f 134/433/145 19/434/145 115/435/145
f 61/436/146 60/437/146 106/438/146
f 94/439/147 126/440/147 162/441/147
f 75/442/148 117/443/148 98/444/148
f 158/445/149 75/446/149 164/447/149
f 38/448/150 110/449/150 165/450/150
f 81/451/151 123/452/151 33/453/151
f 105/454/152 126/455/152 94/456/152
f 152/457/153 166/458/153 159/459/153
f 132/460/154 88/461/154 119/462/154
f 30/463/155 32/464/155 120/465/155
f 65/466/156 122/467/156 66/468/156
f 46/469/157 45/470/157 135/471/157
f 163/472/158 57/473/158 28/474/158
f 56/475/159 142/476/159 125/477/159
f 142/478/160 132/479/160 131/480/160
f 121/481/161 25/482/161 124/483/161
f 24/484/162 99/485/162 55/486/162
f 65/487/163 114/488/163 122/489/163
f 8/490/164 51/491/164 157/492/164
f 87/493/165 51/494/165 8/495/165
f 110/496/166 101/497/166 100/498/166
f 89/499/167 141/500/167 143/501/167
f 4/502/168 126/503/168 105/504/168
f 151/505/169 152/506/169 153/507/169
f 124/508/170 56/509/170 125/510/170
f 4/511/171 167/512/171 126/513/171
f 72/514/172 102/515/172 73/516/172
f 69/517/173 166/518/173 152/519/173
f 56/520/174 61/521/174 149/522/174
f 49/523/175 112/524/175 50/525/175
f 136/526/176 152/527/176 96/528/176
f 127/529/177 139/530/177 128/531/177
f 140/532/178 167/533/178 4/534/178
f 73/535/179 52/536/179 79/537/179
f 43/538/180 147/539/180 45/540/180
f 63/541/181 151/542/181 147/543/181
f 134/544/182 83/545/182 17/546/182
f 121/547/183 124/548/183 161/549/183
f 126/550/184 128/551/184 168/552/184
f 163/553/185 28/554/185 27/555/185
f 3/556/186 167/557/186 140/558/186
f 3/559/187 148/560/187 167/561/187
f 169/562/188 93/563/188 155/564/188
f 71/565/189 129/566/189 43/567/189
f 127/568/190 87/569/190 86/570/190
f 150/571/191 170/572/191 143/573/191
f 15/574/192 133/575/192 171/576/192
f 148/577/193 172/578/193 160/579/193
f 113/580/194 144/581/194 117/582/194
f 41/583/195 109/584/195 42/585/195
f 159/586/196 173/587/196 84/588/196
f 128/589/197 139/590/197 41/591/197
f 158/592/198 23/593/198 31/594/198
f 158/595/199 164/596/199 23/597/199
f 69/598/200 174/599/200 166/600/200
f 171/601/201 21/602/201 20/603/201
f 116/604/202 19/605/202 10/606/202
f 61/607/203 106/608/203 149/609/203
f 63/610/204 62/611/204 151/612/204
f 171/613/205 131/614/205 90/615/205
f 154/616/206 172/617/206 148/618/206
f 103/619/207 74/620/207 80/621/207
f 123/622/208 145/623/208 33/624/208
f 38/625/209 165/626/209 113/627/209
f 165/628/210 100/629/210 144/630/210
f 7/631/211 9/632/211 39/633/211
f 170/634/212 134/635/212 175/636/212
f 146/637/213 91/638/213 37/639/213
f 76/640/214 78/641/214 65/642/214
f 110/643/215 81/644/215 82/645/215
f 104/646/216 87/647/216 127/648/216
f 93/649/217 72/650/217 155/651/217
f 101/652/218 82/653/218 58/654/218
f 116/655/219 12/656/219 129/657/219
f 117/658/220 163/659/220 98/660/220
f 163/661/221 27/662/221 99/663/221
f 171/664/222 90/665/222 21/666/222
f 68/667/223 174/668/223 69/669/223
f 170/670/224 83/671/224 134/672/224
f 164/673/225 24/674/225 23/675/225
f 111/676/226 49/677/226 87/678/226
f 10/679/227 19/680/227 11/681/227
f 95/682/228 83/683/228 170/684/228
f 29/685/229 85/686/229 59/687/229
f 35/688/230 34/689/230 44/690/230
f 11/691/231 67/692/231 62/693/231
f 38/694/232 66/695/232 81/696/232
f 162/697/233 176/698/233 92/699/233
f 44/700/234 43/701/234 45/702/234
f 33/703/235 71/704/235 34/705/235
f 51/706/236 75/707/236 158/708/236
f 165/709/237 110/710/237 100/711/237
f 78/712/238 175/713/238 115/714/238
f 147/715/239 151/716/239 153/717/239
f 35/718/240 48/719/240 47/720/240
f 161/721/241 124/722/241 14/723/241
f 126/724/242 104/725/242 127/726/242
f 119/727/243 76/728/243 64/729/243
f 126/730/244 176/731/244 162/732/244
f 126/733/245 168/734/245 176/735/245
f 145/736/246 70/737/246 33/738/246
f 40/739/247 42/740/247 92/741/247
f 64/742/248 76/743/248 65/744/248
f 111/745/249 37/746/249 49/747/249
f 106/748/250 60/749/250 141/750/250
f 114/751/251 116/752/251 123/753/251
f 109/754/252 39/755/252 130/756/252
f 112/757/253 113/758/253 118/759/253
f 84/760/254 173/761/254 18/762/254
f 141/763/255 60/764/255 150/765/255
f 113/766/256 165/767/256 144/768/256
f 135/769/257 153/770/257 136/771/257
f 129/772/258 12/773/258 63/774/258
f 97/775/259 84/776/259 83/777/259
f 132/778/260 106/779/260 88/780/260
f 128/781/261 41/782/261 40/783/261
f 139/784/262 138/785/262 41/786/262
f 62/787/263 67/788/263 151/789/263
f 115/790/264 19/791/264 116/792/264
f 152/793/265 159/794/265 96/795/265
f 150/796/266 95/797/266 170/798/266
f 37/799/267 38/800/267 112/801/267
f 125/802/268 142/803/268 133/804/268
f 137/805/269 121/806/269 161/807/269
f 66/808/270 122/809/270 81/810/270
f 48/811/271 44/812/271 46/813/271
f 7/814/272 87/815/272 8/816/272
f 167/817/273 160/818/273 126/819/273
f 35/820/274 44/821/274 48/822/274
f 139/823/275 86/824/275 138/825/275
f 73/826/276 79/827/276 74/828/276
f 21/829/277 90/830/277 26/831/277
f 65/832/278 78/833/278 114/834/278
f 87/835/279 49/836/279 51/837/279
f 79/838/280 20/839/280 91/840/280
f 27/841/281 29/842/281 55/843/281
f 93/844/282 137/845/282 102/846/282
f 164/847/283 98/848/283 24/849/283
f 148/850/284 160/851/284 167/852/284
f 107/853/285 141/854/285 89/855/285
f 19/856/286 18/857/286 68/858/286
f 109/859/287 130/860/287 42/861/287
f 58/862/288 47/863/288 53/864/288
f 77/865/289 175/866/289 78/867/289
f 172/868/290 156/869/290 160/870/290
f 90/871/291 119/872/291 64/873/291
f 57/874/292 53/875/292 28/876/292
f 106/877/293 89/878/293 88/879/293
f 155/880/294 72/881/294 103/882/294
f 102/883/295 52/884/295 73/885/295
f 159/886/296 166/887/296 173/888/296
f 172/889/297 169/890/297 156/891/297
f 156/892/298 103/893/298 104/894/298
f 8/895/299 157/896/299 9/897/299
f 72/898/300 74/899/300 103/900/300
f 55/901/301 29/902/301 61/903/301
f 154/904/302 169/905/302 172/906/302
f 84/907/303 18/908/303 17/909/303
f 68/910/304 18/911/304 174/912/304
f 77/913/305 143/914/305 175/915/305
f 14/916/306 133/917/306 15/918/306
f 93/919/307 102/920/307 72/921/307
f 137/922/308 161/923/308 102/924/308
f 86/925/309 7/926/309 108/927/309
f 146/928/310 37/929/310 111/930/310
f 11/931/311 68/932/311 67/933/311
f 169/934/312 155/935/312 156/936/312
f 92/937/313 93/938/313 169/939/313
f 92/940/314 169/941/314 154/942/314
f 175/943/315 134/944/315 115/945/315
f 39/946/316 30/947/316 120/948/316
f 86/949/317 108/950/317 138/951/317
f 55/952/318 61/953/318 56/954/318
f 79/955/319 146/956/319 80/957/319
f 138/958/320 108/959/320 109/960/320
f 67/961/321 69/962/321 152/963/321
f 42/964/322 137/965/322 93/966/322
f 153/967/323 152/968/323 136/969/323
f 56/970/324 149/971/324 142/972/324
f 52/973/325 20/974/325 79/975/325
f 136/976/326 96/977/326 95/978/326
f 31/979/327 25/980/327 121/981/327
f 30/982/328 157/983/328 31/984/328
f 176/985/329 40/986/329 92/987/329
f 75/988/330 98/989/330 164/990/330
f 98/991/331 163/992/331 99/993/331
f 82/994/332 35/995/332 58/996/332
f 15/997/333 171/998/333 20/999/333
f 99/1000/334 27/1001/334 55/1002/334
f 133/1003/335 131/1004/335 171/1005/335
f 144/1006/336 57/1007/336 163/1008/336
f 50/1009/337 118/1010/337 117/1011/337
f 161/1012/338 14/1013/338 13/1014/338
f 22/1015/339 66/1016/339 38/1017/339
f 143/1018/340 170/1019/340 175/1020/340
f 168/1021/341 128/1022/341 40/1023/341
f 168/1024/342 40/1025/342 176/1026/342
f 45/1027/343 147/1028/343 153/1029/343
f 160/1030/344 104/1031/344 126/1032/344
f 79/1033/345 91/1034/345 146/1035/345
