# Blender3D v243 OBJ File: terrain.blend
# www.blender3d.org
o Plane
v 1.078403 0.236784 -0.964175
v 1.081314 0.286457 0.992129
v -0.878702 0.224668 0.987980
v -0.894326 0.132076 -0.991330
v 0.090048 0.230665 0.989640
v 1.078403 0.241322 0.001971
v 0.090049 0.133778 -0.992695
v -0.904743 0.298577 0.009784
v 0.090048 0.265289 0.008482
v 0.593494 0.239661 0.992129
v -0.409952 0.235452 0.989640
v 1.079567 0.236116 -0.495424
v 1.081199 0.252383 0.506165
v 0.615475 -0.070472 -0.990216
v -0.409951 0.138498 -0.992695
v -0.894327 -0.034629 0.487097
v -0.884951 -0.150994 -0.495425
v 0.609119 -0.071651 0.008482
v 0.087816 -0.050369 0.483162
v -0.409952 0.368695 0.008482
v 0.125546 -0.151620 -0.461654
v 0.583798 0.002985 0.505847
v -0.409952 -0.032939 0.478026
v 0.592805 -0.196564 -0.482925
v -0.409952 -0.369760 -0.495425
v 0.347861 0.028496 -0.989471
v -0.659951 0.138498 -0.992695
v -0.159951 0.138498 -0.992695
v -0.899535 -0.144068 -0.742695
v -0.898233 -0.066218 -0.245425
v 0.340048 0.033820 0.023325
v -0.159952 0.356856 0.013950
v -0.659952 0.246292 0.013950
v 0.089195 -0.184144 -0.243263
v 0.126965 -0.131461 -0.708256
v 0.626811 -0.067916 -0.248549
v 0.345375 -0.206276 -0.490167
v 0.626811 -0.077191 -0.742299
v -0.158532 -0.188097 -0.494074
v -0.409952 -0.249805 -0.240216
v -0.659952 -0.162540 -0.495425
v -0.409951 -0.179591 -0.743377
v 0.340048 -0.207239 -0.253237
v 0.355673 -0.147243 -0.741456
v -0.159952 -0.292076 -0.240216
v -0.659952 -0.070149 -0.240216
v -0.159951 -0.163435 -0.743377
v -0.659951 -0.147279 -0.743378
v -0.902139 0.185397 0.254575
v 0.092652 0.180944 0.249367
v 0.340048 -0.207321 0.517111
v 0.616307 -0.071146 0.250111
v -0.159952 0.029006 0.506392
v -0.659952 -0.046218 0.506392
v -0.409952 0.191031 0.249367
v -0.904743 0.165665 -0.125633
v 0.215048 0.211945 0.017075
v 0.478441 -0.026929 0.020200
v -0.031827 0.295360 0.013950
v -0.288077 0.301201 0.013950
v -0.788077 0.299708 0.013950
v -0.531827 0.295131 0.013950
v 0.093955 0.095540 -0.124331
v 0.609119 -0.068874 -0.116518
v -0.409952 0.069072 -0.124331
v 0.220908 -0.010205 0.258482
v 0.461142 -0.028096 0.266294
v -0.280487 0.173711 0.272433
v -0.039416 0.176407 0.272433
v -0.780487 0.170291 0.272432
v -0.539416 0.170292 0.272432
v 0.473977 -0.141110 -0.261050
v 0.340048 -0.088613 -0.120425
v 0.217320 -0.207053 -0.262013
v -0.033329 -0.237130 -0.248345
v -0.159952 0.038091 -0.124331
v -0.284952 -0.281205 -0.249889
v -0.534952 -0.167755 -0.249889
v -0.659952 0.168687 -0.124331
v -0.784952 -0.071777 -0.249889
v 0.475465 -0.077854 -0.120424
v 0.210361 -0.030876 -0.115737
v -0.034952 0.072387 -0.124331
v -0.284952 0.052263 -0.124331
v -0.534952 0.119118 -0.124331
v -0.784952 0.170236 -0.124331
v 0.340048 0.239661 0.992129
v 0.990153 0.254654 0.996278
v -0.159952 0.245644 0.992129
v -0.659952 0.239661 0.992129
v 1.079429 0.242296 0.859929
v -0.894327 -0.052701 0.861173
v 0.090048 -0.067401 0.859099
v 0.981975 -0.069305 0.509276
v 0.602762 -0.052350 0.859099
v -0.409952 -0.056209 0.859099
v -0.902139 0.255391 0.121763
v 0.090048 0.250918 0.119159
v 0.208798 -0.210649 0.532118
v 0.471298 -0.076293 0.532118
v -0.028702 -0.056883 0.532118
v -0.291202 -0.052096 0.532118
v -0.791202 -0.061670 0.532118
v -0.528702 -0.061670 0.532118
v -0.409952 0.263827 0.119159
v -0.904743 0.246217 -0.057925
v 0.147861 0.272344 0.015513
v -0.094327 0.304450 0.013950
v 0.030673 0.266149 0.013950
v -0.225577 0.300432 0.013950
v -0.350577 0.366690 0.013950
v -0.850577 0.299708 0.013950
v -0.725577 0.296370 0.013950
v -0.469327 0.302203 0.013950
v -0.594327 0.245673 0.013950
v 0.088095 0.215149 -0.055971
v -0.409952 0.202626 -0.057925
v -0.217243 0.258142 0.129575
v -0.102660 0.311612 0.129575
v -0.717243 0.249070 0.129575
v -0.602660 0.246288 0.129575
v -0.159952 0.186888 -0.057925
v -0.659952 0.241270 -0.057925
v 0.225465 -0.059610 0.879932
v 0.454632 -0.052408 0.879932
v -0.274535 0.030589 0.879932
v -0.045368 -0.037227 0.879932
v -0.774535 -0.045205 0.879932
v -0.545368 -0.045205 0.879932
v 0.152548 0.215678 0.129575
v -0.159952 0.195923 0.254575
v 0.027548 0.250205 0.129575
v -0.034952 0.254997 0.129575
v 0.027548 0.187362 0.254575
v -0.284952 0.251852 0.129575
v -0.347452 0.255480 0.129575
v -0.347452 0.187362 0.254575
v -0.659952 0.187362 0.254575
v -0.472452 0.251852 0.129575
v -0.534952 0.249070 0.129575
v -0.472452 0.187362 0.254575
v -0.784952 0.251852 0.129575
v -0.847452 0.251852 0.129575
v -0.847452 0.187362 0.254575
v 0.027548 0.075586 -0.129800
v -0.034952 0.198775 -0.057925
v -0.097452 0.038204 -0.129800
v -0.222452 0.027715 -0.129800
v -0.284952 0.189018 -0.057925
v -0.347452 0.044119 -0.129800
v -0.472452 0.078965 -0.129800
v -0.534952 0.221433 -0.057925
v -0.597452 0.132252 -0.129800
v -0.722452 0.158895 -0.129800
v -0.784952 0.246217 -0.057925
v -0.847452 0.158895 -0.129800
v 0.992411 -0.040675 0.875783
v 0.129111 0.222310 -0.034487
v 0.027548 0.204998 -0.057925
v -0.097452 0.190082 -0.057925
v -0.222452 0.185203 -0.057925
v -0.347452 0.198275 -0.057925
v -0.472452 0.209040 -0.057925
v -0.597452 0.229652 -0.057925
v -0.722452 0.246217 -0.057925
v -0.847452 0.246217 -0.057925
v 1.081314 0.259190 -0.245424
v 1.081314 0.252383 -0.745424
v 1.081314 0.252383 0.254576
v 0.959148 -0.056472 -0.979799
v 0.969319 -0.059592 0.009784
v 0.969319 -0.168962 -0.495425
v 0.626811 -0.092623 -0.370425
v 0.615476 -0.074498 -0.875633
v 0.598450 -0.094513 -0.620424
v 0.990153 0.042237 -0.136049
v 0.990153 -0.045211 -0.360008
v 0.990153 -0.049750 -0.630841
v 0.979080 -0.048450 -0.859264
v 0.626811 -0.072359 0.117076
v 0.596298 -0.062941 0.379576
v 0.615475 -0.073159 -0.055320
v 0.615475 0.007697 -0.175112
v 0.995284 -0.043993 0.369159
v 0.990153 -0.043993 0.139992
v 0.969319 -0.050515 -0.063133
v 1.011824 -0.043993 0.519186
v 0.734347 -0.001192 0.531399
v 0.749610 -0.071827 0.392968
v 0.215049 0.084260 -0.992695
v 0.472861 -0.022097 -0.987612
v -0.784951 0.138498 -0.992695
v -0.534951 0.138498 -0.992695
v -0.034951 0.138498 -0.992695
v -0.284951 0.138498 -0.992695
v -0.899535 -0.002785 -0.947295
v 0.092888 -0.003316 -0.948437
v -0.409951 -0.002785 -0.951138
v 0.477548 -0.111198 -0.745425
v 0.219592 -0.151084 -0.726964
v 0.346298 -0.058003 -0.944220
v -0.030408 -0.147265 -0.726964
v -0.284952 -0.356005 -0.731287
v -0.159951 -0.002785 -0.951138
v -0.534951 -0.162131 -0.731287
v -0.784951 -0.149206 -0.731287
v -0.659952 -0.002785 -0.951138
v 1.004825 -0.070482 0.684768
v 0.599055 -0.069528 -0.939175
v 0.599055 -0.079192 -0.807925
v 1.004088 -0.075191 0.518347
v 0.465048 -0.026611 -0.931560
v 0.465048 -0.107146 -0.816976
v 1.022838 -0.056472 0.704790
v 0.215048 -0.030676 -0.951138
v -0.034952 -0.002785 -0.951138
v -0.284951 -0.018941 -0.951138
v -0.534951 -0.002785 -0.951138
v -0.784951 -0.002785 -0.951138
vt 0.704525 0.387258 0.0
vt 0.650031 0.496596 0.0
vt 0.596417 0.390774 0.0
vt 0.596417 0.390774 0.0
vt 0.650031 0.274389 0.0
vt 0.704525 0.387258 0.0
vt 0.712309 0.498002 0.0
vt 0.704525 0.387258 0.0
vt 0.774350 0.394541 0.0
vt 0.704525 0.387258 0.0
vt 0.712309 0.498002 0.0
vt 0.650031 0.496596 0.0
vt 0.596417 0.390774 0.0
vt 0.650031 0.496596 0.0
vt 0.593780 0.499408 0.0
vt 0.536525 0.289666 0.0
vt 0.596417 0.390774 0.0
vt 0.538701 0.394875 0.0
vt 0.710300 0.624567 0.0
vt 0.763774 0.724412 0.0
vt 0.652428 0.727672 0.0
vt 0.650031 0.621051 0.0
vt 0.710300 0.624567 0.0
vt 0.652428 0.727672 0.0
vt 0.594803 0.625000 0.0
vt 0.652428 0.727672 0.0
vt 0.553504 0.714840 0.0
vt 0.537146 0.616563 0.0
vt 0.594803 0.625000 0.0
vt 0.553504 0.714840 0.0
vt 0.594803 0.625000 0.0
vt 0.650031 0.621051 0.0
vt 0.652428 0.727672 0.0
vt 0.482009 0.618850 0.0
vt 0.553504 0.714840 0.0
vt 0.425667 0.729429 0.0
vt 0.425028 0.615192 0.0
vt 0.482009 0.618850 0.0
vt 0.425667 0.729429 0.0
vt 0.482009 0.618850 0.0
vt 0.537146 0.616563 0.0
vt 0.553504 0.714840 0.0
vt 0.368777 0.619544 0.0
vt 0.425667 0.729429 0.0
vt 0.312526 0.730037 0.0
vt 0.312526 0.615192 0.0
vt 0.368777 0.619544 0.0
vt 0.312526 0.730037 0.0
vt 0.368777 0.619544 0.0
vt 0.425028 0.615192 0.0
vt 0.425667 0.729429 0.0
vt 0.256275 0.619544 0.0
vt 0.312526 0.730037 0.0
vt 0.200024 0.730037 0.0
vt 0.200024 0.615192 0.0
vt 0.256275 0.619544 0.0
vt 0.200024 0.730037 0.0
vt 0.256275 0.619544 0.0
vt 0.312526 0.615192 0.0
vt 0.312526 0.730037 0.0
vt 0.143773 0.619544 0.0
vt 0.200024 0.730037 0.0
vt 0.098772 0.730037 0.0
vt 0.092795 0.617535 0.0
vt 0.143773 0.619544 0.0
vt 0.098772 0.730037 0.0
vt 0.143773 0.619544 0.0
vt 0.200024 0.615192 0.0
vt 0.200024 0.730037 0.0
vt 0.701595 0.111116 0.0
vt 0.650031 0.274389 0.0
vt 0.598468 0.111116 0.0
vt 0.598468 0.111116 0.0
vt 0.650031 0.060627 0.0
vt 0.701595 0.111116 0.0
vt 0.764084 0.060627 0.0
vt 0.701595 0.111116 0.0
vt 0.650031 0.060627 0.0
vt 0.650031 0.060627 0.0
vt 0.598468 0.111116 0.0
vt 0.537529 0.061747 0.0
vt 0.768255 0.120492 0.0
vt 0.759721 0.279458 0.0
vt 0.709095 0.267635 0.0
vt 0.709095 0.267635 0.0
vt 0.701595 0.111116 0.0
vt 0.768255 0.120492 0.0
vt 0.764084 0.060627 0.0
vt 0.768255 0.120492 0.0
vt 0.701595 0.111116 0.0
vt 0.701595 0.111116 0.0
vt 0.709095 0.267635 0.0
vt 0.650031 0.274389 0.0
vt 0.598468 0.111116 0.0
vt 0.650031 0.274389 0.0
vt 0.590968 0.267635 0.0
vt 0.590968 0.267635 0.0
vt 0.537529 0.120492 0.0
vt 0.598468 0.111116 0.0
vt 0.537529 0.061747 0.0
vt 0.598468 0.111116 0.0
vt 0.537529 0.120492 0.0
vt 0.537529 0.120492 0.0
vt 0.590968 0.267635 0.0
vt 0.536525 0.289666 0.0
vt 0.476591 0.111116 0.0
vt 0.425028 0.279212 0.0
vt 0.373464 0.111116 0.0
vt 0.373464 0.111116 0.0
vt 0.425028 0.060627 0.0
vt 0.476591 0.111116 0.0
vt 0.537529 0.061747 0.0
vt 0.476591 0.111116 0.0
vt 0.425028 0.060627 0.0
vt 0.425028 0.060627 0.0
vt 0.373464 0.111116 0.0
vt 0.312526 0.061747 0.0
vt 0.537529 0.120492 0.0
vt 0.536525 0.289666 0.0
vt 0.484091 0.267635 0.0
vt 0.484091 0.267635 0.0
vt 0.476591 0.111116 0.0
vt 0.537529 0.120492 0.0
vt 0.537529 0.061747 0.0
vt 0.537529 0.120492 0.0
vt 0.476591 0.111116 0.0
vt 0.476591 0.111116 0.0
vt 0.484091 0.267635 0.0
vt 0.425028 0.279212 0.0
vt 0.373464 0.111116 0.0
vt 0.425028 0.279212 0.0
vt 0.365964 0.267635 0.0
vt 0.365964 0.267635 0.0
vt 0.312526 0.120492 0.0
vt 0.373464 0.111116 0.0
vt 0.312526 0.061747 0.0
vt 0.373464 0.111116 0.0
vt 0.312526 0.120492 0.0
vt 0.312526 0.120492 0.0
vt 0.365964 0.267635 0.0
vt 0.312526 0.291977 0.0
vt 0.251587 0.111116 0.0
vt 0.200024 0.279212 0.0
vt 0.148460 0.111116 0.0
vt 0.148460 0.111116 0.0
vt 0.200024 0.060627 0.0
vt 0.251587 0.111116 0.0
vt 0.312526 0.061747 0.0
vt 0.251587 0.111116 0.0
vt 0.200024 0.060627 0.0
vt 0.200024 0.060627 0.0
vt 0.148460 0.111116 0.0
vt 0.101585 0.062494 0.0
vt 0.312526 0.120492 0.0
vt 0.312526 0.291977 0.0
vt 0.259087 0.267635 0.0
vt 0.259087 0.267635 0.0
vt 0.251587 0.111116 0.0
vt 0.312526 0.120492 0.0
vt 0.312526 0.061747 0.0
vt 0.312526 0.120492 0.0
vt 0.251587 0.111116 0.0
vt 0.251587 0.111116 0.0
vt 0.259087 0.267635 0.0
vt 0.200024 0.279212 0.0
vt 0.148460 0.111116 0.0
vt 0.200024 0.279212 0.0
vt 0.140960 0.267635 0.0
vt 0.140960 0.267635 0.0
vt 0.094553 0.119558 0.0
vt 0.148460 0.111116 0.0
vt 0.101585 0.062494 0.0
vt 0.148460 0.111116 0.0
vt 0.094553 0.119558 0.0
vt 0.094553 0.119558 0.0
vt 0.140960 0.267635 0.0
vt 0.094553 0.287895 0.0
vt 0.650031 0.274389 0.0
vt 0.709095 0.267635 0.0
vt 0.704525 0.387258 0.0
vt 0.709095 0.267635 0.0
vt 0.759721 0.279458 0.0
vt 0.704525 0.387258 0.0
vt 0.536525 0.289666 0.0
vt 0.590968 0.267635 0.0
vt 0.596417 0.390774 0.0
vt 0.590968 0.267635 0.0
vt 0.650031 0.274389 0.0
vt 0.596417 0.390774 0.0
vt 0.593780 0.499408 0.0
vt 0.565655 0.448783 0.0
vt 0.596417 0.390774 0.0
vt 0.565655 0.448783 0.0
vt 0.538701 0.394875 0.0
vt 0.596417 0.390774 0.0
vt 0.537530 0.453470 0.0
vt 0.538701 0.394875 0.0
vt 0.565655 0.448783 0.0
vt 0.565655 0.448783 0.0
vt 0.563546 0.500112 0.0
vt 0.537530 0.453470 0.0
vt 0.537530 0.503276 0.0
vt 0.537530 0.453470 0.0
vt 0.563546 0.500112 0.0
vt 0.563546 0.500112 0.0
vt 0.565655 0.448783 0.0
vt 0.593780 0.499408 0.0
vt 0.425028 0.392532 0.0
vt 0.479270 0.384496 0.0
vt 0.450809 0.448783 0.0
vt 0.450809 0.448783 0.0
vt 0.399246 0.448783 0.0
vt 0.425028 0.392532 0.0
vt 0.370786 0.384496 0.0
vt 0.425028 0.392532 0.0
vt 0.399246 0.448783 0.0
vt 0.399246 0.448783 0.0
vt 0.450809 0.448783 0.0
vt 0.425028 0.500815 0.0
vt 0.479270 0.384496 0.0
vt 0.425028 0.392532 0.0
vt 0.425028 0.279212 0.0
vt 0.425028 0.392532 0.0
vt 0.370786 0.384496 0.0
vt 0.425028 0.279212 0.0
vt 0.425028 0.279212 0.0
vt 0.484091 0.267635 0.0
vt 0.479270 0.384496 0.0
vt 0.484091 0.267635 0.0
vt 0.536525 0.289666 0.0
vt 0.479270 0.384496 0.0
vt 0.312526 0.291977 0.0
vt 0.365964 0.267635 0.0
vt 0.370786 0.384496 0.0
vt 0.365964 0.267635 0.0
vt 0.425028 0.279212 0.0
vt 0.370786 0.384496 0.0
vt 0.509404 0.448783 0.0
vt 0.538701 0.394875 0.0
vt 0.537530 0.453470 0.0
vt 0.537530 0.453470 0.0
vt 0.510810 0.500815 0.0
vt 0.509404 0.448783 0.0
vt 0.482685 0.500815 0.0
vt 0.509404 0.448783 0.0
vt 0.510810 0.500815 0.0
vt 0.510810 0.500815 0.0
vt 0.537530 0.453470 0.0
vt 0.537530 0.503276 0.0
vt 0.509404 0.448783 0.0
vt 0.482685 0.500815 0.0
vt 0.481279 0.448783 0.0
vt 0.481279 0.448783 0.0
vt 0.509404 0.392532 0.0
vt 0.509404 0.448783 0.0
vt 0.538701 0.394875 0.0
vt 0.509404 0.448783 0.0
vt 0.509404 0.392532 0.0
vt 0.509404 0.392532 0.0
vt 0.481279 0.448783 0.0
vt 0.479270 0.384496 0.0
vt 0.538701 0.394875 0.0
vt 0.509404 0.392532 0.0
vt 0.536525 0.289666 0.0
vt 0.509404 0.392532 0.0
vt 0.479270 0.384496 0.0
vt 0.536525 0.289666 0.0
vt 0.450809 0.448783 0.0
vt 0.479270 0.384496 0.0
vt 0.481279 0.448783 0.0
vt 0.481279 0.448783 0.0
vt 0.454559 0.500815 0.0
vt 0.450809 0.448783 0.0
vt 0.425028 0.500815 0.0
vt 0.450809 0.448783 0.0
vt 0.454559 0.500815 0.0
vt 0.454559 0.500815 0.0
vt 0.481279 0.448783 0.0
vt 0.482685 0.500815 0.0
vt 0.368777 0.448783 0.0
vt 0.370786 0.384496 0.0
vt 0.399246 0.448783 0.0
vt 0.399246 0.448783 0.0
vt 0.395496 0.500815 0.0
vt 0.368777 0.448783 0.0
vt 0.367370 0.500815 0.0
vt 0.368777 0.448783 0.0
vt 0.395496 0.500815 0.0
vt 0.395496 0.500815 0.0
vt 0.399246 0.448783 0.0
vt 0.425028 0.500815 0.0
vt 0.368777 0.448783 0.0
vt 0.367370 0.500815 0.0
vt 0.340651 0.448783 0.0
vt 0.340651 0.448783 0.0
vt 0.340651 0.392532 0.0
vt 0.368777 0.448783 0.0
vt 0.370786 0.384496 0.0
vt 0.368777 0.448783 0.0
vt 0.340651 0.392532 0.0
vt 0.340651 0.392532 0.0
vt 0.340651 0.448783 0.0
vt 0.312526 0.394875 0.0
vt 0.370786 0.384496 0.0
vt 0.340651 0.392532 0.0
vt 0.312526 0.291977 0.0
vt 0.340651 0.392532 0.0
vt 0.312526 0.394875 0.0
vt 0.312526 0.291977 0.0
vt 0.312526 0.453470 0.0
vt 0.312526 0.394875 0.0
vt 0.340651 0.448783 0.0
vt 0.340651 0.448783 0.0
vt 0.339245 0.500815 0.0
vt 0.312526 0.453470 0.0
vt 0.312526 0.503276 0.0
vt 0.312526 0.453470 0.0
vt 0.339245 0.500815 0.0
vt 0.339245 0.500815 0.0
vt 0.340651 0.448783 0.0
vt 0.367370 0.500815 0.0
vt 0.200024 0.392532 0.0
vt 0.254266 0.384496 0.0
vt 0.225806 0.448783 0.0
vt 0.225806 0.448783 0.0
vt 0.174242 0.448783 0.0
vt 0.200024 0.392532 0.0
vt 0.145782 0.384496 0.0
vt 0.200024 0.392532 0.0
vt 0.174242 0.448783 0.0
vt 0.174242 0.448783 0.0
vt 0.225806 0.448783 0.0
vt 0.200024 0.500815 0.0
vt 0.254266 0.384496 0.0
vt 0.200024 0.392532 0.0
vt 0.200024 0.279212 0.0
vt 0.200024 0.392532 0.0
vt 0.145782 0.384496 0.0
vt 0.200024 0.279212 0.0
vt 0.200024 0.279212 0.0
vt 0.259087 0.267635 0.0
vt 0.254266 0.384496 0.0
vt 0.259087 0.267635 0.0
vt 0.312526 0.291977 0.0
vt 0.254266 0.384496 0.0
vt 0.094553 0.287895 0.0
vt 0.140960 0.267635 0.0
vt 0.145782 0.384496 0.0
vt 0.140960 0.267635 0.0
vt 0.200024 0.279212 0.0
vt 0.145782 0.384496 0.0
vt 0.284400 0.448783 0.0
vt 0.312526 0.394875 0.0
vt 0.312526 0.453470 0.0
vt 0.312526 0.453470 0.0
vt 0.285807 0.500815 0.0
vt 0.284400 0.448783 0.0
vt 0.257681 0.500815 0.0
vt 0.284400 0.448783 0.0
vt 0.285807 0.500815 0.0
vt 0.285807 0.500815 0.0
vt 0.312526 0.453470 0.0
vt 0.312526 0.503276 0.0
vt 0.284400 0.448783 0.0
vt 0.257681 0.500815 0.0
vt 0.256275 0.448783 0.0
vt 0.256275 0.448783 0.0
vt 0.284400 0.392532 0.0
vt 0.284400 0.448783 0.0
vt 0.312526 0.394875 0.0
vt 0.284400 0.448783 0.0
vt 0.284400 0.392532 0.0
vt 0.284400 0.392532 0.0
vt 0.256275 0.448783 0.0
vt 0.254266 0.384496 0.0
vt 0.312526 0.394875 0.0
vt 0.284400 0.392532 0.0
vt 0.312526 0.291977 0.0
vt 0.284400 0.392532 0.0
vt 0.254266 0.384496 0.0
vt 0.312526 0.291977 0.0
vt 0.225806 0.448783 0.0
vt 0.254266 0.384496 0.0
vt 0.256275 0.448783 0.0
vt 0.256275 0.448783 0.0
vt 0.229556 0.500815 0.0
vt 0.225806 0.448783 0.0
vt 0.200024 0.500815 0.0
vt 0.225806 0.448783 0.0
vt 0.229556 0.500815 0.0
vt 0.229556 0.500815 0.0
vt 0.256275 0.448783 0.0
vt 0.257681 0.500815 0.0
vt 0.143773 0.448783 0.0
vt 0.145782 0.384496 0.0
vt 0.174242 0.448783 0.0
vt 0.174242 0.448783 0.0
vt 0.170492 0.500815 0.0
vt 0.143773 0.448783 0.0
vt 0.142367 0.500815 0.0
vt 0.143773 0.448783 0.0
vt 0.170492 0.500815 0.0
vt 0.170492 0.500815 0.0
vt 0.174242 0.448783 0.0
vt 0.200024 0.500815 0.0
vt 0.143773 0.448783 0.0
vt 0.142367 0.500815 0.0
vt 0.115647 0.448783 0.0
vt 0.115647 0.448783 0.0
vt 0.115647 0.392532 0.0
vt 0.143773 0.448783 0.0
vt 0.145782 0.384496 0.0
vt 0.143773 0.448783 0.0
vt 0.115647 0.392532 0.0
vt 0.115647 0.392532 0.0
vt 0.115647 0.448783 0.0
vt 0.091038 0.392532 0.0
vt 0.145782 0.384496 0.0
vt 0.115647 0.392532 0.0
vt 0.094553 0.287895 0.0
vt 0.115647 0.392532 0.0
vt 0.091038 0.392532 0.0
vt 0.094553 0.287895 0.0
vt 0.091038 0.452298 0.0
vt 0.091038 0.392532 0.0
vt 0.115647 0.448783 0.0
vt 0.115647 0.448783 0.0
vt 0.114241 0.500815 0.0
vt 0.091038 0.452298 0.0
vt 0.089866 0.502690 0.0
vt 0.091038 0.452298 0.0
vt 0.114241 0.500815 0.0
vt 0.114241 0.500815 0.0
vt 0.115647 0.448783 0.0
vt 0.142367 0.500815 0.0
vt 0.509404 0.565503 0.0
vt 0.537146 0.616563 0.0
vt 0.482009 0.618850 0.0
vt 0.481279 0.563042 0.0
vt 0.509404 0.565503 0.0
vt 0.482009 0.618850 0.0
vt 0.509404 0.565503 0.0
vt 0.539287 0.563042 0.0
vt 0.537146 0.616563 0.0
vt 0.453153 0.565503 0.0
vt 0.482009 0.618850 0.0
vt 0.425028 0.615192 0.0
vt 0.425028 0.563042 0.0
vt 0.453153 0.565503 0.0
vt 0.425028 0.615192 0.0
vt 0.453153 0.565503 0.0
vt 0.481279 0.563042 0.0
vt 0.482009 0.618850 0.0
vt 0.396902 0.565503 0.0
vt 0.425028 0.615192 0.0
vt 0.368777 0.619544 0.0
vt 0.368777 0.563042 0.0
vt 0.396902 0.565503 0.0
vt 0.368777 0.619544 0.0
vt 0.396902 0.565503 0.0
vt 0.425028 0.563042 0.0
vt 0.425028 0.615192 0.0
vt 0.340651 0.565503 0.0
vt 0.368777 0.619544 0.0
vt 0.312526 0.615192 0.0
vt 0.312526 0.563042 0.0
vt 0.340651 0.565503 0.0
vt 0.312526 0.615192 0.0
vt 0.340651 0.565503 0.0
vt 0.368777 0.563042 0.0
vt 0.368777 0.619544 0.0
vt 0.284400 0.565503 0.0
vt 0.312526 0.615192 0.0
vt 0.256275 0.619544 0.0
vt 0.256275 0.563042 0.0
vt 0.284400 0.565503 0.0
vt 0.256275 0.619544 0.0
vt 0.284400 0.565503 0.0
vt 0.312526 0.563042 0.0
vt 0.312526 0.615192 0.0
vt 0.228149 0.565503 0.0
vt 0.256275 0.619544 0.0
vt 0.200024 0.615192 0.0
vt 0.200024 0.563042 0.0
vt 0.228149 0.565503 0.0
vt 0.200024 0.615192 0.0
vt 0.228149 0.565503 0.0
vt 0.256275 0.563042 0.0
vt 0.256275 0.619544 0.0
vt 0.171898 0.565503 0.0
vt 0.200024 0.615192 0.0
vt 0.143773 0.619544 0.0
vt 0.143773 0.563042 0.0
vt 0.171898 0.565503 0.0
vt 0.143773 0.619544 0.0
vt 0.171898 0.565503 0.0
vt 0.200024 0.563042 0.0
vt 0.200024 0.615192 0.0
vt 0.115647 0.565503 0.0
vt 0.143773 0.619544 0.0
vt 0.092795 0.617535 0.0
vt 0.089866 0.563628 0.0
vt 0.115647 0.565503 0.0
vt 0.092795 0.617535 0.0
vt 0.115647 0.565503 0.0
vt 0.143773 0.563042 0.0
vt 0.143773 0.619544 0.0
vt 0.942583 0.669099 0.0
vt 0.779077 0.618942 0.0
vt 0.942583 0.568316 0.0
vt 0.942583 0.568316 0.0
vt 0.983607 0.617535 0.0
vt 0.942583 0.669099 0.0
vt 0.982821 0.730037 0.0
vt 0.942583 0.669099 0.0
vt 0.983607 0.617535 0.0
vt 0.983607 0.617535 0.0
vt 0.942583 0.568316 0.0
vt 0.982296 0.506205 0.0
vt 0.933208 0.730037 0.0
vt 0.763774 0.724412 0.0
vt 0.779077 0.673786 0.0
vt 0.779077 0.673786 0.0
vt 0.942583 0.669099 0.0
vt 0.933208 0.730037 0.0
vt 0.982821 0.730037 0.0
vt 0.933208 0.730037 0.0
vt 0.942583 0.669099 0.0
vt 0.942583 0.669099 0.0
vt 0.779077 0.673786 0.0
vt 0.779077 0.618942 0.0
vt 0.937600 0.893768 0.0
vt 0.779077 0.841133 0.0
vt 0.942583 0.790976 0.0
vt 0.942583 0.790976 0.0
vt 0.983607 0.842539 0.0
vt 0.937600 0.893768 0.0
vt 0.982296 0.940978 0.0
vt 0.937600 0.893768 0.0
vt 0.983607 0.842539 0.0
vt 0.983607 0.842539 0.0
vt 0.942583 0.790976 0.0
vt 0.982821 0.730037 0.0
vt 0.773976 0.901134 0.0
vt 0.937600 0.893768 0.0
vt 0.928631 0.948010 0.0
vt 0.982296 0.940978 0.0
vt 0.928631 0.948010 0.0
vt 0.937600 0.893768 0.0
vt 0.942583 0.790976 0.0
vt 0.779077 0.841133 0.0
vt 0.766314 0.786288 0.0
vt 0.766314 0.786288 0.0
vt 0.933208 0.730037 0.0
vt 0.942583 0.790976 0.0
vt 0.982821 0.730037 0.0
vt 0.942583 0.790976 0.0
vt 0.933208 0.730037 0.0
vt 0.933208 0.730037 0.0
vt 0.766314 0.786288 0.0
vt 0.763774 0.724412 0.0
vt 0.766314 0.786288 0.0
vt 0.657063 0.840753 0.0
vt 0.652428 0.727672 0.0
vt 0.763774 0.724412 0.0
vt 0.766314 0.786288 0.0
vt 0.652428 0.727672 0.0
vt 0.942583 0.444095 0.0
vt 0.774350 0.394541 0.0
vt 0.944893 0.340968 0.0
vt 0.944893 0.340968 0.0
vt 0.983607 0.392532 0.0
vt 0.942583 0.444095 0.0
vt 0.982296 0.506205 0.0
vt 0.942583 0.444095 0.0
vt 0.983607 0.392532 0.0
vt 0.983607 0.392532 0.0
vt 0.944893 0.340968 0.0
vt 0.983555 0.279314 0.0
vt 0.933208 0.502690 0.0
vt 0.771115 0.503276 0.0
vt 0.779077 0.454408 0.0
vt 0.779077 0.454408 0.0
vt 0.942583 0.444095 0.0
vt 0.933208 0.502690 0.0
vt 0.982296 0.506205 0.0
vt 0.933208 0.502690 0.0
vt 0.942583 0.444095 0.0
vt 0.942583 0.444095 0.0
vt 0.779077 0.454408 0.0
vt 0.774350 0.394541 0.0
vt 0.774350 0.394541 0.0
vt 0.779077 0.454408 0.0
vt 0.712309 0.498002 0.0
vt 0.779077 0.454408 0.0
vt 0.771115 0.503276 0.0
vt 0.712309 0.498002 0.0
vt 0.759721 0.279458 0.0
vt 0.765346 0.336281 0.0
vt 0.704525 0.387258 0.0
vt 0.765346 0.336281 0.0
vt 0.774350 0.394541 0.0
vt 0.704525 0.387258 0.0
vt 0.942583 0.568316 0.0
vt 0.779077 0.618942 0.0
vt 0.773976 0.585894 0.0
vt 0.773976 0.585894 0.0
vt 0.933208 0.535503 0.0
vt 0.942583 0.568316 0.0
vt 0.982296 0.506205 0.0
vt 0.942583 0.568316 0.0
vt 0.933208 0.535503 0.0
vt 0.933208 0.535503 0.0
vt 0.773976 0.585894 0.0
vt 0.771115 0.559527 0.0
vt 0.933208 0.535503 0.0
vt 0.771115 0.559527 0.0
vt 0.773976 0.531987 0.0
vt 0.773976 0.531987 0.0
vt 0.933208 0.502690 0.0
vt 0.933208 0.535503 0.0
vt 0.982296 0.506205 0.0
vt 0.933208 0.535503 0.0
vt 0.933208 0.502690 0.0
vt 0.933208 0.502690 0.0
vt 0.773976 0.531987 0.0
vt 0.771115 0.503276 0.0
vt 0.773976 0.531987 0.0
vt 0.710970 0.561284 0.0
vt 0.712309 0.498002 0.0
vt 0.771115 0.503276 0.0
vt 0.773976 0.531987 0.0
vt 0.712309 0.498002 0.0
vt 0.773976 0.531987 0.0
vt 0.771115 0.559527 0.0
vt 0.710970 0.561284 0.0
vt 0.773976 0.585894 0.0
vt 0.710300 0.624567 0.0
vt 0.710970 0.561284 0.0
vt 0.771115 0.559527 0.0
vt 0.773976 0.585894 0.0
vt 0.710970 0.561284 0.0
vt 0.773976 0.585894 0.0
vt 0.779077 0.618942 0.0
vt 0.710300 0.624567 0.0
vt 0.779077 0.618942 0.0
vt 0.779077 0.673786 0.0
vt 0.710300 0.624567 0.0
vt 0.779077 0.673786 0.0
vt 0.763774 0.724412 0.0
vt 0.710300 0.624567 0.0
vt 0.983555 0.279314 0.0
vt 0.952336 0.273455 0.0
vt 0.982758 0.120118 0.0
vt 0.827469 0.267959 0.0
vt 0.768255 0.120492 0.0
vt 0.943600 0.112983 0.0
vt 0.827469 0.267959 0.0
vt 0.759721 0.279458 0.0
vt 0.768255 0.120492 0.0
vt 0.765346 0.336281 0.0
vt 0.759721 0.279458 0.0
vt 0.827469 0.267959 0.0
vt 0.827469 0.267959 0.0
vt 0.834337 0.330254 0.0
vt 0.765346 0.336281 0.0
vt 0.774350 0.394541 0.0
vt 0.765346 0.336281 0.0
vt 0.834337 0.330254 0.0
vt 0.834337 0.330254 0.0
vt 0.827469 0.267959 0.0
vt 0.938903 0.277914 0.0
vt 0.952336 0.273455 0.0
vt 0.944893 0.340968 0.0
vt 0.834337 0.330254 0.0
vt 0.774350 0.394541 0.0
vt 0.834337 0.330254 0.0
vt 0.944893 0.340968 0.0
vt 0.944893 0.340968 0.0
vt 0.952336 0.273455 0.0
vt 0.983555 0.279314 0.0
vt 0.595825 0.834232 0.0
vt 0.553504 0.714840 0.0
vt 0.652428 0.727672 0.0
vt 0.657063 0.840753 0.0
vt 0.595825 0.834232 0.0
vt 0.652428 0.727672 0.0
vt 0.595825 0.834232 0.0
vt 0.554143 0.825813 0.0
vt 0.553504 0.714840 0.0
vt 0.483323 0.834232 0.0
vt 0.425667 0.729429 0.0
vt 0.553504 0.714840 0.0
vt 0.554143 0.825813 0.0
vt 0.483323 0.834232 0.0
vt 0.553504 0.714840 0.0
vt 0.483323 0.834232 0.0
vt 0.425028 0.841618 0.0
vt 0.425667 0.729429 0.0
vt 0.368777 0.836177 0.0
vt 0.312526 0.730037 0.0
vt 0.425667 0.729429 0.0
vt 0.425028 0.841618 0.0
vt 0.368777 0.836177 0.0
vt 0.425667 0.729429 0.0
vt 0.368777 0.836177 0.0
vt 0.312526 0.841618 0.0
vt 0.312526 0.730037 0.0
vt 0.256275 0.836177 0.0
vt 0.200024 0.730037 0.0
vt 0.312526 0.730037 0.0
vt 0.312526 0.841618 0.0
vt 0.256275 0.836177 0.0
vt 0.312526 0.730037 0.0
vt 0.256275 0.836177 0.0
vt 0.200024 0.841618 0.0
vt 0.200024 0.730037 0.0
vt 0.143773 0.836177 0.0
vt 0.098772 0.730037 0.0
vt 0.200024 0.730037 0.0
vt 0.200024 0.841618 0.0
vt 0.143773 0.836177 0.0
vt 0.200024 0.730037 0.0
vt 0.143773 0.836177 0.0
vt 0.092210 0.841311 0.0
vt 0.098772 0.730037 0.0
vt 0.773976 0.952697 0.0
vt 0.766586 0.929728 0.0
vt 0.928631 0.948010 0.0
vt 0.766586 0.929728 0.0
vt 0.773976 0.901134 0.0
vt 0.928631 0.948010 0.0
vt 0.773976 0.901134 0.0
vt 0.766586 0.870665 0.0
vt 0.937600 0.893768 0.0
vt 0.766586 0.870665 0.0
vt 0.779077 0.841133 0.0
vt 0.937600 0.893768 0.0
vt 0.779077 0.841133 0.0
vt 0.711908 0.842539 0.0
vt 0.766314 0.786288 0.0
vt 0.711908 0.842539 0.0
vt 0.657063 0.840753 0.0
vt 0.766314 0.786288 0.0
vt 0.706282 0.874738 0.0
vt 0.773976 0.901134 0.0
vt 0.706282 0.926301 0.0
vt 0.706282 0.926301 0.0
vt 0.652844 0.931999 0.0
vt 0.706282 0.874738 0.0
vt 0.657063 0.840753 0.0
vt 0.706282 0.874738 0.0
vt 0.652844 0.931999 0.0
vt 0.652844 0.931999 0.0
vt 0.706282 0.926301 0.0
vt 0.653547 0.952362 0.0
vt 0.711908 0.842539 0.0
vt 0.779077 0.841133 0.0
vt 0.766586 0.870665 0.0
vt 0.766586 0.870665 0.0
vt 0.706282 0.874738 0.0
vt 0.711908 0.842539 0.0
vt 0.657063 0.840753 0.0
vt 0.711908 0.842539 0.0
vt 0.706282 0.874738 0.0
vt 0.706282 0.874738 0.0
vt 0.766586 0.870665 0.0
vt 0.773976 0.901134 0.0
vt 0.706282 0.926301 0.0
vt 0.773976 0.901134 0.0
vt 0.766586 0.929728 0.0
vt 0.766586 0.929728 0.0
vt 0.709798 0.951525 0.0
vt 0.706282 0.926301 0.0
vt 0.653547 0.952362 0.0
vt 0.706282 0.926301 0.0
vt 0.709798 0.951525 0.0
vt 0.709798 0.951525 0.0
vt 0.766586 0.929728 0.0
vt 0.773976 0.952697 0.0
vt 0.952336 0.273455 0.0
vt 0.957292 0.189932 0.0
vt 0.982758 0.120118 0.0
vt 0.957292 0.189932 0.0
vt 0.943600 0.112983 0.0
vt 0.982758 0.120118 0.0
vt 0.957292 0.189932 0.0
vt 0.952336 0.273455 0.0
vt 0.948854 0.273832 0.0
vt 0.948854 0.273832 0.0
vt 0.949186 0.198942 0.0
vt 0.957292 0.189932 0.0
vt 0.943600 0.112983 0.0
vt 0.957292 0.189932 0.0
vt 0.949186 0.198942 0.0
vt 0.949186 0.198942 0.0
vt 0.948854 0.273832 0.0
vt 0.938903 0.277914 0.0
vt 0.943600 0.112983 0.0
vt 0.949186 0.198942 0.0
vt 0.827469 0.267959 0.0
vt 0.949186 0.198942 0.0
vt 0.938903 0.277914 0.0
vt 0.827469 0.267959 0.0
vt 0.938903 0.277914 0.0
vt 0.948854 0.273832 0.0
vt 0.834337 0.330254 0.0
vt 0.948854 0.273832 0.0
vt 0.952336 0.273455 0.0
vt 0.834337 0.330254 0.0
vt 0.092210 0.933382 0.0
vt 0.143773 0.935112 0.0
vt 0.094553 0.953199 0.0
vt 0.143773 0.935112 0.0
vt 0.143773 0.953813 0.0
vt 0.094553 0.953199 0.0
vt 0.143773 0.935112 0.0
vt 0.200024 0.935112 0.0
vt 0.200024 0.953813 0.0
vt 0.143773 0.935112 0.0
vt 0.200024 0.953813 0.0
vt 0.143773 0.953813 0.0
vt 0.092210 0.841311 0.0
vt 0.143773 0.836177 0.0
vt 0.143773 0.935112 0.0
vt 0.092210 0.841311 0.0
vt 0.143773 0.935112 0.0
vt 0.092210 0.933382 0.0
vt 0.143773 0.836177 0.0
vt 0.200024 0.841618 0.0
vt 0.143773 0.935112 0.0
vt 0.200024 0.841618 0.0
vt 0.200024 0.935112 0.0
vt 0.143773 0.935112 0.0
vt 0.200024 0.935112 0.0
vt 0.256275 0.935112 0.0
vt 0.200024 0.953813 0.0
vt 0.256275 0.935112 0.0
vt 0.256275 0.953813 0.0
vt 0.200024 0.953813 0.0
vt 0.256275 0.935112 0.0
vt 0.312526 0.935112 0.0
vt 0.312526 0.953813 0.0
vt 0.256275 0.935112 0.0
vt 0.312526 0.953813 0.0
vt 0.256275 0.953813 0.0
vt 0.200024 0.841618 0.0
vt 0.256275 0.836177 0.0
vt 0.256275 0.935112 0.0
vt 0.200024 0.841618 0.0
vt 0.256275 0.935112 0.0
vt 0.200024 0.935112 0.0
vt 0.256275 0.836177 0.0
vt 0.312526 0.841618 0.0
vt 0.312526 0.935112 0.0
vt 0.256275 0.836177 0.0
vt 0.312526 0.935112 0.0
vt 0.256275 0.935112 0.0
vt 0.312526 0.935112 0.0
vt 0.368777 0.935112 0.0
vt 0.368777 0.953813 0.0
vt 0.312526 0.935112 0.0
vt 0.368777 0.953813 0.0
vt 0.312526 0.953813 0.0
vt 0.368777 0.935112 0.0
vt 0.425028 0.935112 0.0
vt 0.368777 0.953813 0.0
vt 0.425028 0.935112 0.0
vt 0.425028 0.953813 0.0
vt 0.368777 0.953813 0.0
vt 0.312526 0.841618 0.0
vt 0.368777 0.836177 0.0
vt 0.368777 0.935112 0.0
vt 0.312526 0.841618 0.0
vt 0.368777 0.935112 0.0
vt 0.312526 0.935112 0.0
vt 0.368777 0.836177 0.0
vt 0.425028 0.841618 0.0
vt 0.368777 0.935112 0.0
vt 0.425028 0.841618 0.0
vt 0.425028 0.935112 0.0
vt 0.368777 0.935112 0.0
vt 0.425028 0.935112 0.0
vt 0.481279 0.935112 0.0
vt 0.481279 0.953813 0.0
vt 0.425028 0.935112 0.0
vt 0.481279 0.953813 0.0
vt 0.425028 0.953813 0.0
vt 0.481279 0.935112 0.0
vt 0.538807 0.933896 0.0
vt 0.537530 0.953813 0.0
vt 0.481279 0.935112 0.0
vt 0.537530 0.953813 0.0
vt 0.481279 0.953813 0.0
vt 0.425028 0.841618 0.0
vt 0.483323 0.834232 0.0
vt 0.481279 0.935112 0.0
vt 0.425028 0.841618 0.0
vt 0.481279 0.935112 0.0
vt 0.425028 0.935112 0.0
vt 0.483323 0.834232 0.0
vt 0.554143 0.825813 0.0
vt 0.538807 0.933896 0.0
vt 0.483323 0.834232 0.0
vt 0.538807 0.933896 0.0
vt 0.481279 0.935112 0.0
vt 0.538807 0.933896 0.0
vt 0.593780 0.935112 0.0
vt 0.593781 0.953813 0.0
vt 0.538807 0.933896 0.0
vt 0.593781 0.953813 0.0
vt 0.537530 0.953813 0.0
vt 0.593780 0.935112 0.0
vt 0.652844 0.931999 0.0
vt 0.653547 0.952362 0.0
vt 0.593780 0.935112 0.0
vt 0.653547 0.952362 0.0
vt 0.593781 0.953813 0.0
vt 0.554143 0.825813 0.0
vt 0.595825 0.834232 0.0
vt 0.593780 0.935112 0.0
vt 0.554143 0.825813 0.0
vt 0.593780 0.935112 0.0
vt 0.538807 0.933896 0.0
vt 0.595825 0.834232 0.0
vt 0.657063 0.840753 0.0
vt 0.652844 0.931999 0.0
vt 0.595825 0.834232 0.0
vt 0.652844 0.931999 0.0
vt 0.593780 0.935112 0.0
vt 0.089866 0.533159 0.0
vt 0.115647 0.533159 0.0
vt 0.089866 0.563628 0.0
vt 0.115647 0.533159 0.0
vt 0.115647 0.565503 0.0
vt 0.089866 0.563628 0.0
vt 0.115647 0.533159 0.0
vt 0.143773 0.533159 0.0
vt 0.143773 0.563042 0.0
vt 0.115647 0.533159 0.0
vt 0.143773 0.563042 0.0
vt 0.115647 0.565503 0.0
vt 0.089866 0.502690 0.0
vt 0.114241 0.500815 0.0
vt 0.115647 0.533159 0.0
vt 0.089866 0.502690 0.0
vt 0.115647 0.533159 0.0
vt 0.089866 0.533159 0.0
vt 0.114241 0.500815 0.0
vt 0.142367 0.500815 0.0
vt 0.115647 0.533159 0.0
vt 0.142367 0.500815 0.0
vt 0.143773 0.533159 0.0
vt 0.115647 0.533159 0.0
vt 0.143773 0.533159 0.0
vt 0.171898 0.533159 0.0
vt 0.143773 0.563042 0.0
vt 0.171898 0.533159 0.0
vt 0.171898 0.565503 0.0
vt 0.143773 0.563042 0.0
vt 0.171898 0.533159 0.0
vt 0.200024 0.533159 0.0
vt 0.200024 0.563042 0.0
vt 0.171898 0.533159 0.0
vt 0.200024 0.563042 0.0
vt 0.171898 0.565503 0.0
vt 0.142367 0.500815 0.0
vt 0.170492 0.500815 0.0
vt 0.143773 0.533159 0.0
vt 0.170492 0.500815 0.0
vt 0.171898 0.533159 0.0
vt 0.143773 0.533159 0.0
vt 0.170492 0.500815 0.0
vt 0.200024 0.500815 0.0
vt 0.171898 0.533159 0.0
vt 0.200024 0.500815 0.0
vt 0.200024 0.533159 0.0
vt 0.171898 0.533159 0.0
vt 0.200024 0.533159 0.0
vt 0.228149 0.533159 0.0
vt 0.200024 0.563042 0.0
vt 0.228149 0.533159 0.0
vt 0.228149 0.565503 0.0
vt 0.200024 0.563042 0.0
vt 0.228149 0.533159 0.0
vt 0.256275 0.533159 0.0
vt 0.228149 0.565503 0.0
vt 0.256275 0.533159 0.0
vt 0.256275 0.563042 0.0
vt 0.228149 0.565503 0.0
vt 0.200024 0.500815 0.0
vt 0.229556 0.500815 0.0
vt 0.228149 0.533159 0.0
vt 0.200024 0.500815 0.0
vt 0.228149 0.533159 0.0
vt 0.200024 0.533159 0.0
vt 0.229556 0.500815 0.0
vt 0.257681 0.500815 0.0
vt 0.256275 0.533159 0.0
vt 0.229556 0.500815 0.0
vt 0.256275 0.533159 0.0
vt 0.228149 0.533159 0.0
vt 0.256275 0.533159 0.0
vt 0.284400 0.533159 0.0
vt 0.256275 0.563042 0.0
vt 0.284400 0.533159 0.0
vt 0.284400 0.565503 0.0
vt 0.256275 0.563042 0.0
vt 0.284400 0.533159 0.0
vt 0.312526 0.533159 0.0
vt 0.284400 0.565503 0.0
vt 0.312526 0.533159 0.0
vt 0.312526 0.563042 0.0
vt 0.284400 0.565503 0.0
vt 0.257681 0.500815 0.0
vt 0.285807 0.500815 0.0
vt 0.256275 0.533159 0.0
vt 0.285807 0.500815 0.0
vt 0.284400 0.533159 0.0
vt 0.256275 0.533159 0.0
vt 0.285807 0.500815 0.0
vt 0.312526 0.503276 0.0
vt 0.312526 0.533159 0.0
vt 0.285807 0.500815 0.0
vt 0.312526 0.533159 0.0
vt 0.284400 0.533159 0.0
vt 0.312526 0.533159 0.0
vt 0.340651 0.533159 0.0
vt 0.312526 0.563042 0.0
vt 0.340651 0.533159 0.0
vt 0.340651 0.565503 0.0
vt 0.312526 0.563042 0.0
vt 0.340651 0.533159 0.0
vt 0.368777 0.533159 0.0
vt 0.368777 0.563042 0.0
vt 0.340651 0.533159 0.0
vt 0.368777 0.563042 0.0
vt 0.340651 0.565503 0.0
vt 0.312526 0.503276 0.0
vt 0.339245 0.500815 0.0
vt 0.312526 0.533159 0.0
vt 0.339245 0.500815 0.0
vt 0.340651 0.533159 0.0
vt 0.312526 0.533159 0.0
vt 0.339245 0.500815 0.0
vt 0.367370 0.500815 0.0
vt 0.340651 0.533159 0.0
vt 0.367370 0.500815 0.0
vt 0.368777 0.533159 0.0
vt 0.340651 0.533159 0.0
vt 0.368777 0.533159 0.0
vt 0.396902 0.533159 0.0
vt 0.368777 0.563042 0.0
vt 0.396902 0.533159 0.0
vt 0.396902 0.565503 0.0
vt 0.368777 0.563042 0.0
vt 0.396902 0.533159 0.0
vt 0.425028 0.533159 0.0
vt 0.425028 0.563042 0.0
vt 0.396902 0.533159 0.0
vt 0.425028 0.563042 0.0
vt 0.396902 0.565503 0.0
vt 0.367370 0.500815 0.0
vt 0.395496 0.500815 0.0
vt 0.368777 0.533159 0.0
vt 0.395496 0.500815 0.0
vt 0.396902 0.533159 0.0
vt 0.368777 0.533159 0.0
vt 0.395496 0.500815 0.0
vt 0.425028 0.500815 0.0
vt 0.425028 0.533159 0.0
vt 0.395496 0.500815 0.0
vt 0.425028 0.533159 0.0
vt 0.396902 0.533159 0.0
vt 0.425028 0.533159 0.0
vt 0.453153 0.533159 0.0
vt 0.453153 0.565503 0.0
vt 0.425028 0.533159 0.0
vt 0.453153 0.565503 0.0
vt 0.425028 0.563042 0.0
vt 0.453153 0.533159 0.0
vt 0.481279 0.533159 0.0
vt 0.481279 0.563042 0.0
vt 0.453153 0.533159 0.0
vt 0.481279 0.563042 0.0
vt 0.453153 0.565503 0.0
vt 0.425028 0.500815 0.0
vt 0.454559 0.500815 0.0
vt 0.425028 0.533159 0.0
vt 0.454559 0.500815 0.0
vt 0.453153 0.533159 0.0
vt 0.425028 0.533159 0.0
vt 0.454559 0.500815 0.0
vt 0.482685 0.500815 0.0
vt 0.481279 0.533159 0.0
vt 0.454559 0.500815 0.0
vt 0.481279 0.533159 0.0
vt 0.453153 0.533159 0.0
vt 0.481279 0.533159 0.0
vt 0.509404 0.533159 0.0
vt 0.509404 0.565503 0.0
vt 0.481279 0.533159 0.0
vt 0.509404 0.565503 0.0
vt 0.481279 0.563042 0.0
vt 0.509404 0.533159 0.0
vt 0.536651 0.532280 0.0
vt 0.539287 0.563042 0.0
vt 0.509404 0.533159 0.0
vt 0.539287 0.563042 0.0
vt 0.509404 0.565503 0.0
vt 0.482685 0.500815 0.0
vt 0.510810 0.500815 0.0
vt 0.481279 0.533159 0.0
vt 0.510810 0.500815 0.0
vt 0.509404 0.533159 0.0
vt 0.481279 0.533159 0.0
vt 0.510810 0.500815 0.0
vt 0.537530 0.503276 0.0
vt 0.536651 0.532280 0.0
vt 0.510810 0.500815 0.0
vt 0.536651 0.532280 0.0
vt 0.509404 0.533159 0.0
vt 0.591671 0.559175 0.0
vt 0.555108 0.522612 0.0
vt 0.593780 0.499408 0.0
vt 0.555108 0.522612 0.0
vt 0.563546 0.500112 0.0
vt 0.593780 0.499408 0.0
vt 0.539287 0.563042 0.0
vt 0.536651 0.532280 0.0
vt 0.555108 0.522612 0.0
vt 0.539287 0.563042 0.0
vt 0.555108 0.522612 0.0
vt 0.591671 0.559175 0.0
vt 0.537530 0.503276 0.0
vt 0.563546 0.500112 0.0
vt 0.555108 0.522612 0.0
vt 0.537530 0.503276 0.0
vt 0.555108 0.522612 0.0
vt 0.536651 0.532280 0.0
vt 0.764084 0.060627 0.0
vt 0.942583 0.058760 0.0
vt 0.943600 0.112983 0.0
vt 0.764084 0.060627 0.0
vt 0.943600 0.112983 0.0
vt 0.768255 0.120492 0.0
vt 0.942583 0.058760 0.0
vt 0.983607 0.060627 0.0
vt 0.982758 0.120118 0.0
vt 0.942583 0.058760 0.0
vt 0.982758 0.120118 0.0
vt 0.943600 0.112983 0.0
vt 0.539287 0.563042 0.0
vt 0.591671 0.559175 0.0
vt 0.537146 0.616563 0.0
vt 0.591671 0.559175 0.0
vt 0.594803 0.625000 0.0
vt 0.537146 0.616563 0.0
vt 0.591671 0.559175 0.0
vt 0.650031 0.561284 0.0
vt 0.594803 0.625000 0.0
vt 0.650031 0.561284 0.0
vt 0.650031 0.621051 0.0
vt 0.594803 0.625000 0.0
vt 0.593780 0.499408 0.0
vt 0.650031 0.496596 0.0
vt 0.591671 0.559175 0.0
vt 0.650031 0.496596 0.0
vt 0.650031 0.561284 0.0
vt 0.591671 0.559175 0.0
vt 0.650031 0.561284 0.0
vt 0.710970 0.561284 0.0
vt 0.710300 0.624567 0.0
vt 0.650031 0.561284 0.0
vt 0.710300 0.624567 0.0
vt 0.650031 0.621051 0.0
vt 0.650031 0.496596 0.0
vt 0.712309 0.498002 0.0
vt 0.650031 0.561284 0.0
vt 0.712309 0.498002 0.0
vt 0.710970 0.561284 0.0
vt 0.650031 0.561284 0.0
vn -0.034547 0.991913 0.121952
vn 0.573748 0.811060 -0.113804
vn 0.394879 0.792627 0.464492
vn -0.299661 0.948851 0.099307
vn 0.247719 0.923276 -0.293527
vn 0.076449 0.997040 0.002991
vn 0.749718 0.642384 -0.158727
vn 0.421461 0.829676 0.366008
vn 0.374950 0.739586 0.558916
vn -0.357982 0.847530 -0.391766
vn -0.164953 0.975066 -0.148381
vn -0.097049 0.985748 0.137394
vn -0.203406 0.915067 -0.348186
vn 0.104495 0.920621 -0.376171
vn -0.078249 0.987793 0.134465
vn -0.021882 0.846583 -0.531785
vn -0.348216 0.864864 -0.361553
vn -0.430586 0.892544 0.133885
vn -0.145116 0.911649 -0.384442
vn -0.055574 0.936155 -0.347087
vn 0.224067 0.971129 0.081423
vn 0.282174 0.652974 -0.702841
vn 0.435987 0.609973 -0.661672
vn 0.366649 0.928678 -0.055544
vn 0.257424 0.738395 -0.623249
vn 0.026856 0.749168 -0.661794
vn 0.049715 0.987030 -0.152562
vn 0.011505 0.757836 -0.652303
vn -0.213904 0.856471 -0.469710
vn 0.020264 0.698111 -0.715690
vn -0.004120 0.355358 -0.934690
vn -0.044618 0.397443 -0.916501
vn 0.030213 0.388470 -0.920957
vn -0.135838 0.930967 -0.338786
vn -0.009461 0.993011 -0.117588
vn -0.434278 0.900723 0.008271
vn 0.353374 0.926328 0.130314
vn 0.262032 0.886380 -0.381603
vn 0.229408 0.859951 -0.455855
vn -0.011505 0.963408 0.267708
vn -0.072848 0.873348 -0.481582
vn 0.056825 0.417890 -0.906674
vn -0.059847 0.413282 -0.908597
vn 0.289102 0.921262 0.260079
vn -0.260109 0.939665 0.222114
vn -0.168981 0.913450 -0.370128
vn -0.034242 0.922269 0.384960
vn -0.005097 0.835322 -0.549699
vn 0.000000 0.950438 0.310862
vn 0.011994 0.834834 -0.550340
vn -0.004486 0.367229 -0.930082
vn 0.054445 0.389172 -0.919553
vn -0.005066 0.944823 0.327494
vn 0.020112 0.948424 0.316294
vn 0.052614 0.896847 -0.439131
vn 0.059450 0.901028 0.429640
vn 0.607196 0.671163 0.425184
vn 0.121830 0.942228 0.311991
vn 0.325571 0.921537 -0.211554
vn -0.020295 0.939573 -0.341716
vn -0.128361 0.804132 0.580401
vn 0.226875 0.788812 0.571184
vn 0.224494 0.876400 0.426008
vn -0.340281 0.844111 0.414289
vn -0.109531 0.799371 0.590747
vn -0.056368 0.939451 -0.337931
vn 0.161382 0.951842 0.260598
vn 0.192572 0.920438 -0.340068
vn 0.259163 0.927335 -0.269875
vn 0.380261 0.869198 0.315989
vn 0.075716 0.813654 0.576342
vn 0.330241 0.851161 -0.407941
vn -0.022675 0.904904 0.424970
vn -0.317454 0.901486 -0.294137
vn 0.394055 0.895627 -0.206244
vn 0.258126 0.776971 0.574145
vn 0.002625 0.806635 0.591021
vn -0.008026 0.824122 0.566301
vn -0.258309 0.778344 0.572192
vn 0.412275 0.896878 -0.159978
vn -0.396527 0.892697 -0.213996
vn 0.001709 0.833766 0.552049
vn 0.006104 0.802332 0.596820
vn -0.005768 0.968871 0.247383
vn 0.208502 0.940458 0.268319
vn -0.001190 0.802057 0.597217
vn 0.356670 0.929380 -0.094729
vn -0.063814 0.900174 0.430738
vn -0.416761 0.868099 -0.269539
vn -0.352519 0.922910 -0.154607
vn -0.231635 0.935331 0.267281
vn -0.025513 0.815699 0.577868
vn -0.350627 0.918149 -0.184484
vn 0.033601 0.896420 0.441908
vn 0.314035 0.941496 -0.122135
vn 0.026429 0.992218 -0.121616
vn -0.004975 0.902402 0.430830
vn 0.010254 0.820978 0.570818
vn -0.028016 0.820826 0.570421
vn -0.011231 0.913938 0.405683
vn -0.005310 0.992706 -0.120243
vn -0.009705 0.988159 -0.153050
vn -0.079684 0.425703 -0.901334
vn -0.109409 0.422803 -0.899564
vn 0.213660 0.436354 -0.874020
vn -0.114689 0.382488 -0.916776
vn -0.029633 0.368908 -0.928983
vn 0.052461 0.372875 -0.926389
vn 0.049165 0.403485 -0.913633
vn 0.049348 0.384960 -0.921598
vn 0.095279 0.399213 -0.911863
vn 0.176092 0.414594 -0.892788
vn 0.173803 0.481124 -0.859218
vn 0.185858 0.506455 -0.841975
vn 0.104892 0.556658 -0.824061
vn 0.012116 0.540239 -0.841395
vn 0.000000 0.569384 -0.822047
vn -0.011719 0.560656 -0.827937
vn 0.004059 0.558397 -0.829524
vn -0.558336 0.736198 -0.382397
vn -0.219398 0.853053 -0.473403
vn -0.499496 0.866176 0.014008
vn -0.937803 0.341929 -0.059725
vn -0.962523 0.271126 -0.004395
vn -0.938261 0.338511 0.071108
vn -0.535630 0.844417 -0.002594
vn -0.291971 0.855312 -0.427961
vn -0.612995 0.789148 0.038331
vn -0.143468 0.987671 0.062410
vn -0.545000 0.790033 0.280679
vn -0.950743 0.309275 0.019684
vn -0.935820 0.347484 0.058748
vn 0.041231 0.977477 0.206854
vn -0.484451 0.873897 0.039613
vn -0.147588 0.917081 0.370281
vn -0.137669 0.956298 0.257912
vn -0.621326 0.783502 0.007080
vn -0.633229 0.772607 0.045595
vn -0.958007 0.286630 0.007111
vn -0.968474 0.243995 0.049806
vn -0.549028 0.834529 0.045381
vn 0.150578 0.988495 -0.013031
vn 0.097873 0.994995 -0.019196
vn 0.254891 0.931852 -0.258126
vn -0.291391 0.956542 -0.009766
vn -0.511979 0.774407 0.371654
vn -0.094302 0.867916 0.487655
vn 0.104953 0.990844 -0.084597
vn -0.230995 0.966796 0.109134
vn -0.695456 0.586749 0.414716
vn -0.817530 0.453505 -0.354808
vn 0.141636 0.979369 -0.144017
vn -0.357097 0.814600 -0.457015
vn -0.049135 0.998627 0.016419
vn 0.363079 0.758507 -0.541124
vn 0.157079 0.943907 0.290353
vn 0.059481 0.954161 0.293283
vn -0.128971 0.923826 0.360363
vn -0.470656 0.786370 0.400067
vn -0.172979 0.862148 0.476180
vn 0.449629 0.650319 0.612262
vn 0.263802 0.886349 0.380444
vn 0.047121 0.945555 0.321940
vn 0.014954 0.951964 0.305734
vn 0.012421 0.947172 0.320414
vn 0.143498 0.989227 0.027863
vn 0.149083 0.988037 0.038697
vn -0.153844 0.987274 0.040040
vn -0.246071 0.963836 0.102115
vn -0.134434 0.922941 0.360607
vn 0.048616 0.853236 0.519242
vn -0.059389 0.723563 0.687643
vn 0.062166 0.716330 0.694937
vn 0.333567 0.935759 0.114109
vn -0.831202 0.550340 -0.078585
vn -0.377026 0.926084 0.012391
vn -0.158605 0.983093 -0.091433
vn 0.026856 0.597369 0.801477
vn 0.013062 0.608966 0.793054
vn 0.013642 0.295724 0.955168
vn -0.002289 0.282174 0.959349
vn 0.000000 0.584735 0.811182
vn 0.000000 0.282174 0.959349
vn 0.001221 0.597095 0.802149
vn 0.043855 0.589282 0.806726
vn -0.017792 0.585009 0.810816
vn 0.000000 0.264870 0.964263
vn -0.036744 0.567064 0.822840
vn -0.024812 0.637654 0.769921
vn 0.005310 0.282174 0.959319
vn 0.058870 0.680624 0.730216
vn 0.041780 0.304117 0.951689
vn 0.144505 0.674856 0.723624
vn 0.111179 0.327036 0.938414
vn 0.000000 0.721335 -0.692557
vn -0.001831 0.716697 -0.697348
vn 0.003693 0.752129 -0.658986
vn 0.179785 0.855098 -0.486282
vn 0.118442 0.897092 -0.425642
vn 0.140965 0.856105 -0.497147
vn -0.070101 0.788293 -0.611255
vn 0.117679 0.527787 -0.841151
vn -0.110813 0.445723 -0.888272
vn 0.168798 0.432875 -0.885495
vn 0.047273 0.495926 -0.867061
vn 0.019227 0.461654 -0.886837
vn -0.015198 0.435163 -0.900204
vn -0.069552 0.466689 -0.881649
vn 0.029450 0.616352 -0.786889
vn -0.072695 0.632038 -0.771508
vn 0.100742 0.640706 -0.761132
vn 0.320566 0.556291 -0.766625
vn 0.279214 0.619098 -0.733970
vn -0.554918 0.491867 -0.670858
vn -0.326640 0.897824 -0.295236
vn -0.016663 0.804559 -0.593585
usemtl (null)
usemtl (null)
s 1
f 67/1/1 31/2/2 66/3/3
s 1
f 66/4/3 51/5/4 67/6/1
s 1
f 58/7/5 67/8/1 52/9/6
s 1
f 67/10/1 58/11/5 31/12/2
s 1
f 66/13/3 31/14/2 57/15/7
s 1
f 19/16/8 66/17/3 50/18/9
s 1
f 72/19/10 24/20/11 37/21/12
s 1
f 43/22/13 72/23/10 37/24/12
s 1
f 74/25/14 37/26/12 21/27/15
s 1
f 34/28/16 74/29/14 21/30/15
s 1
f 74/31/14 43/32/13 37/33/12
s 1
f 75/34/17 21/35/15 39/36/18
s 1
f 45/37/19 75/38/17 39/39/18
s 1
f 75/40/17 34/41/16 21/42/15
s 1
f 77/43/20 39/44/18 25/45/21
s 1
f 40/46/22 77/47/20 25/48/21
s 1
f 77/49/20 45/50/19 39/51/18
s 1
f 78/52/23 25/53/21 41/54/24
s 1
f 46/55/25 78/56/23 41/57/24
s 1
f 78/58/23 40/59/22 25/60/21
s 1
f 80/61/26 41/62/24 17/63/27
s 1
f 30/64/28 80/65/26 17/66/27
s 1
f 80/67/26 46/68/25 41/69/24
s 1
f 125/70/29 51/71/4 124/72/30
s 1
f 124/73/30 87/74/31 125/75/29
s 1
f 10/76/32 125/77/29 87/78/31
s 1
f 87/79/31 124/80/30 5/81/33
s 1
f 95/82/34 22/83/35 100/84/36
s 1
f 100/85/36 125/86/29 95/87/34
s 1
f 10/88/32 95/89/34 125/90/29
s 1
f 125/91/29 100/92/36 51/93/4
s 1
f 124/94/30 51/95/4 99/96/37
s 1
f 99/97/37 93/98/38 124/99/30
s 1
f 5/100/33 124/101/30 93/102/38
s 1
f 93/103/38 99/104/37 19/105/8
s 1
f 127/106/39 53/107/40 126/108/41
s 1
f 126/109/41 89/110/42 127/111/39
s 1
f 5/112/33 127/113/39 89/114/42
s 1
f 89/115/42 126/116/41 11/117/43
s 1
f 93/118/38 19/119/8 101/120/44
s 1
f 101/121/44 127/122/39 93/123/38
s 1
f 5/124/33 93/125/38 127/126/39
s 1
f 127/127/39 101/128/44 53/129/40
s 1
f 126/130/41 53/131/40 102/132/45
s 1
f 102/133/45 96/134/46 126/135/41
s 1
f 11/136/43 126/137/41 96/138/46
s 1
f 96/139/46 102/140/45 23/141/47
s 1
f 129/142/48 54/143/49 128/144/50
s 1
f 128/145/50 90/146/51 129/147/48
s 1
f 11/148/43 129/149/48 90/150/51
s 1
f 90/151/51 128/152/50 3/153/52
s 1
f 96/154/46 23/155/47 104/156/53
s 1
f 104/157/53 129/158/48 96/159/46
s 1
f 11/160/43 96/161/46 129/162/48
s 1
f 129/163/48 104/164/53 54/165/49
s 1
f 128/166/50 54/167/49 103/168/54
s 1
f 103/169/54 92/170/55 128/171/50
s 1
f 3/172/52 128/173/50 92/174/55
s 1
f 92/175/55 103/176/54 16/177/56
s 1
f 51/178/4 100/179/36 67/180/1
s 1
f 100/181/36 22/182/35 67/183/1
s 1
f 19/184/8 99/185/37 66/186/3
s 1
f 99/187/37 51/188/4 66/189/3
s 1
f 57/190/7 130/191/57 66/192/3
s 1
f 130/193/57 50/194/9 66/195/3
s 1
f 98/196/58 50/197/9 130/198/57
s 1
f 130/199/57 107/200/59 98/201/58
s 1
f 9/202/60 98/203/58 107/204/59
s 1
f 107/205/59 130/206/57 57/207/7
s 1
f 131/208/61 69/209/62 119/210/63
s 1
f 119/211/63 118/212/64 131/213/61
s 1
f 68/214/65 131/215/61 118/216/64
s 1
f 118/217/64 119/218/63 32/219/66
s 1
f 69/220/62 131/221/61 53/222/40
s 1
f 131/223/61 68/224/65 53/225/40
s 1
f 53/226/40 101/227/44 69/228/62
s 1
f 101/229/44 19/230/8 69/231/62
s 1
f 23/232/47 102/233/45 68/234/65
s 1
f 102/235/45 53/236/40 68/237/65
s 1
f 132/238/67 50/239/9 98/240/58
s 1
f 98/241/58 109/242/68 132/243/67
s 1
f 59/244/69 132/245/67 109/246/68
s 1
f 109/247/68 98/248/58 9/249/60
s 1
f 132/250/67 59/251/69 133/252/70
s 1
f 133/253/70 134/254/71 132/255/67
s 1
f 50/256/9 132/257/67 134/258/71
s 1
f 134/259/71 133/260/70 69/261/62
s 1
f 50/262/9 134/263/71 19/264/8
s 1
f 134/265/71 69/266/62 19/267/8
s 1
f 119/268/63 69/269/62 133/270/70
s 1
f 133/271/70 108/272/72 119/273/63
s 1
f 32/274/66 119/275/63 108/276/72
s 1
f 108/277/72 133/278/70 59/279/69
s 1
f 135/280/73 68/281/65 118/282/64
s 1
f 118/283/64 110/284/74 135/285/73
s 1
f 60/286/75 135/287/73 110/288/74
s 1
f 110/289/74 118/290/64 32/291/66
s 1
f 135/292/73 60/293/75 136/294/76
s 1
f 136/295/76 137/296/77 135/297/73
s 1
f 68/298/65 135/299/73 137/300/77
s 1
f 137/301/77 136/302/76 55/303/78
s 1
f 68/304/65 137/305/77 23/306/47
s 1
f 137/307/77 55/308/78 23/309/47
s 1
f 105/310/79 55/311/78 136/312/76
s 1
f 136/313/76 111/314/80 105/315/79
s 1
f 20/316/81 105/317/79 111/318/80
s 1
f 111/319/80 136/320/76 60/321/75
s 1
f 138/322/82 71/323/83 121/324/84
s 1
f 121/325/84 120/326/85 138/327/82
s 1
f 70/328/86 138/329/82 120/330/85
s 1
f 120/331/85 121/332/84 33/333/87
s 1
f 71/334/83 138/335/82 54/336/49
s 1
f 138/337/82 70/338/86 54/339/49
s 1
f 54/340/49 104/341/53 71/342/83
s 1
f 104/343/53 23/344/47 71/345/83
s 1
f 16/346/56 103/347/54 70/348/86
s 1
f 103/349/54 54/350/49 70/351/86
s 1
f 139/352/88 55/353/78 105/354/79
s 1
f 105/355/79 114/356/89 139/357/88
s 1
f 62/358/90 139/359/88 114/360/89
s 1
f 114/361/89 105/362/79 20/363/81
s 1
f 139/364/88 62/365/90 140/366/91
s 1
f 140/367/91 141/368/92 139/369/88
s 1
f 55/370/78 139/371/88 141/372/92
s 1
f 141/373/92 140/374/91 71/375/83
s 1
f 55/376/78 141/377/92 23/378/47
s 1
f 141/379/92 71/380/83 23/381/47
s 1
f 121/382/84 71/383/83 140/384/91
s 1
f 140/385/91 115/386/93 121/387/84
s 1
f 33/388/87 121/389/84 115/390/93
s 1
f 115/391/93 140/392/91 62/393/90
s 1
f 142/394/94 70/395/86 120/396/85
s 1
f 120/397/85 113/398/95 142/399/94
s 1
f 61/400/96 142/401/94 113/402/95
s 1
f 113/403/95 120/404/85 33/405/87
s 1
f 142/406/94 61/407/96 143/408/97
s 1
f 143/409/97 144/410/98 142/411/94
s 1
f 70/412/86 142/413/94 144/414/98
s 1
f 144/415/98 143/416/97 49/417/99
s 1
f 70/418/86 144/419/98 16/420/56
s 1
f 144/421/98 49/422/99 16/423/56
s 1
f 97/424/100 49/425/99 143/426/97
s 1
f 143/427/97 112/428/101 97/429/100
s 1
f 8/430/102 97/431/100 112/432/101
s 1
f 112/433/101 143/434/97 61/435/96
s 1
f 145/436/103 34/437/16 75/438/17
s 1
f 83/439/104 145/440/103 75/441/17
s 1
f 145/442/103 63/443/105 34/444/16
s 1
f 147/445/106 75/446/17 45/447/19
s 1
f 76/448/107 147/449/106 45/450/19
s 1
f 147/451/106 83/452/104 75/453/17
s 1
f 148/454/108 45/455/19 77/456/20
s 1
f 84/457/109 148/458/108 77/459/20
s 1
f 148/460/108 76/461/107 45/462/19
s 1
f 150/463/110 77/464/20 40/465/22
s 1
f 65/466/111 150/467/110 40/468/22
s 1
f 150/469/110 84/470/109 77/471/20
s 1
f 151/472/112 40/473/22 78/474/23
s 1
f 85/475/113 151/476/112 78/477/23
s 1
f 151/478/112 65/479/111 40/480/22
s 1
f 153/481/114 78/482/23 46/483/25
s 1
f 79/484/115 153/485/114 46/486/25
s 1
f 153/487/114 85/488/113 78/489/23
s 1
f 154/490/116 46/491/25 80/492/26
s 1
f 86/493/117 154/494/116 80/495/26
s 1
f 154/496/116 79/497/115 46/498/25
s 1
f 156/499/118 80/500/26 30/501/28
s 1
f 56/502/119 156/503/118 30/504/28
s 1
f 156/505/118 86/506/117 80/507/26
s 1
f 177/508/120 36/509/121 176/510/122
s 1
f 176/511/122 167/512/123 177/513/120
s 1
f 12/514/124 177/515/120 167/516/123
s 1
f 167/517/123 176/518/122 6/519/125
s 1
f 172/520/126 24/521/11 173/522/127
s 1
f 173/523/127 177/524/120 172/525/126
s 1
f 12/526/124 172/527/126 177/528/120
s 1
f 177/529/120 173/530/127 36/531/121
s 1
f 179/532/128 38/533/129 178/534/130
s 1
f 178/535/130 168/536/131 179/537/128
s 1
f 1/538/132 179/539/128 168/540/131
s 1
f 168/541/131 178/542/130 12/543/124
s 1
f 174/544/133 179/545/128 170/546/134
s 1
f 1/547/132 170/548/134 179/549/128
s 1
f 178/550/130 38/551/129 175/552/135
s 1
f 175/553/135 172/554/126 178/555/130
s 1
f 12/556/124 178/557/130 172/558/126
s 1
f 172/559/126 175/560/135 24/561/11
s 1
f 175/562/135 44/563/136 37/564/12
s 1
f 24/565/11 175/566/135 37/567/12
s 1
f 185/568/137 52/569/6 184/570/138
s 1
f 184/571/138 169/572/139 185/573/137
s 1
f 6/574/125 185/575/137 169/576/139
s 1
f 169/577/139 184/578/138 13/579/140
s 1
f 171/580/141 18/581/142 180/582/143
s 1
f 180/583/143 185/584/137 171/585/141
s 1
f 6/586/125 171/587/141 185/588/137
s 1
f 185/589/137 180/590/143 52/591/6
s 1
f 52/592/6 180/593/143 58/594/5
s 1
f 180/595/143 18/596/142 58/597/5
s 1
f 22/598/35 181/599/144 67/600/1
s 1
f 181/601/144 52/602/6 67/603/1
s 1
f 176/604/122 36/605/121 183/606/145
s 1
f 183/607/145 186/608/146 176/609/122
s 1
f 6/610/125 176/611/122 186/612/146
s 1
f 186/613/146 183/614/145 64/615/147
s 1
f 186/616/146 64/617/147 182/618/148
s 1
f 182/619/148 171/620/141 186/621/146
s 1
f 6/622/125 186/623/146 171/624/141
s 1
f 171/625/141 182/626/148 18/627/142
s 1
f 182/628/148 81/629/149 58/630/5
s 1
f 18/631/142 182/632/148 58/633/5
s 1
f 182/634/148 64/635/147 81/636/149
s 1
f 183/637/145 72/638/10 81/639/149
s 1
f 64/640/147 183/641/145 81/642/149
s 1
f 183/643/145 36/644/121 72/645/10
s 1
f 36/646/121 173/647/127 72/648/10
s 1
f 173/649/127 24/650/11 72/651/10
s 1
f 13/652/140 187/653/150 91/654/151
s 1
f 188/655/152 95/656/34 157/657/153
s 1
f 188/658/152 22/659/35 95/660/34
s 1
f 181/661/144 22/662/35 188/663/152
s 1
f 188/664/152 189/665/154 181/666/144
s 1
f 52/667/6 181/668/144 189/669/154
s 1
f 189/670/154 188/671/152 94/672/155
s 1
f 187/673/150 184/674/138 189/675/154
s 1
f 52/676/6 189/677/154 184/678/138
s 1
f 184/679/138 187/680/150 13/681/140
s 1
f 200/682/156 21/683/15 37/684/12
s 1
f 44/685/136 200/686/156 37/687/12
s 1
f 200/688/156 35/689/157 21/690/15
s 1
f 202/691/158 39/692/18 21/693/15
s 1
f 35/694/157 202/695/158 21/696/15
s 1
f 202/697/158 47/698/159 39/699/18
s 1
f 203/700/160 25/701/21 39/702/18
s 1
f 47/703/159 203/704/160 39/705/18
s 1
f 203/706/160 42/707/161 25/708/21
s 1
f 205/709/162 41/710/24 25/711/21
s 1
f 42/712/161 205/713/162 25/714/21
s 1
f 205/715/162 48/716/163 41/717/24
s 1
f 206/718/164 17/719/27 41/720/24
s 1
f 48/721/163 206/722/164 41/723/24
s 1
f 206/724/164 29/725/165 17/726/27
s 1
f 14/727/166 209/728/167 170/729/134
s 1
f 209/730/167 174/731/133 170/732/134
s 1
f 174/733/133 210/734/168 179/735/128
s 1
f 210/736/168 38/737/129 179/738/128
s 1
f 38/739/129 199/740/169 175/741/135
s 1
f 199/742/169 44/743/136 175/744/135
s 1
f 213/745/170 174/746/133 212/747/171
s 1
f 212/748/171 201/749/172 213/750/170
s 1
f 44/751/136 213/752/170 201/753/172
s 1
f 201/754/172 212/755/171 26/756/173
s 1
f 199/757/169 38/758/129 210/759/168
s 1
f 210/760/168 213/761/170 199/762/169
s 1
f 44/763/136 199/764/169 213/765/170
s 1
f 213/766/170 210/767/168 174/768/133
s 1
f 212/769/171 174/770/133 209/771/167
s 1
f 209/772/167 191/773/174 212/774/171
s 1
f 26/775/173 212/776/171 191/777/174
s 1
f 191/778/174 209/779/167 14/780/166
s 1
f 187/781/150 214/782/175 91/783/151
s 1
f 214/784/175 157/785/153 91/786/151
s 1
f 214/787/175 187/788/150 211/789/176
s 1
f 211/790/176 208/791/177 214/792/175
s 1
f 157/793/153 214/794/175 208/795/177
s 1
f 208/796/177 211/797/176 94/798/155
s 1
f 157/799/153 208/800/177 188/801/152
s 1
f 208/802/177 94/803/155 188/804/152
s 1
f 94/805/155 211/806/176 189/807/154
s 1
f 211/808/176 187/809/150 189/810/154
s 1
f 196/811/178 219/812/179 4/813/180
s 1
f 219/814/179 192/815/181 4/816/180
s 1
f 219/817/179 207/818/182 27/819/183
s 1
f 219/820/179 27/821/183 192/822/181
s 1
f 29/823/165 206/824/164 219/825/179
s 1
f 29/826/165 219/827/179 196/828/178
s 1
f 206/829/164 48/830/163 219/831/179
s 1
f 48/832/163 207/833/182 219/834/179
s 1
f 207/835/182 218/836/184 27/837/183
s 1
f 218/838/184 193/839/183 27/840/183
s 1
f 218/841/184 198/842/185 15/843/183
s 1
f 218/844/184 15/845/183 193/846/183
s 1
f 48/847/163 205/848/162 218/849/184
s 1
f 48/850/163 218/851/184 207/852/182
s 1
f 205/853/162 42/854/161 198/855/185
s 1
f 205/856/162 198/857/185 218/858/184
s 1
f 198/859/185 217/860/186 195/861/187
s 1
f 198/862/185 195/863/187 15/864/183
s 1
f 217/865/186 204/866/188 195/867/187
s 1
f 204/868/188 28/869/183 195/870/187
s 1
f 42/871/161 203/872/160 217/873/186
s 1
f 42/874/161 217/875/186 198/876/185
s 1
f 203/877/160 47/878/159 217/879/186
s 1
f 47/880/159 204/881/188 217/882/186
s 1
f 204/883/188 216/884/189 194/885/190
s 1
f 204/886/188 194/887/190 28/888/183
s 1
f 216/889/189 197/890/191 7/891/192
s 1
f 216/892/189 7/893/192 194/894/190
s 1
f 47/895/159 202/896/158 216/897/189
s 1
f 47/898/159 216/899/189 204/900/188
s 1
f 202/901/158 35/902/157 197/903/191
s 1
f 202/904/158 197/905/191 216/906/189
s 1
f 197/907/191 215/908/193 190/909/194
s 1
f 197/910/191 190/911/194 7/912/192
s 1
f 215/913/193 201/914/172 26/915/173
s 1
f 215/916/193 26/917/173 190/918/194
s 1
f 35/919/157 200/920/156 215/921/193
s 1
f 35/922/157 215/923/193 197/924/191
s 1
f 200/925/156 44/926/136 201/927/172
s 1
f 200/928/156 201/929/172 215/930/193
s 1
f 106/931/195 166/932/196 56/933/119
s 1
f 166/934/196 156/935/118 56/936/119
s 1
f 166/937/196 155/938/197 86/939/117
s 1
f 166/940/196 86/941/117 156/942/118
s 1
f 8/943/102 112/944/101 166/945/196
s 1
f 8/946/102 166/947/196 106/948/195
s 1
f 112/949/101 61/950/96 166/951/196
s 1
f 61/952/96 155/953/197 166/954/196
s 1
f 155/955/197 165/956/198 86/957/117
s 1
f 165/958/198 154/959/116 86/960/117
s 1
f 165/961/198 123/962/199 79/963/115
s 1
f 165/964/198 79/965/115 154/966/116
s 1
f 61/967/96 113/968/95 155/969/197
s 1
f 113/970/95 165/971/198 155/972/197
s 1
f 113/973/95 33/974/87 165/975/198
s 1
f 33/976/87 123/977/199 165/978/198
s 1
f 123/979/199 164/980/200 79/981/115
s 1
f 164/982/200 153/983/114 79/984/115
s 1
f 164/985/200 152/986/201 153/987/114
s 1
f 152/988/201 85/989/113 153/990/114
s 1
f 33/991/87 115/992/93 164/993/200
s 1
f 33/994/87 164/995/200 123/996/199
s 1
f 115/997/93 62/998/90 152/999/201
s 1
f 115/1000/93 152/1001/201 164/1002/200
s 1
f 152/1003/201 163/1004/202 85/1005/113
s 1
f 163/1006/202 151/1007/112 85/1008/113
s 1
f 163/1009/202 117/1010/203 151/1011/112
s 1
f 117/1012/203 65/1013/111 151/1014/112
s 1
f 62/1015/90 114/1016/89 152/1017/201
s 1
f 114/1018/89 163/1019/202 152/1020/201
s 1
f 114/1021/89 20/1022/81 117/1023/203
s 1
f 114/1024/89 117/1025/203 163/1026/202
s 1
f 117/1027/203 162/1028/204 65/1029/111
s 1
f 162/1030/204 150/1031/110 65/1032/111
s 1
f 162/1033/204 149/1034/205 84/1035/109
s 1
f 162/1036/204 84/1037/109 150/1038/110
s 1
f 20/1039/81 111/1040/80 117/1041/203
s 1
f 111/1042/80 162/1043/204 117/1044/203
s 1
f 111/1045/80 60/1046/75 162/1047/204
s 1
f 60/1048/75 149/1049/205 162/1050/204
s 1
f 149/1051/205 161/1052/206 84/1053/109
s 1
f 161/1054/206 148/1055/108 84/1056/109
s 1
f 161/1057/206 122/1058/207 76/1059/107
s 1
f 161/1060/206 76/1061/107 148/1062/108
s 1
f 60/1063/75 110/1064/74 149/1065/205
s 1
f 110/1066/74 161/1067/206 149/1068/205
s 1
f 110/1069/74 32/1070/66 122/1071/207
s 1
f 110/1072/74 122/1073/207 161/1074/206
s 1
f 122/1075/207 160/1076/208 147/1077/106
s 1
f 122/1078/207 147/1079/106 76/1080/107
s 1
f 160/1081/208 146/1082/209 83/1083/104
s 1
f 160/1084/208 83/1085/104 147/1086/106
s 1
f 32/1087/66 108/1088/72 122/1089/207
s 1
f 108/1090/72 160/1091/208 122/1092/207
s 1
f 108/1093/72 59/1094/69 146/1095/209
s 1
f 108/1096/72 146/1097/209 160/1098/208
s 1
f 146/1099/209 159/1100/210 145/1101/103
s 1
f 146/1102/209 145/1103/103 83/1104/104
s 1
f 159/1105/210 116/1106/211 63/1107/105
s 1
f 159/1108/210 63/1109/105 145/1110/103
s 1
f 59/1111/69 109/1112/68 146/1113/209
s 1
f 109/1114/68 159/1115/210 146/1116/209
s 1
f 109/1117/68 9/1118/60 116/1119/211
s 1
f 109/1120/68 116/1121/211 159/1122/210
s 1
f 82/1123/212 158/1124/213 57/1125/7
s 1
f 158/1126/213 107/1127/59 57/1128/7
s 1
f 63/1129/105 116/1130/211 158/1131/213
s 1
f 63/1132/105 158/1133/213 82/1134/212
s 1
f 9/1135/60 107/1136/59 158/1137/213
s 1
f 9/1138/60 158/1139/213 116/1140/211
s 1
f 10/1141/32 88/1142/214 157/1143/153
s 1
f 10/1144/32 157/1145/153 95/1146/34
s 1
f 88/1147/214 2/1148/215 91/1149/151
s 1
f 88/1150/214 91/1151/151 157/1152/153
s 1
f 63/1153/105 82/1154/212 34/1155/16
s 1
f 82/1156/212 74/1157/14 34/1158/16
s 1
f 82/1159/212 73/1160/216 74/1161/14
s 1
f 73/1162/216 43/1163/13 74/1164/14
s 1
f 57/1165/7 31/1166/2 82/1167/212
s 1
f 31/1168/2 73/1169/216 82/1170/212
s 1
f 73/1171/216 81/1172/149 72/1173/10
s 1
f 73/1174/216 72/1175/10 43/1176/13
s 1
f 31/1177/2 58/1178/5 73/1179/216
s 1
f 58/1180/5 81/1181/149 73/1182/216
